0;START;i-31070562;1
0;START;i-39050728;1
0;START;i-3BE106C6;1
0;START;i-3E340798;1
0;START;i-42980715;1
0;START;i-43FD0797;1
0;START;i-450308C1;1
0;START;i-4A1307AE;1
0;START;i-4D310898;1
0;START;i-50BC0A1A;1
0;START;i-53390A93;4
0;START;i-56CB0910;8
7;START;i-320F06D1;2
128933;START;i-4811094D;1
129992;STOP;i-4811094D;
132391;START;i-49F207B6;1
132412;START;i-310005BF;1
132412;START;i-3CD1084F;1
132412;START;i-3FC3072C;1
132412;START;i-44760829;1
132412;START;i-47CB0883;1
132412;START;i-52AF08F8;1
132412;START;i-55E109F1;1
132420;START;i-4DC408FF;1
132420;START;i-538A0978;1
138218;STOP;i-310005BF;
138218;STOP;i-3CD1084F;
138218;STOP;i-3FC3072C;
138218;STOP;i-44760829;
138218;STOP;i-47CB0883;
138219;STOP;i-49F207B6;
138219;STOP;i-52AF08F8;
138219;STOP;i-538A0978;
138219;STOP;i-55E109F1;
138227;STOP;i-4DC408FF;
142108;START;i-413E07EA;1
142108;START;i-4339080A;1
142129;START;i-5D780AE6;1
142136;START;i-251904E8;1
142136;START;i-40F1081F;1
142136;START;i-42D607E1;1
142588;STOP;i-251904E8;
142588;STOP;i-40F1081F;
142588;STOP;i-413E07EA;
142588;STOP;i-42D607E1;
142588;STOP;i-4339080A;
142596;STOP;i-5D780AE6;
142633;START;i-4DAC0839;1
142641;START;i-3D970701;1
142641;START;i-441807EE;1
142648;START;i-3F9D07AE;1
142649;START;i-36B40618;1
142649;START;i-43BD0804;1
142887;STOP;i-36B40618;
142887;STOP;i-3D970701;
142887;STOP;i-3F9D07AE;
142887;STOP;i-43BD0804;
142887;STOP;i-4DAC0839;
142897;STOP;i-441807EE;
143003;START;i-47D108B4;1
143404;STOP;i-47D108B4;
150687;START;i-46B10871;1
150687;START;i-53850A24;1
150695;START;i-41D406F5;1
150695;START;i-474207D4;1
151581;STOP;i-41D406F5;
151581;STOP;i-46B10871;
151581;STOP;i-474207D4;
151588;STOP;i-53850A24;
152099;START;i-3031067B;1
152113;START;i-4AD908C4;1
152113;START;i-5B8F09B7;1
152507;STOP;i-4AD908C4;
152507;STOP;i-5B8F09B7;
152510;STOP;i-3031067B;
398358;START;i-4DE4083C;12
398373;START;i-3BB406AD;12
448393;STOP;i-3BB406AD;
448395;STOP;i-4DE4083C;
461340;START;i-48B50909;1
462679;STOP;i-48B50909;
463846;START;i-428C075D;1
463846;START;i-47D107DD;1
463846;START;i-4A6308A7;1
481512;STOP;i-4A6308A7;
481523;STOP;i-428C075D;
481523;STOP;i-47D107DD;
481574;START;i-4A9A08B1;1
481623;START;i-3AFD06E4;1
481638;START;i-457107EB;1
481645;START;i-48B70831;1
481652;START;i-3D4F076C;1
481652;START;i-473008BF;1
481652;START;i-4AF7082A;1
481652;START;i-522C0905;1
481659;START;i-4462077C;1
481659;START;i-49EE07FA;1
487566;STOP;i-3AFD06E4;
487567;STOP;i-3D4F076C;
487567;STOP;i-4462077C;
487567;STOP;i-457107EB;
487567;STOP;i-49EE07FA;
487567;STOP;i-4A9A08B1;
487567;STOP;i-4AF7082A;
487568;STOP;i-522C0905;
487570;STOP;i-473008BF;
487570;STOP;i-48B70831;
501698;START;i-3E1907C6;1
507706;STOP;i-3E1907C6;
635336;START;i-34AE0597;1
635336;START;i-3A9506E2;1
635350;START;i-4BBF08C7;1
635350;START;i-4F2508D1;1
639332;STOP;i-34AE0597;
639332;STOP;i-4BBF08C7;
639337;STOP;i-3A9506E2;
639337;STOP;i-4F2508D1;
646674;START;i-3A1C06C8;1
646703;START;i-4005071B;1
646703;START;i-4A9E08A5;1
646717;START;i-4D1008F7;1
646724;START;i-3C61076A;1
646732;START;i-4981089D;1
646739;START;i-35A4071E;1
646739;START;i-383906F2;1
646739;START;i-3EA80764;1
646739;START;i-450A07E4;1
661818;STOP;i-35A4071E;
661818;STOP;i-383906F2;
661818;STOP;i-3A1C06C8;
661818;STOP;i-3C61076A;
661818;STOP;i-3EA80764;
661818;STOP;i-4005071B;
661818;STOP;i-450A07E4;
661819;STOP;i-4A9E08A5;
661822;STOP;i-4981089D;
661822;STOP;i-4D1008F7;
1088789;START;i-4AD008CD;1
1088817;START;i-450408E8;1
1088817;START;i-47440810;1
1088817;START;i-49730931;1
1088825;START;i-377B0665;1
1090329;STOP;i-377B0665;
1090330;STOP;i-450408E8;
1090330;STOP;i-47440810;
1090330;STOP;i-49730931;
1090330;STOP;i-4AD008CD;
1351182;START;i-4FB808E2;12
1444819;STOP;i-4FB808E2;
1674003;START;i-3762068A;1
1674003;START;i-46D8083F;1
1674003;START;i-52DF085D;1
1675382;STOP;i-3762068A;
1675382;STOP;i-46D8083F;
1675382;STOP;i-52DF085D;
1675445;START;i-34DA07B1;1
2196474;START;i-318B0633;12
2196481;START;i-4AF908B3;12
2236236;STOP;i-4AF908B3;
2236252;STOP;i-318B0633;
2275680;START;i-43AE081B;12
2296439;STOP;i-34DA07B1;
2296520;START;i-424307D5;1
2296520;START;i-547D098B;1
2316395;STOP;i-424307D5;
2316396;STOP;i-547D098B;
2316446;START;i-46B407F5;1
2316446;START;i-4707079C;1
2316446;START;i-522C08DB;1
2320372;START;i-4EBB095F;12
2320387;START;i-4DD408BB;12
2326269;STOP;i-46B407F5;
2326269;STOP;i-4707079C;
2326269;STOP;i-522C08DB;
2365893;START;i-4E130834;1
2366240;STOP;i-4E130834;
2366347;START;i-3A8806C0;1
2366780;STOP;i-3A8806C0;
2367274;START;i-3EBB082A;2
2367345;STOP;i-3EBB082A;
2378056;START;i-55810B0B;1
2378438;STOP;i-55810B0B;
2378859;START;i-48620893;1
2386390;STOP;i-48620893;
2405083;STOP;i-4DD408BB;
2405089;STOP;i-4EBB095F;
2405094;STOP;i-43AE081B;
2473423;STOP;i-43FD0797;
2805374;START;i-3BD7078A;1
2807333;STOP;i-3BD7078A;
2807515;START;i-46CF08BA;1
2807914;STOP;i-46CF08BA;
2890185;START;i-4654088A;2
2891078;STOP;i-4654088A;
2891779;START;i-403307F0;2
2893381;STOP;i-403307F0;
2893516;START;i-460408EB;2
2993256;START;i-2DD806F4;4
2993256;START;i-4B280810;4
2993278;START;i-4E01092F;4
2993278;START;i-51A20A6F;4
2993278;START;i-54D7099C;4
2993300;START;i-3F2407E4;4
2993300;START;i-51EE09B8;4
2993300;START;i-5B8F0A33;4
2993308;START;i-3B1C0671;4
2993308;START;i-40FD0734;4
2993308;START;i-4DCE08E7;4
2993663;START;i-48BF0863;4
3012398;STOP;i-3B1C0671;
3012403;STOP;i-3F2407E4;
3012408;STOP;i-40FD0734;
3012413;STOP;i-48BF0863;
3012418;STOP;i-4B280810;
3012423;STOP;i-4DCE08E7;
3012428;STOP;i-4E01092F;
3012433;STOP;i-51A20A6F;
3012438;STOP;i-51EE09B8;
3012444;STOP;i-54D7099C;
3012450;STOP;i-5B8F0A33;
3012485;STOP;i-2DD806F4;
3049515;START;i-4071075A;4
3049515;START;i-5325095B;4
3049545;START;i-302606C9;4
3049545;START;i-318205A9;4
3049545;START;i-46CE0860;4
3049545;START;i-490D0816;4
3049545;START;i-492A07F6;4
3049545;START;i-4AAD0791;4
3049552;START;i-367C06F2;4
3049552;START;i-372F06E1;4
3049552;START;i-3DA60759;4
3049932;START;i-376608AD;4
3055310;STOP;i-302606C9;
3055314;STOP;i-318205A9;
3055318;STOP;i-367C06F2;
3055321;STOP;i-372F06E1;
3055325;STOP;i-376608AD;
3055333;STOP;i-46CE0860;
3055336;STOP;i-490D0816;
3055337;STOP;i-3DA60759;
3055344;STOP;i-4AAD0791;
3055347;STOP;i-5325095B;
3055352;STOP;i-492A07F6;
3056572;STOP;i-4071075A;
3058502;START;i-315706B4;4
3058502;START;i-36B106D7;4
3058502;START;i-473E073B;4
3058509;STOP;i-315706B4;
3058509;STOP;i-36B106D7;
3058509;STOP;i-473E073B;
3060556;START;i-527E08C5;4
3061546;STOP;i-527E08C5;
3063281;START;i-4F0B08AE;4
3063281;START;i-4F570838;4
3063302;START;i-3CAA0691;4
3063302;START;i-3CC00675;4
3063317;START;i-36380695;4
3063317;START;i-39ED0677;4
3063317;START;i-4CD9087E;4
3063317;START;i-5423086C;4
3063324;START;i-3EA007B3;4
3063324;START;i-4AEC0781;4
3063324;START;i-4B9207FD;4
3063573;START;i-4B2008A8;4
3064132;STOP;i-36380695;
3064132;STOP;i-39ED0677;
3064132;STOP;i-3CAA0691;
3064132;STOP;i-3CC00675;
3064132;STOP;i-3EA007B3;
3064132;STOP;i-4AEC0781;
3064132;STOP;i-4B9207FD;
3064132;STOP;i-4CD9087E;
3064132;STOP;i-4F570838;
3064135;STOP;i-4B2008A8;
3064135;STOP;i-4F0B08AE;
3064135;STOP;i-5423086C;
3068279;START;i-32AA06A8;4
3068279;START;i-3E4C0755;4
3068279;START;i-43A70776;4
3068499;START;i-34B906DE;4
3068499;START;i-3DC506F6;4
3068499;STOP;i-32AA06A8;
3068499;STOP;i-3E4C0755;
3068499;STOP;i-43A70776;
3068506;STOP;i-34B906DE;
3068506;STOP;i-3DC506F6;
3070328;START;i-542D0A09;1
3070502;STOP;i-542D0A09;
3071533;START;i-4272087C;4
3071540;STOP;i-4272087C;
3144398;START;i-3E9A0864;1
3159920;STOP;i-39050728;
3160930;STOP;i-3E9A0864;
3414407;START;i-4C610977;1
3414802;STOP;i-4C610977;
3414898;START;i-50510914;1
3414914;START;i-4127082C;1
3415309;STOP;i-50510914;
3415315;STOP;i-4127082C;
3422678;START;i-48440901;1
3424092;STOP;i-48440901;
4548296;START;i-312906D9;1
4548304;START;i-513E07ED;1
4702360;START;i-4933088E;1
4702833;STOP;i-4933088E;
4707485;START;i-449706EF;1
4715032;START;i-495B0801;1
4715287;STOP;i-495B0801;
4715593;START;i-38580685;1
4787644;STOP;i-449706EF;
4980851;START;i-3E9A07C7;1
4980851;START;i-46A608C7;1
4981871;STOP;i-3E9A07C7;
4982512;STOP;i-46A608C7;
5157076;START;i-3DEA07A4;1
5157431;STOP;i-3DEA07A4;
5157462;START;i-3502063D;1
5157540;STOP;i-3502063D;
5157568;START;i-376406A8;1
5163479;START;i-3C0606A9;1
5164619;STOP;i-376406A8;
5164722;STOP;i-3C0606A9;
5237691;START;i-32970668;1
5238335;START;i-3C1107CC;1
5238431;STOP;i-32970668;
5240427;STOP;i-3C1107CC;
5573966;START;i-3EAC082E;1
6004341;START;i-3C9B07CF;1
6293425;START;i-47E807DD;1
6296212;STOP;i-47E807DD;
6296236;START;i-392B0670;1
6299441;STOP;i-392B0670;
6333707;START;i-3E8207B0;1
6334196;STOP;i-3E8207B0;
6334204;START;i-3CA8076B;1
6338020;START;i-43E60772;1
6338688;STOP;i-3CA8076B;
6341596;STOP;i-43E60772;
6517042;START;i-382B088E;1
6517266;STOP;i-382B088E;
6520968;START;i-33CA0683;12
6526199;START;i-4A7708B7;1
6526503;STOP;i-4A7708B7;
6543887;STOP;i-33CA0683;
6552306;START;i-44E907C8;12
6557501;STOP;i-44E907C8;
6603552;START;i-33BF069D;12
6608085;STOP;i-33BF069D;
6608748;START;i-501708F6;1
6608952;STOP;i-501708F6;
6611833;START;i-44BC08B2;12
6694967;START;i-54050914;1
6695348;STOP;i-54050914;
6699915;START;i-44FE0891;1
6700574;STOP;i-44FE0891;
6700630;START;i-422C0817;1
6700725;STOP;i-422C0817;
6705752;START;i-39B606DA;12
6706715;STOP;i-39B606DA;
6707745;START;i-502608D5;1
6708348;START;i-3F1D076D;1
6708986;STOP;i-3F1D076D;
6708993;STOP;i-502608D5;
6709976;STOP;i-44BC08B2;
6769093;STOP;i-56CB0910;
6769160;STOP;i-53390A93;
6769995;START;i-41F40789;12
6770418;STOP;i-41F40789;
6770607;START;i-3E9D083D;12
6770766;STOP;i-3E9D083D;
6771294;START;i-39640730;12
6771450;STOP;i-39640730;
6771656;START;i-51200A84;12
6771790;STOP;i-51200A84;
6772187;START;i-3EAA0690;12
6772272;STOP;i-3EAA0690;
6772573;START;i-424E072B;12
6772619;STOP;i-424E072B;
6773200;START;i-478507B4;12
6773342;STOP;i-478507B4;
6773982;START;i-477C08FD;12
6774074;STOP;i-477C08FD;
6782583;START;i-3CD50694;12
6783146;STOP;i-3CD50694;
7050649;START;i-5A910999;12
7078270;STOP;i-5A910999;
7131561;START;i-3C6C0732;1
7131906;START;i-348905FA;1
7131942;START;i-2E240567;1
7131942;START;i-47E00826;1
7131950;START;i-4709089C;1
7132202;START;i-45F707CC;1
7132224;START;i-439908A1;1
7132417;STOP;i-348905FA;
7132417;STOP;i-45F707CC;
7132417;STOP;i-4709089C;
7132417;STOP;i-47E00826;
7132450;STOP;i-2E240567;
7132463;STOP;i-439908A1;
7136258;STOP;i-38580685;
7173419;STOP;i-4D310898;
7202625;STOP;i-3C6C0732;
7302195;START;i-3CBF065B;2
7307419;START;i-3FE00720;1
7400029;START;i-4DC3090A;1
7400411;STOP;i-3CBF065B;
7733837;STOP;i-3FE00720;
7734379;START;i-47A7089E;1
7734452;STOP;i-47A7089E;
7734579;START;i-429007DC;1
7735567;STOP;i-429007DC;
7735658;START;i-46B9081D;1
7736277;STOP;i-4DC3090A;
7744901;STOP;i-46B9081D;
7916652;START;i-46E5088D;2
7916982;STOP;i-312906D9;
7916982;STOP;i-513E07ED;
8002280;START;i-45E60826;2
8002280;START;i-4AE60838;2
8002423;START;i-5326086C;2
8002444;START;i-321E067D;2
8006040;START;i-49F508ED;2
8007630;STOP;i-321E067D;
8007630;STOP;i-45E60826;
8007630;STOP;i-46E5088D;
8007630;STOP;i-49F508ED;
8007630;STOP;i-5326086C;
8007635;STOP;i-4AE60838;
8017399;START;i-4297077E;2
8017399;START;i-4A3807C5;2
8017413;START;i-4DB508FC;2
8017421;START;i-3C8D081D;2
8017436;START;i-4159076B;2
8017436;START;i-48FF0875;2
8017450;START;i-36E50759;2
8017450;START;i-3E6A07BA;2
8017450;START;i-41CD077D;2
8017544;START;i-365105FC;2
8019555;START;i-331E0693;2
8019555;START;i-3BDA07D5;2
8019555;START;i-3D2C07C4;2
8019570;START;i-4E1908BA;2
8021248;START;i-4467083C;2
8021412;START;i-38DC06BF;2
8021427;START;i-3BFE073E;2
8025362;STOP;i-331E0693;
8025362;STOP;i-365105FC;
8025362;STOP;i-36E50759;
8025362;STOP;i-38DC06BF;
8025362;STOP;i-3BDA07D5;
8025362;STOP;i-3BFE073E;
8025362;STOP;i-3C8D081D;
8025362;STOP;i-3E6A07BA;
8025362;STOP;i-4159076B;
8025362;STOP;i-41CD077D;
8025362;STOP;i-4297077E;
8025362;STOP;i-4467083C;
8025362;STOP;i-4A3807C5;
8025362;STOP;i-4DB508FC;
8025362;STOP;i-4E1908BA;
8025369;STOP;i-3D2C07C4;
8025369;STOP;i-48FF0875;
8063147;START;i-32EB05B1;4
8063183;START;i-312C0643;4
8063219;START;i-48250945;4
8063219;START;i-4D3D093D;4
8063226;START;i-3514072B;4
8063226;START;i-3C5C0827;4
8063226;START;i-44B40623;4
8063226;START;i-45F8091C;4
8063226;START;i-46D307C6;4
8063226;START;i-58B30923;4
8063396;START;i-359D068B;4
8063396;START;i-3D1A0810;4
8063396;START;i-491407CD;4
8066823;STOP;i-312C0643;
8066823;STOP;i-32EB05B1;
8066823;STOP;i-359D068B;
8066823;STOP;i-3C5C0827;
8066823;STOP;i-3D1A0810;
8066823;STOP;i-44B40623;
8066823;STOP;i-46D307C6;
8066823;STOP;i-48250945;
8066823;STOP;i-491407CD;
8066823;STOP;i-4D3D093D;
8066823;STOP;i-58B30923;
8066830;STOP;i-3514072B;
8066830;STOP;i-45F8091C;
8068734;START;i-4DA1097A;8
8074833;STOP;i-4DA1097A;
8175000;START;i-2F0A066B;2
8175001;START;i-449E07F8;2
8175001;START;i-47BA088B;2
8175015;START;i-45E6075A;2
8175022;START;i-2F6906B1;2
8175022;START;i-35EE0656;2
8175022;START;i-380705D2;2
8175022;START;i-3A2407CA;2
8175022;START;i-400C0860;2
8175022;START;i-41F207D8;2
8175022;START;i-467D07D1;2
8175022;START;i-468408C8;2
8175022;START;i-510E090C;2
8175022;START;i-589A0989;2
8175022;START;i-59130A5B;2
8175022;STOP;i-2F0A066B;
8175022;STOP;i-449E07F8;
8175022;STOP;i-45E6075A;
8175022;STOP;i-47BA088B;
8175023;STOP;i-2F6906B1;
8175039;STOP;i-35EE0656;
8175039;STOP;i-3A2407CA;
8175039;STOP;i-59130A5B;
8175053;START;i-409D0809;2
8175060;STOP;i-409D0809;
8175075;STOP;i-400C0860;
8175075;STOP;i-467D07D1;
8175075;STOP;i-510E090C;
8175075;STOP;i-589A0989;
8175118;STOP;i-380705D2;
8175118;STOP;i-41F207D8;
8175118;STOP;i-468408C8;
8236207;START;i-4147081B;2
8236207;START;i-426608E7;2
8236207;START;i-47FC087F;2
8236214;START;i-3C060728;2
8236214;START;i-41890720;2
8236214;START;i-42180875;2
8236214;START;i-51E608E8;2
8236228;START;i-3CC30698;2
8236243;START;i-46200877;2
8236243;START;i-52E30967;2
8236257;START;i-2D610620;2
8236257;START;i-39250802;2
8236257;START;i-39A6077F;2
8236257;START;i-3AA20709;2
8236257;START;i-3AFB074D;2
8236257;START;i-3ED306B2;2
8236257;START;i-40270775;2
8236257;START;i-40C8079F;2
8236257;START;i-4179084E;2
8236257;START;i-4297089C;2
8236257;START;i-43C307B8;2
8236257;START;i-4B0208C2;2
8236257;START;i-4D9C0900;2
8236257;START;i-4F560968;2
8236257;START;i-51F40917;2
8236257;START;i-54B40980;2
8236257;START;i-58AA0A50;2
8265729;START;i-400D0743;2
8266081;START;i-2A8C05B6;2
8266170;START;i-33EB069A;2
8266170;START;i-3F9B07A1;2
8266170;START;i-5120099A;2
8269158;STOP;i-2D610620;
8269158;STOP;i-33EB069A;
8269158;STOP;i-39250802;
8269158;STOP;i-39A6077F;
8269158;STOP;i-3AA20709;
8269158;STOP;i-3AFB074D;
8269158;STOP;i-3C060728;
8269158;STOP;i-3CC30698;
8269158;STOP;i-3ED306B2;
8269158;STOP;i-3F9B07A1;
8269158;STOP;i-400D0743;
8269158;STOP;i-40270775;
8269158;STOP;i-40C8079F;
8269158;STOP;i-47FC087F;
8269158;STOP;i-4B0208C2;
8269158;STOP;i-4F560968;
8269158;STOP;i-51E608E8;
8269158;STOP;i-51F40917;
8269158;STOP;i-52E30967;
8269158;STOP;i-54B40980;
8269158;STOP;i-58AA0A50;
8269159;STOP;i-4147081B;
8269159;STOP;i-4179084E;
8269159;STOP;i-41890720;
8269159;STOP;i-42180875;
8269159;STOP;i-426608E7;
8269159;STOP;i-4297089C;
8269159;STOP;i-43C307B8;
8269166;STOP;i-46200877;
8269166;STOP;i-4D9C0900;
8269167;STOP;i-2A8C05B6;
8269167;STOP;i-5120099A;
8278370;START;i-33B206BA;2
8278385;START;i-4A1A0800;2
8278392;START;i-3B0106EC;2
8278392;START;i-3E1406F3;2
8278392;START;i-407A07B0;2
8278392;START;i-56CA0A61;2
8278393;START;i-502E08BF;2
8278407;START;i-3EB30855;2
8278407;START;i-55570943;2
8278407;START;i-5AB808C4;2
8278414;START;i-336E066A;2
8278414;START;i-39050788;2
8278414;START;i-3C7F074C;2
8278414;START;i-4BAD0853;2
8278414;START;i-500409A6;2
8278414;START;i-51460982;2
8278415;START;i-3AC00686;2
8278415;START;i-3C0707DB;2
8278415;START;i-44C6086D;2
8278415;START;i-453F0880;2
8278415;START;i-45E40900;2
8278415;START;i-4A6D0815;2
8278415;START;i-4A96083E;2
8278415;START;i-4EFA083E;2
8278415;START;i-509C09C2;2
8278422;START;i-3F9C072A;2
8278422;START;i-41C007F0;2
8278422;START;i-45EE0791;2
8278796;START;i-483C0862;2
8278796;STOP;i-336E066A;
8278796;STOP;i-33B206BA;
8278796;STOP;i-39050788;
8278796;STOP;i-3AC00686;
8278796;STOP;i-3B0106EC;
8278796;STOP;i-3C0707DB;
8278796;STOP;i-3C7F074C;
8278796;STOP;i-3E1406F3;
8278796;STOP;i-3EB30855;
8278796;STOP;i-3F9C072A;
8278796;STOP;i-407A07B0;
8278796;STOP;i-41C007F0;
8278796;STOP;i-44C6086D;
8278796;STOP;i-45E40900;
8278796;STOP;i-45EE0791;
8278796;STOP;i-4A1A0800;
8278796;STOP;i-4A96083E;
8278796;STOP;i-4BAD0853;
8278796;STOP;i-4EFA083E;
8278796;STOP;i-500409A6;
8278796;STOP;i-502E08BF;
8278796;STOP;i-509C09C2;
8278796;STOP;i-51460982;
8278796;STOP;i-55570943;
8278796;STOP;i-56CA0A61;
8278796;STOP;i-5AB808C4;
8278804;STOP;i-453F0880;
8278804;STOP;i-4A6D0815;
8278897;STOP;i-483C0862;
8321456;START;i-412A0840;2
8321464;START;i-44F40832;2
8321465;START;i-4AD70742;2
8321471;START;i-32C606B8;2
8321471;START;i-3A6A06C9;2
8321471;START;i-4A530896;2
8321486;START;i-3D0507CF;2
8321486;START;i-498A07FE;2
8321493;START;i-311A05C9;2
8321493;START;i-347E073E;2
8321493;START;i-369D07DB;2
8321493;START;i-39C606F1;2
8321493;START;i-4373087E;2
8321493;START;i-448207CC;2
8321493;START;i-4699078F;2
8321493;START;i-50BB0901;2
8321507;START;i-30B00681;2
8321507;START;i-3C1A0732;2
8321507;START;i-3C290777;2
8321507;START;i-3FF90784;2
8321507;START;i-43AF070E;2
8321507;START;i-44B70820;2
8321507;START;i-496E07DB;2
8321515;START;i-2D0305AD;2
8321515;START;i-39070700;2
8321515;START;i-50F3097C;2
8321515;START;i-5E670A26;2
8321659;START;i-41BE078F;2
8321659;START;i-4966083D;2
8321767;START;i-48F007FD;2
8322104;START;i-3FE90793;2
8322104;START;i-566B094B;2
8322104;START;i-59B60A00;2
8322112;START;i-41DA088D;2
8322112;START;i-4C230853;2
8329004;STOP;i-2D0305AD;
8329004;STOP;i-30B00681;
8329004;STOP;i-311A05C9;
8329004;STOP;i-32C606B8;
8329004;STOP;i-347E073E;
8329004;STOP;i-369D07DB;
8329004;STOP;i-39070700;
8329004;STOP;i-39C606F1;
8329004;STOP;i-3A6A06C9;
8329004;STOP;i-3C1A0732;
8329004;STOP;i-3C290777;
8329004;STOP;i-3D0507CF;
8329004;STOP;i-3FE90793;
8329004;STOP;i-48F007FD;
8329004;STOP;i-4966083D;
8329004;STOP;i-496E07DB;
8329004;STOP;i-498A07FE;
8329004;STOP;i-4A530896;
8329004;STOP;i-4AD70742;
8329004;STOP;i-4C230853;
8329004;STOP;i-50BB0901;
8329004;STOP;i-50F3097C;
8329004;STOP;i-566B094B;
8329004;STOP;i-59B60A00;
8329005;STOP;i-3FF90784;
8329005;STOP;i-412A0840;
8329005;STOP;i-41BE078F;
8329005;STOP;i-41DA088D;
8329005;STOP;i-4373087E;
8329005;STOP;i-43AF070E;
8329005;STOP;i-448207CC;
8329005;STOP;i-44B70820;
8329005;STOP;i-44F40832;
8329005;STOP;i-4699078F;
8329005;STOP;i-5E670A26;
8330123;START;i-4467084F;1
8336219;STOP;i-4467084F;
8336299;START;i-4DE008AA;1
8344907;STOP;i-31070562;
8841978;START;i-417507C7;4
8842058;START;i-35DF05DB;4
8842058;START;i-3D850776;4
8842058;START;i-40710779;4
8842065;START;i-490B08DD;4
8842065;START;i-5227099E;4
8842342;START;i-501E0A22;4
8843151;START;i-2BF40519;4
8843151;START;i-3E60066B;4
8843151;START;i-443F0740;4
8861178;STOP;i-2BF40519;
8861178;STOP;i-35DF05DB;
8861178;STOP;i-3D850776;
8861178;STOP;i-3E60066B;
8861179;STOP;i-40710779;
8861179;STOP;i-417507C7;
8861179;STOP;i-490B08DD;
8861179;STOP;i-501E0A22;
8861179;STOP;i-5227099E;
8861183;STOP;i-443F0740;
8944378;START;i-46300836;4
8944399;START;i-327A05CE;4
8951527;STOP;i-327A05CE;
8951530;STOP;i-46300836;
9026501;STOP;i-4DE008AA;
9027395;START;i-36E306AA;1
9031875;START;i-4F700816;2
9031884;START;i-398507BA;2
9031884;START;i-42A107C8;2
9031899;START;i-2EFE0644;2
9031899;START;i-43E607B9;2
9031899;START;i-4FE10912;2
9032098;START;i-3527067E;2
9032098;START;i-3C6F06BE;2
9032403;START;i-40810737;2
9032403;START;i-49FE086A;2
9032403;START;i-523909BC;2
9032403;START;i-60C709E3;2
9032525;START;i-39530766;2
9032525;START;i-41A30787;2
9032525;START;i-456307B2;2
9032525;START;i-492008E4;2
9032525;START;i-51C60926;2
9032662;START;i-336306BF;2
9032662;START;i-67E60C3E;2
9032677;START;i-457C0774;2
9040418;STOP;i-2EFE0644;
9040418;STOP;i-336306BF;
9040418;STOP;i-3527067E;
9040418;STOP;i-398507BA;
9040418;STOP;i-40810737;
9040418;STOP;i-41A30787;
9040418;STOP;i-42A107C8;
9040418;STOP;i-43E607B9;
9040418;STOP;i-456307B2;
9040418;STOP;i-457C0774;
9040418;STOP;i-49FE086A;
9040418;STOP;i-4FE10912;
9040418;STOP;i-51C60926;
9040418;STOP;i-60C709E3;
9040420;STOP;i-3C6F06BE;
9040421;STOP;i-39530766;
9040421;STOP;i-492008E4;
9040428;STOP;i-4F700816;
9040428;STOP;i-523909BC;
9040428;STOP;i-67E60C3E;
9051170;START;i-3FB90811;2
9051170;START;i-453C0895;2
9052679;STOP;i-3FB90811;
9052679;STOP;i-453C0895;
9059852;START;i-2DFD05B3;2
9059852;START;i-5530099A;2
9060800;START;i-46F007F8;2
9060951;STOP;i-46F007F8;
9060973;START;i-3D6A07AD;2
9061022;START;i-452708DC;2
9064314;STOP;i-3D6A07AD;
9064324;STOP;i-5530099A;
9190662;STOP;i-2DFD05B3;
9190662;STOP;i-452708DC;
9190861;START;i-40380787;2
9190951;STOP;i-40380787;
9191166;START;i-38670769;2
9191257;STOP;i-38670769;
9191431;START;i-519E089B;2
9191512;STOP;i-519E089B;
9191826;START;i-56DC0926;2
9191918;STOP;i-56DC0926;
9192072;START;i-510E0981;2
9192083;STOP;i-510E0981;
9199581;START;i-46140865;2
9199581;START;i-527B0978;2
9199631;STOP;i-46140865;
9199631;STOP;i-527B0978;
9200022;START;i-2C4F04F9;2
9200022;START;i-527909D2;2
9200067;STOP;i-527909D2;
9200072;STOP;i-2C4F04F9;
9200408;START;i-2C90059C;2
9200408;START;i-5AD90A08;2
9200436;STOP;i-2C90059C;
9200436;STOP;i-5AD90A08;
9200736;START;i-48C1095A;2
9200736;START;i-60730AE6;2
9200866;STOP;i-48C1095A;
9200871;STOP;i-60730AE6;
9201233;START;i-3F1C0721;2
9201233;START;i-40AE07DB;2
9201264;STOP;i-3F1C0721;
9201269;STOP;i-40AE07DB;
9211524;START;i-2AB905A5;2
9211524;START;i-322305ED;2
9211524;START;i-3BB00795;2
9211524;START;i-487A080B;2
9211561;STOP;i-322305ED;
9211561;STOP;i-3BB00795;
9211562;STOP;i-487A080B;
9211567;STOP;i-2AB905A5;
9211870;START;i-40A907B7;2
9211870;START;i-5486090D;2
9211877;START;i-3ABF0711;2
9211877;START;i-3E570717;2
9211915;STOP;i-3E570717;
9211915;STOP;i-5486090D;
9211920;STOP;i-3ABF0711;
9211920;STOP;i-40A907B7;
9212359;START;i-22F303E2;2
9212359;START;i-36300757;2
9212366;START;i-418D0680;2
9212366;START;i-4397087B;2
9212710;STOP;i-22F303E2;
9212710;STOP;i-36300757;
9212721;STOP;i-418D0680;
9212721;STOP;i-4397087B;
9213009;START;i-3C41085E;2
9213009;START;i-3CC80737;2
9213009;START;i-3FE30738;2
9213009;START;i-42AC0867;2
9213044;STOP;i-3C41085E;
9213044;STOP;i-3CC80737;
9213052;STOP;i-3FE30738;
9213052;STOP;i-42AC0867;
9213498;START;i-3C6106B6;2
9213498;START;i-44AE079F;2
9213498;START;i-46FA0881;2
9213600;STOP;i-3C6106B6;
9213600;STOP;i-44AE079F;
9213600;STOP;i-46FA0881;
9213633;START;i-320906C9;2
9282272;START;i-3A9D060C;1
9282389;STOP;i-3A9D060C;
9282954;START;i-32A10684;12
9284623;STOP;i-32A10684;
9289770;START;i-406807E2;12
9293820;START;i-51B9089C;12
9293835;START;i-3B5507F7;12
9294149;STOP;i-320906C9;
9294556;START;i-430D0805;2
9294556;START;i-4806082F;2
9294563;START;i-452308C1;2
9294563;START;i-48CD078D;2
9294599;STOP;i-452308C1;
9294599;STOP;i-48CD078D;
9294606;STOP;i-430D0805;
9294606;STOP;i-4806082F;
9294894;START;i-33B30626;2
9294894;START;i-461A08D7;2
9294902;START;i-365705DB;2
9294902;START;i-441C080D;2
9294945;STOP;i-365705DB;
9294946;STOP;i-441C080D;
9294946;STOP;i-461A08D7;
9294952;STOP;i-33B30626;
9295254;START;i-35030642;2
9295254;START;i-4CC80969;2
9295312;START;i-3AC80795;12
9295550;START;i-4EFE08B5;2
9295680;START;i-4FE90848;2
9295830;START;i-35B3061E;2
9295830;START;i-3A1607F6;2
9295830;START;i-3BA706B9;2
9295830;START;i-42CE07FC;2
9295880;STOP;i-35030642;
9295880;STOP;i-3A1607F6;
9295880;STOP;i-42CE07FC;
9295881;STOP;i-4CC80969;
9295881;STOP;i-4EFE08B5;
9295887;STOP;i-35B3061E;
9295887;STOP;i-3BA706B9;
9295887;STOP;i-4FE90848;
9296645;START;i-3C83071B;2
9296652;START;i-4C2508CF;2
9296831;START;i-4F80088B;2
9296981;START;i-4BE107FB;2
9297135;START;i-446608B9;2
9297278;START;i-3E11079F;2
9297278;START;i-45F708B3;2
9297278;START;i-53740973;2
9297293;STOP;i-3C83071B;
9297293;STOP;i-3E11079F;
9297293;STOP;i-45F708B3;
9297294;STOP;i-4BE107FB;
9297294;STOP;i-4F80088B;
9297299;STOP;i-446608B9;
9297299;STOP;i-4C2508CF;
9297299;STOP;i-53740973;
9298025;START;i-31E40680;2
9298025;START;i-33AC0740;2
9298350;START;i-4E2F0869;2
9298501;START;i-42BF07D0;2
9298501;START;i-56470949;2
9298654;START;i-408107C1;2
9298654;START;i-438B08E7;2
9298654;START;i-4E170A2D;2
9298674;STOP;i-408107C1;
9298674;STOP;i-438B08E7;
9298674;STOP;i-4E170A2D;
9298674;STOP;i-4E2F0869;
9298675;STOP;i-56470949;
9298682;STOP;i-31E40680;
9298682;STOP;i-33AC0740;
9298682;STOP;i-42BF07D0;
9299081;START;i-452407BB;2
9299081;START;i-4C450853;2
9299152;START;i-3E990753;2
9299427;START;i-4A6608C9;2
9299427;START;i-4BCA0867;2
9299691;START;i-35BB060C;2
9299691;START;i-3CE207E1;2
9299698;START;i-3BB3075C;2
9299767;STOP;i-3E990753;
9299767;STOP;i-452407BB;
9299768;STOP;i-4A6608C9;
9299768;STOP;i-4BCA0867;
9299768;STOP;i-4C450853;
9299776;STOP;i-35BB060C;
9299776;STOP;i-3BB3075C;
9299776;STOP;i-3CE207E1;
9300168;START;i-3FB60808;2
9300168;START;i-4B8D0831;2
9300630;START;i-41480719;2
9300630;START;i-458C07D5;2
9300630;START;i-5A7D09B8;2
9300637;START;i-3A02086A;2
9300637;START;i-4696087D;2
9300773;START;i-4373081A;2
9300794;STOP;i-3A02086A;
9300794;STOP;i-41480719;
9300794;STOP;i-4373081A;
9300795;STOP;i-4696087D;
9300795;STOP;i-4B8D0831;
9300801;STOP;i-3FB60808;
9300801;STOP;i-458C07D5;
9300801;STOP;i-5A7D09B8;
9301227;START;i-32A006E1;2
9301227;START;i-42BF0807;2
9301250;START;i-4D0E0965;2
9301366;START;i-3B2106D7;2
9301366;START;i-479C0873;2
9301366;START;i-555809BD;2
9301591;START;i-4943084C;2
9301806;START;i-41F108EE;2
9301806;START;i-4226089D;2
9301806;START;i-4974093B;2
9301806;START;i-4E87095B;2
9303152;STOP;i-32A006E1;
9303152;STOP;i-3B2106D7;
9303152;STOP;i-4226089D;
9303152;STOP;i-42BF0807;
9303152;STOP;i-4943084C;
9303153;STOP;i-4974093B;
9303156;STOP;i-41F108EE;
9303156;STOP;i-4D0E0965;
9303156;STOP;i-4E87095B;
9303157;STOP;i-479C0873;
9303157;STOP;i-555809BD;
9321051;STOP;i-3AC80795;
9321068;STOP;i-3B5507F7;
9321068;STOP;i-51B9089C;
9321076;STOP;i-406807E2;
9355502;START;i-368806B2;2
9355502;START;i-4DBB0915;2
9355746;START;i-4C3E09C9;2
9355803;START;i-34960676;2
9355803;START;i-414F07EC;2
9355803;START;i-4FEC0834;2
9355932;START;i-3A380753;2
9355932;START;i-443308E7;2
9355940;START;i-2B7A04EC;2
9355940;START;i-42C0080C;2
9355940;START;i-5BAA0A07;2
9356076;START;i-3ACF05D5;2
9356784;STOP;i-34960676;
9356785;STOP;i-368806B2;
9356785;STOP;i-414F07EC;
9356786;STOP;i-2B7A04EC;
9356786;STOP;i-3A380753;
9356786;STOP;i-3ACF05D5;
9356786;STOP;i-42C0080C;
9356786;STOP;i-443308E7;
9356786;STOP;i-4DBB0915;
9356786;STOP;i-4FEC0834;
9356793;STOP;i-4C3E09C9;
9356793;STOP;i-5BAA0A07;
9356924;START;i-2AFE055C;2
9356924;START;i-443207E8;2
9357042;START;i-57EF095B;2
9357175;START;i-4E920855;2
9357175;START;i-56B00966;2
9357597;START;i-2DC805F4;2
9357597;START;i-41BD07BF;2
9357671;START;i-39110754;2
9357671;START;i-3FA60785;2
9357735;START;i-3A30085C;2
9357735;START;i-43C807D6;2
9357742;START;i-3EA80816;2
9357742;START;i-4332070A;2
9357742;START;i-508809C9;2
9357742;START;i-52070A58;2
9357742;START;i-56F70921;2
9358288;STOP;i-2AFE055C;
9358288;STOP;i-2DC805F4;
9358288;STOP;i-3EA80816;
9358289;STOP;i-3FA60785;
9358289;STOP;i-4332070A;
9358289;STOP;i-43C807D6;
9358290;STOP;i-4E920855;
9358290;STOP;i-52070A58;
9358290;STOP;i-56B00966;
9358291;STOP;i-57EF095B;
9358297;STOP;i-39110754;
9358297;STOP;i-3A30085C;
9358297;STOP;i-41BD07BF;
9358298;STOP;i-443207E8;
9358298;STOP;i-508809C9;
9358298;STOP;i-56F70921;
9363727;START;i-3EFB07AE;12
9363741;START;i-31930622;12
9365333;START;i-503108FF;12
9366462;START;i-485B085C;12
9390567;START;i-4409081B;1
9442268;STOP;i-31930622;
9442276;STOP;i-3EFB07AE;
9442276;STOP;i-503108FF;
9442290;STOP;i-485B085C;
9447037;START;i-541C0920;2
9449778;STOP;i-541C0920;
9449786;STOP;i-4409081B;
9459997;STOP;i-42980715;
9459997;STOP;i-450308C1;
9459997;STOP;i-4A1307AE;
9460918;STOP;i-3BE106C6;
9460918;STOP;i-3E340798;
9460918;STOP;i-50BC0A1A;
9464942;START;i-3E9607D4;12
9465923;STOP;i-3E9607D4;
9466505;START;i-5DA10979;1
9467656;START;i-429408E2;12
9468415;START;i-3C010845;12
9468422;STOP;i-3C010845;
9470513;STOP;i-429408E2;
9471645;START;i-52680A04;1
9472630;START;i-29FB05F5;1
9472644;START;i-3A920758;1
9472644;START;i-3DC40742;1
9484427;START;i-4A3F07F0;2
9487932;STOP;i-4A3F07F0;
9529385;START;i-4A520956;2
9529399;START;i-4151077F;2
9529406;START;i-420F07E8;2
9529406;START;i-465307AC;2
9529406;START;i-4B88082A;2
9529478;START;i-44CE07E5;2
9529915;START;i-31F005F7;2
9529937;STOP;i-44CE07E5;
9530858;STOP;i-31F005F7;
9537431;START;i-45B10906;1
9540749;STOP;i-4151077F;
9540749;STOP;i-420F07E8;
9540749;STOP;i-4A520956;
9540749;STOP;i-4B88082A;
9540758;STOP;i-465307AC;
9559413;START;i-4F970967;2
9568220;START;i-386305F2;2
9576725;STOP;i-386305F2;
9576725;STOP;i-4F970967;
9626464;START;i-485608EE;2
9626594;START;i-4D490814;2
9626594;START;i-57F609D4;2
9626601;START;i-3C9006B5;2
9626601;START;i-649D0AA5;2
9626745;START;i-49DF0822;2
9626875;START;i-349D05DD;2
9626875;START;i-35EA05FE;2
9626875;START;i-45070778;2
9626875;START;i-486007F7;2
9632016;STOP;i-349D05DD;
9632016;STOP;i-3C9006B5;
9632016;STOP;i-485608EE;
9632016;STOP;i-49DF0822;
9632016;STOP;i-4D490814;
9632016;STOP;i-57F609D4;
9632023;STOP;i-35EA05FE;
9632023;STOP;i-45070778;
9632023;STOP;i-486007F7;
9632023;STOP;i-649D0AA5;
9661612;STOP;i-36E306AA;
9664416;START;i-4CA90866;2
9671855;STOP;i-4CA90866;
9708127;START;i-41CF0692;2
9726109;START;i-51F3097A;2
9730297;STOP;i-41CF0692;
9795703;START;i-4BF80875;1
9795880;STOP;i-4BF80875;
9796565;START;i-39D50708;1
9796889;STOP;i-39D50708;
9797125;START;i-555009B6;1
9797197;START;i-40F607BE;1
9797813;START;i-494B08DF;1
9797897;STOP;i-40F607BE;
9797934;STOP;i-494B08DF;
9797986;STOP;i-555009B6;
9806778;START;i-487808B3;2
9814545;STOP;i-487808B3;
9815096;START;i-48710958;2
9900222;STOP;i-48710958;
10076764;STOP;i-51F3097A;
10141536;START;i-4F560918;2
10141543;START;i-47F10897;2
10141543;START;i-58CD0A0D;2
10141558;START;i-35CF078E;2
10141558;START;i-3F2D07AC;2
10141558;START;i-40700852;2
10141558;START;i-464206F7;2
10141558;START;i-47D80815;2
10141558;START;i-4C3408B3;2
10141558;START;i-4D5E08F5;2
10141558;START;i-541A0947;2
10141558;START;i-5AB00A0E;2
10141587;START;i-33A607F1;2
10141811;START;i-47130868;2
10141811;START;i-51340956;2
10141921;START;i-377A0623;2
10141921;START;i-390206CD;2
10141987;START;i-376E067C;2
10141987;START;i-50FA08E7;2
10141987;START;i-56060A8A;2
10142073;START;i-34BC06FC;2
10142073;START;i-42340760;2
10142073;START;i-4565087D;2
10142181;START;i-34680728;2
10142181;START;i-34F605E6;2
10142181;START;i-3B820720;2
10142181;START;i-3E4B06EA;2
10142188;START;i-3A150654;2
10142188;START;i-476F080A;2
10142302;START;i-253D0558;2
10142302;START;i-4CD60896;2
10142324;START;i-3B9C069B;2
10142324;START;i-463B07D1;2
10150637;START;i-496108BA;2
10152703;STOP;i-35CF078E;
10152703;STOP;i-376E067C;
10152703;STOP;i-377A0623;
10152703;STOP;i-47F10897;
10152703;STOP;i-4C3408B3;
10152703;STOP;i-4CD60896;
10152703;STOP;i-4F560918;
10152703;STOP;i-50FA08E7;
10152703;STOP;i-5AB00A0E;
10152705;STOP;i-4D5E08F5;
10152712;STOP;i-34F605E6;
10154499;STOP;i-496108BA;
10154824;START;i-40240652;2
10227801;STOP;i-253D0558;
10227801;STOP;i-34680728;
10227801;STOP;i-390206CD;
10227801;STOP;i-3A150654;
10227801;STOP;i-3B820720;
10227801;STOP;i-3B9C069B;
10227801;STOP;i-3E4B06EA;
10227801;STOP;i-3F2D07AC;
10227801;STOP;i-40240652;
10227801;STOP;i-40700852;
10227801;STOP;i-45B10906;
10227801;STOP;i-463B07D1;
10227801;STOP;i-464206F7;
10227801;STOP;i-476F080A;
10227801;STOP;i-47D80815;
10227801;STOP;i-541A0947;
10227801;STOP;i-58CD0A0D;
10227802;STOP;i-33A607F1;
10227802;STOP;i-34BC06FC;
10227802;STOP;i-42340760;
10227802;STOP;i-4565087D;
10227802;STOP;i-47130868;
10227802;STOP;i-51340956;
10227802;STOP;i-56060A8A;
10229510;STOP;i-29FB05F5;
10229510;STOP;i-320F06D1;
10229510;STOP;i-3A920758;
10229510;STOP;i-3C9B07CF;
10229510;STOP;i-3DC40742;
10229510;STOP;i-3EAC082E;
10229510;STOP;i-460408EB;
10229510;STOP;i-52680A04;
10229510;STOP;i-5DA10979;
10230287;START;i-4EE4091E;1
10231607;STOP;i-4EE4091E;
10232368;START;i-44BF07E2;12
10232514;START;i-4CE008EB;1
10234008;STOP;i-44BF07E2;
10234792;START;i-4B760997;1
10251104;START;i-406C07CE;2
10270240;STOP;i-406C07CE;
10309494;START;i-3FCE07BC;1
10311746;START;i-33C606E3;2
10311746;START;i-3FEC0709;1
10311753;START;i-4E6908C1;1
10406992;START;i-47020790;2
10415969;STOP;i-33C606E3;
10657388;START;i-3BD30801;2
10657493;START;i-404507B4;1
10658096;STOP;i-404507B4;
10658286;START;i-498308EC;1
10660858;STOP;i-498308EC;
10673926;STOP;i-3FCE07BC;
10673926;STOP;i-3FEC0709;
10673926;STOP;i-4B760997;
10673926;STOP;i-4E6908C1;
10674437;STOP;i-47020790;
10675301;STOP;i-4CE008EB;
10675309;STOP;i-3BD30801;
10680920;START;i-409E06D2;1
10682742;START;i-394F0680;2
10682742;START;i-4ADC0863;1
10682778;START;i-4AE10878;2
10683814;START;i-3C240836;1
10698841;STOP;i-394F0680;
10705045;STOP;i-4AE10878;
10745607;STOP;i-409E06D2;
10763437;START;i-46C90870;1
10765158;START;i-5AD609CB;2
10765259;STOP;i-46C90870;
10766947;STOP;i-5AD609CB;
10832041;START;i-4C8007EF;1
11264911;START;i-3CB206FD;2
11372713;START;i-448E08B6;2
11437999;STOP;i-448E08B6;
11441203;STOP;i-4C8007EF;
11443324;START;i-527007DD;1
11443338;START;i-2B5906C0;1
11443338;START;i-34CD04F3;1
11446440;STOP;i-2B5906C0;
11446476;STOP;i-527007DD;
11478995;STOP;i-3CB206FD;
11526550;STOP;i-4ADC0863;
11526912;START;i-40570787;1
11560224;STOP;i-40570787;
11560345;START;i-460807B3;1
11618411;START;i-3E6C06D8;2
11654740;STOP;i-3E6C06D8;
11740078;START;i-51820A10;1
11740334;STOP;i-51820A10;
11863851;START;i-3E800643;1
11865802;STOP;i-3E800643;
11870937;START;i-43EC08F0;1
11880721;STOP;i-43EC08F0;
11882409;START;i-481207D7;1
11892042;START;i-4C6F0930;1
11966589;START;i-4FCB0980;1
11966905;START;i-45B8084C;2
11968538;START;i-4B1B087C;1
11970101;STOP;i-4FCB0980;
11970568;START;i-358506B5;1
11975961;STOP;i-45B8084C;
12033171;STOP;i-4B1B087C;
12033201;STOP;i-481207D7;
12050897;START;i-47820856;1
12060696;START;i-4EBB0941;12
12060704;START;i-3E4B0819;12
12062288;START;i-4C3C08E6;12
12064529;STOP;i-358506B5;
12066662;START;i-34D4077C;12
12082667;STOP;i-34D4077C;
12082717;STOP;i-4C3C08E6;
12082756;STOP;i-4EBB0941;
12082787;STOP;i-3E4B0819;
12126890;START;i-3019065E;2
12149004;START;i-3746072F;1
12149128;STOP;i-47820856;
12149802;START;i-36A40631;1
12149905;STOP;i-36A40631;
12149940;START;i-4C760828;1
12149940;START;i-50340872;1
12176431;STOP;i-50340872;
12209398;START;i-32FE0582;2
12211124;STOP;i-3746072F;
12211125;STOP;i-4C760828;
12211399;START;i-2B6E0665;1
12212127;STOP;i-2B6E0665;
12212562;START;i-38E20692;2
12212604;START;i-36020684;2
12212737;STOP;i-36020684;
12213017;START;i-43DB086C;2
12213939;START;i-405A07C4;1
12215556;START;i-55C409D4;1
12217170;STOP;i-55C409D4;
12218700;STOP;i-38E20692;
12225464;START;i-361E06E8;1
12225464;START;i-4232078E;1
12233339;STOP;i-361E06E8;
12233358;STOP;i-4232078E;
12235541;STOP;i-32FE0582;
12235808;STOP;i-405A07C4;
12235864;START;i-4BCA0921;2
12236779;STOP;i-4BCA0921;
12389593;START;i-46450880;1
12466909;START;i-50480916;1
12490258;STOP;i-3019065E;
12490307;START;i-3F1A0760;2
12492554;START;i-3F3B0805;1
12492944;STOP;i-3F3B0805;
12493205;START;i-4994086C;1
12493537;START;i-3B4106D4;1
12493537;START;i-4106073D;1
12578865;STOP;i-3F1A0760;
12580328;START;i-4E120975;2
12580629;STOP;i-4E120975;
12580827;START;i-3C9C06FF;2
12662157;STOP;i-3C9C06FF;
12662466;START;i-35EC05E3;2
12663152;START;i-52BF0A1A;2
12663178;STOP;i-35EC05E3;
12734023;STOP;i-52BF0A1A;
12734497;STOP;i-4994086C;
12735966;START;i-3A1407AD;2
12738039;START;i-3F4B07B9;2
12740240;STOP;i-3A1407AD;
12740562;START;i-3CFE0753;2
12740582;STOP;i-3CFE0753;
12740933;STOP;i-43DB086C;
12741098;STOP;i-3F4B07B9;
12741371;START;i-4C49078B;12
12741480;STOP;i-50480916;
12741510;STOP;i-3B4106D4;
12741630;STOP;i-4106073D;
12741652;START;i-4E05087E;1
12741659;START;i-4C0608BE;1
12741659;STOP;i-4E05087E;
12741811;STOP;i-4C49078B;
12742257;START;i-4BEF0818;1
12742398;START;i-45B308B3;1
12742525;START;i-3979068E;2
12742525;START;i-48810828;1
12742525;START;i-5C0D0AFC;1
12742798;START;i-457C0778;1
12743025;STOP;i-457C0778;
12743728;START;i-4A2008F8;1
12743728;START;i-548008C7;8
12745759;STOP;i-4BEF0818;
12745760;STOP;i-4A2008F8;
12745780;STOP;i-48810828;
12745788;STOP;i-5C0D0AFC;
12745801;STOP;i-4C0608BE;
12821053;START;i-2E34054C;1
12821053;START;i-43CC0736;1
12821053;START;i-4B1E0813;1
12821053;START;i-4F290A07;1
12824678;STOP;i-3979068E;
12837738;STOP;i-2E34054C;
12837738;STOP;i-4F290A07;
12837745;STOP;i-43CC0736;
12837745;STOP;i-4B1E0813;
13076820;START;i-44300906;2
13097930;STOP;i-44300906;
13170484;START;i-372207D0;1
13181125;STOP;i-372207D0;
13183668;START;i-3B9D076B;1
13212445;START;i-448B089B;1
13217694;STOP;i-448B089B;
13247968;START;i-54AD0957;2
13252052;STOP;i-54AD0957;
13252568;START;i-3CBF073E;2
13254819;STOP;i-3CBF073E;
13255206;START;i-47E30865;2
13256001;STOP;i-47E30865;
13256549;START;i-3C870775;2
13257162;STOP;i-3C870775;
13257586;START;i-3C2D071B;2
13264598;STOP;i-3C2D071B;
13265284;START;i-55FC08F1;1
13265821;START;i-5624099E;2
13269637;STOP;i-5624099E;
13271595;START;i-4CC10816;2
13272075;STOP;i-4CC10816;
13272571;START;i-3969079C;2
13273246;STOP;i-3969079C;
13334740;START;i-47CF095B;2
13336851;START;i-402B0732;1
13338264;STOP;i-47CF095B;
13340640;START;i-419708CC;2
13341864;STOP;i-419708CC;
13346067;START;i-4A360827;2
13350104;STOP;i-4A360827;
13354542;STOP;i-55FC08F1;
13356431;START;i-3E7B06D8;2
13360343;STOP;i-3E7B06D8;
13522101;STOP;i-402B0732;
14547947;START;i-3DD3073D;1
14552540;STOP;i-3DD3073D;
14559417;START;i-3903068A;1
14559445;START;i-46560849;1
14559573;STOP;i-3903068A;
14559802;STOP;i-46560849;
14560158;START;i-37CD0610;1
14560244;STOP;i-37CD0610;
14560586;START;i-2D1F0589;1
14560743;STOP;i-2D1F0589;
14562469;START;i-33DC0615;1
14562469;START;i-4A5308C9;1
14563080;STOP;i-33DC0615;
14563080;STOP;i-4A5308C9;
14563926;START;i-45B40819;1
14563926;START;i-48CC07A0;1
14564031;STOP;i-45B40819;
14564031;STOP;i-48CC07A0;
14564923;START;i-2BA70574;1
14564923;START;i-473F090A;1
14566061;STOP;i-2BA70574;
14566068;STOP;i-473F090A;
14566856;START;i-3EFA07B2;1
14566856;START;i-3FE80767;1
14568144;STOP;i-3FE80767;
14568153;STOP;i-3EFA07B2;
14569328;START;i-3F2007F1;1
14569489;STOP;i-3F2007F1;
14569996;START;i-3A650634;1
14569996;START;i-4D0B08C9;1
14570116;STOP;i-4D0B08C9;
14570122;STOP;i-3A650634;
14571107;START;i-2B70063E;1
14571334;START;i-39D2073E;1
14571447;START;i-3C900733;1
14571447;START;i-3E090784;1
14571447;START;i-4B4E08C3;1
14990460;START;i-408F073F;12
14990467;START;i-3B9006E7;12
14991521;START;i-37D8068A;12
15178935;STOP;i-408F073F;
15178949;STOP;i-37D8068A;
15249454;START;i-3FB90882;1
15249492;STOP;i-3FB90882;
15249873;STOP;i-548008C7;
15251781;START;i-48DE0747;1
15287270;STOP;i-2B70063E;
15287270;STOP;i-39D2073E;
15287270;STOP;i-4B4E08C3;
15287275;STOP;i-3C900733;
15287275;STOP;i-3E090784;
15507741;STOP;i-48DE0747;
15510479;START;i-284C04BF;1
15595283;START;i-4BE808A2;1
15687500;START;i-3A7906DC;1
15687500;START;i-43C307A8;1
15687563;STOP;i-43C307A8;
15697217;START;i-487108BF;1
15697224;START;i-24D404DE;1
15697351;STOP;i-3A7906DC;
15697597;STOP;i-24D404DE;
15697597;STOP;i-487108BF;
15697852;START;i-532E091A;1
15697917;STOP;i-532E091A;
15698163;START;i-2B23053B;1
15698163;START;i-547D0976;1
15698592;STOP;i-2B23053B;
15698598;STOP;i-547D0976;
15699566;START;i-32DC06E0;1
15699566;START;i-3E1C0856;1
15699679;STOP;i-32DC06E0;
15699685;STOP;i-3E1C0856;
15700072;START;i-3FE60662;1
15700072;START;i-402E07D7;1
15700146;STOP;i-402E07D7;
15700156;STOP;i-3FE60662;
15700567;START;i-3A54069D;1
15700567;START;i-3CB207AC;1
15700627;STOP;i-3A54069D;
15700695;STOP;i-3CB207AC;
15702382;START;i-40EC0885;1
15702382;START;i-4725085C;1
15705005;START;i-36B10675;1
15706165;START;i-4A7F0850;1
15706330;START;i-4C250925;2
15707885;STOP;i-40EC0885;
15707885;STOP;i-4725085C;
15707986;STOP;i-4BE808A2;
15708158;START;i-42220841;1
15769429;START;i-55190949;2
15783917;STOP;i-55190949;
15842794;START;i-55F409A1;2
15846702;START;i-3CDD06FB;4
15846702;START;i-4CC30971;4
15846702;START;i-5484096B;4
15847033;START;i-31390675;4
15847033;START;i-47F907CA;4
15848553;START;i-34370640;4
15848553;START;i-41A80878;4
15848561;START;i-49A90893;4
15850808;STOP;i-31390675;
15850877;STOP;i-41A80878;
15850995;STOP;i-34370640;
15851003;STOP;i-47F907CA;
15851033;STOP;i-49A90893;
16124091;START;i-3C800791;12
16125167;START;i-4A6D08A7;8
16129583;STOP;i-284C04BF;
16129583;STOP;i-36B10675;
16129583;STOP;i-42220841;
16129583;STOP;i-4A7F0850;
16182804;STOP;i-3C800791;
16182822;STOP;i-3B9006E7;
16182831;STOP;i-4A6D08A7;
16285397;STOP;i-55F409A1;
16461430;START;i-47870846;4
16473476;STOP;i-47870846;
16563763;START;i-46F4083E;4
16570772;STOP;i-46F4083E;
16647384;START;i-425A0751;4
16653945;STOP;i-425A0751;
16729957;START;i-35000644;4
16731074;STOP;i-35000644;
16806074;START;i-3EAA088D;2
16806754;START;i-4386080B;4
16809365;STOP;i-4386080B;
16809801;START;i-422C0753;4
16812413;STOP;i-422C0753;
16812865;START;i-4DDE0960;1
16812893;START;i-376006FB;1
16814022;START;i-3BC60674;4
16814107;STOP;i-3BC60674;
16815324;STOP;i-376006FB;
16815324;STOP;i-4DDE0960;
16817555;START;i-544B08BC;4
16817739;STOP;i-544B08BC;
16817800;START;i-44DE0930;4
16818057;STOP;i-44DE0930;
16818151;START;i-3C530717;4
16818420;STOP;i-3C530717;
16818494;START;i-537509E2;4
16820610;STOP;i-537509E2;
16827235;START;i-376605DE;4
16828840;STOP;i-376605DE;
16890922;START;i-40940782;1
16890935;START;i-543F0A5A;1
16891616;STOP;i-543F0A5A;
16892225;START;i-44B607C2;1
16892651;STOP;i-44B607C2;
16892785;START;i-39470614;1
16893043;STOP;i-39470614;
16898335;START;i-3DBE07F0;1
16898567;START;i-3C9606A0;4
16899190;STOP;i-3C9606A0;
16899311;STOP;i-3DBE07F0;
16900130;START;i-3D7906BC;12
16900554;START;i-42080714;4
16901455;STOP;i-3D7906BC;
16903835;STOP;i-42080714;
16904548;START;i-34C207EF;1
16904968;START;i-466D08DD;4
16905153;STOP;i-466D08DD;
16905282;START;i-345A06DA;4
16905341;STOP;i-345A06DA;
16905437;START;i-38E40768;4
16905879;STOP;i-38E40768;
16921690;STOP;i-34C207EF;
16921690;STOP;i-34CD04F3;
16921690;STOP;i-3B9D076B;
16921690;STOP;i-3C240836;
16921690;STOP;i-3CDD06FB;
16921690;STOP;i-3EAA088D;
16921690;STOP;i-40940782;
16921690;STOP;i-45B308B3;
16921690;STOP;i-460807B3;
16921690;STOP;i-46450880;
16921690;STOP;i-4C250925;
16921690;STOP;i-4C6F0930;
16921690;STOP;i-4CC30971;
16921690;STOP;i-5484096B;
16952990;START;i-4F9D085D;1
16953628;STOP;i-4F9D085D;
16967358;START;i-3E6606EE;1
16967358;START;i-4137079C;1
16967388;STOP;i-4137079C;
16974534;START;i-3FAA08AD;1
16974673;START;i-3F7307BC;1
16975289;START;i-44F80889;1
16975296;START;i-496907F3;1
16979037;START;i-357D066F;4
16979574;STOP;i-357D066F;
16981635;START;i-4EB70842;4
16982534;STOP;i-4EB70842;
16988169;START;i-50260A7F;1
16988169;START;i-51A309A3;1
16988312;STOP;i-3E6606EE;
16988312;STOP;i-50260A7F;
16988312;STOP;i-51A309A3;
16989660;START;i-3EB307DC;1
16990333;STOP;i-3EB307DC;
16990520;START;i-2F000592;1
16990520;START;i-38690758;1
16990559;STOP;i-2F000592;
16990832;STOP;i-38690758;
17047927;START;i-49A20769;2
17055402;START;i-3CB907C6;1
17069194;STOP;i-49A20769;
17070397;STOP;i-3CB907C6;
17302973;START;i-3AE80756;12
17302980;START;i-44420861;12
17304565;START;i-3FE30872;12
17308462;START;i-3FBF0775;12
17313285;START;i-54BA0A25;2
17396975;START;i-4F46084F;1
17432202;STOP;i-3FE30872;
17432202;STOP;i-44420861;
17573288;START;i-4319084E;12
17587866;START;i-443E0750;1
17610853;STOP;i-3AE80756;
17610853;STOP;i-3FBF0775;
17614429;STOP;i-4319084E;
17702625;START;i-483D07C6;2
17703400;STOP;i-483D07C6;
17779956;START;i-2FC6059B;4
17782376;STOP;i-2FC6059B;
18003460;START;i-4613089E;4
18003502;START;i-2FCA0671;4
18003502;START;i-53640928;4
18003889;START;i-3FE8084E;1
18003903;START;i-471007C6;4
18025669;START;i-332A05B4;4
18026025;STOP;i-332A05B4;
18026097;START;i-3BEE080A;4
18027204;STOP;i-3BEE080A;
18102010;START;i-2B730568;1
18102080;START;i-385B0657;1
18102124;STOP;i-385B0657;
18106446;STOP;i-2B730568;
18375674;START;i-451E0894;8
18383176;STOP;i-451E0894;
18465018;START;i-2A820603;8
18560241;STOP;i-2A820603;
18708951;START;i-4A1408F5;8
18803254;STOP;i-471007C6;
18803271;STOP;i-4613089E;
18829231;STOP;i-2FCA0671;
18829231;STOP;i-53640928;
18893416;STOP;i-4A1408F5;
18898549;STOP;i-3FE8084E;
19153170;START;i-4133082E;8
19231284;START;i-45F60902;2
19231824;STOP;i-45F60902;
19232016;START;i-44590823;2
19479943;STOP;i-4133082E;
19488411;START;i-48B5099D;8
19491486;START;i-381D06ED;8
19491647;STOP;i-381D06ED;
19506106;STOP;i-48B5099D;
19585255;START;i-4A4208A2;8
19676593;START;i-314A05F7;8
19677089;STOP;i-314A05F7;
19677779;START;i-2D1606AB;8
19677799;START;i-3AB80790;8
19679161;START;i-428907F8;8
19756016;STOP;i-3AB80790;
19756032;STOP;i-4A4208A2;
19825074;STOP;i-428907F8;
19832132;START;i-61AA0AD3;4
19832619;STOP;i-61AA0AD3;
19833099;START;i-47D3080B;4
19833444;STOP;i-47D3080B;
19844755;STOP;i-2D1606AB;
20001277;START;i-39C30798;1
20001736;START;i-35D40614;2
20002065;STOP;i-35D40614;
20002065;STOP;i-39C30798;
20006563;START;i-434007F7;2
20006563;START;i-48790828;1
20011443;STOP;i-434007F7;
20011443;STOP;i-48790828;
20011565;START;i-433E07AA;1
20011575;START;i-502D0836;2
20016949;STOP;i-433E07AA;
20016949;STOP;i-502D0836;
20017331;START;i-42830704;2
20017331;START;i-510C09FF;1
20018356;STOP;i-42830704;
20018356;STOP;i-510C09FF;
20090209;START;i-3CF3082D;2
20090209;START;i-4E1609B3;1
20092299;STOP;i-3CF3082D;
20092299;STOP;i-4E1609B3;
20095384;START;i-3A590703;8
20192455;START;i-43480754;8
20195896;STOP;i-43480754;
20202513;START;i-406C07A1;8
20203860;START;i-3A6506A6;8
20344151;START;i-463D08BF;8
20516055;START;i-319306FF;4
20516148;STOP;i-319306FF;
20517164;START;i-3A970655;4
20518709;STOP;i-3A970655;
20520151;START;i-3A6D0719;4
20521387;STOP;i-3A6D0719;
20522182;START;i-3F5807B0;1
20522233;START;i-43C607B2;4
20522798;START;i-3ABB0723;4
20522959;START;i-2B6B0510;4
20524624;START;i-38460675;4
20529637;STOP;i-406C07A1;
20535901;START;i-54780985;8
20613537;START;i-51D70917;8
20614121;STOP;i-51D70917;
20619487;STOP;i-3A6506A6;
20619820;STOP;i-3A590703;
20620345;START;i-3BE108C9;8
20643391;STOP;i-2B6B0510;
20643391;STOP;i-38460675;
20643391;STOP;i-3ABB0723;
20643391;STOP;i-3F5807B0;
20643391;STOP;i-43C607B2;
20805363;STOP;i-463D08BF;
20876903;STOP;i-3BE108C9;
20876919;STOP;i-54780985;
20946184;STOP;i-3F7307BC;
20946184;STOP;i-3FAA08AD;
20946184;STOP;i-443E0750;
20946184;STOP;i-44590823;
20946184;STOP;i-44F80889;
20946184;STOP;i-496907F3;
20946184;STOP;i-4F46084F;
20950461;START;i-34BD0668;1
20951427;STOP;i-34BD0668;
20951681;START;i-422F0781;2
20952957;STOP;i-422F0781;
20953588;START;i-3FD3077E;1
20981821;STOP;i-3FD3077E;
21043091;START;i-576C09F8;8
21048658;STOP;i-576C09F8;
21049922;START;i-439008AB;4
21049989;STOP;i-439008AB;
21050065;START;i-46890807;4
21050999;STOP;i-46890807;
21124951;START;i-521308FE;2
21243833;START;i-552B092C;8
21477482;STOP;i-552B092C;
21552166;START;i-50E60904;8
21554290;STOP;i-50E60904;
21562508;START;i-47C30797;4
21721892;STOP;i-54BA0A25;
21737310;STOP;i-521308FE;
22342943;START;i-4BF308D1;1
22348259;STOP;i-47C30797;
22348270;START;i-534D09E9;8
22763244;START;i-3A0E079A;2
22769615;STOP;i-534D09E9;
22938952;STOP;i-3A0E079A;
22946457;START;i-409B08D4;1
22947482;STOP;i-409B08D4;
22947557;START;i-39450766;1
22948485;STOP;i-39450766;
23028656;START;i-52D60974;1
23029045;STOP;i-52D60974;
23376816;START;i-41BB0731;1
23376929;STOP;i-41BB0731;
23972134;STOP;i-4BF308D1;
23972664;START;i-3B8D07A0;1
24069546;START;i-41080748;4
24069611;STOP;i-41080748;
24077694;STOP;i-3B8D07A0;
24162140;START;i-3F920800;1
24531071;STOP;i-3F920800;