0;START;i-0B284069;4
0;START;i-153C3F8D;4
0;START;i-261C3FE2;4
0;START;i-8C814313;4
0;START;i-ABEE41D5;4
0;START;i-C10A3ED2;4
0;START;i-C11E42E0;4
0;START;i-D1594203;4
0;START;i-E6EE3FCB;4
165;START;i-2BFF3F02;1
637;STOP;i-2BFF3F02;
2984;START;i-1D5646FD;4
3110;STOP;i-153C3F8D;
3153;START;i-E0A63BDD;4
3187;STOP;i-1D5646FD;
3305;START;i-74F842C4;4
3319;START;i-53FF4310;4
3319;START;i-956A3CDB;4
3319;START;i-B3B2408C;4
3319;START;i-F0834357;4
3319;START;i-FE144161;4
3320;START;i-486140F1;4
3320;START;i-CDCA4589;4
4094;STOP;i-ABEE41D5;
4094;STOP;i-C10A3ED2;
4095;STOP;i-0B284069;
4095;STOP;i-D1594203;
4095;STOP;i-E6EE3FCB;
4102;STOP;i-8C814313;
4103;STOP;i-261C3FE2;
4103;STOP;i-C11E42E0;
5051;STOP;i-53FF4310;
5051;STOP;i-956A3CDB;
5051;STOP;i-F0834357;
5051;STOP;i-FE144161;
5058;STOP;i-486140F1;
5058;STOP;i-B3B2408C;
5058;STOP;i-CDCA4589;
5058;STOP;i-E0A63BDD;
13982;STOP;i-74F842C4;
14014;START;i-2780428C;4
16392;STOP;i-2780428C;
16412;START;i-9DAE44F5;4
17282;STOP;i-9DAE44F5;
17305;START;i-5B644268;4
18018;STOP;i-5B644268;
18034;START;i-81364818;4
18803;STOP;i-81364818;
18836;START;i-484A4694;4
19314;STOP;i-484A4694;
19345;START;i-A0DB45E2;4
26641;STOP;i-A0DB45E2;
52605;START;i-FC15444E;4
58302;STOP;i-FC15444E;
58335;START;i-8B203DF5;4
59852;STOP;i-8B203DF5;
139005;START;i-20953F19;4
143910;STOP;i-20953F19;
143923;START;i-B49F43F9;4
146641;STOP;i-B49F43F9;
225404;START;i-7E094191;4
228839;STOP;i-7E094191;
257480;START;i-79C34164;4
257710;START;i-73D841FE;4
258946;STOP;i-79C34164;
259991;START;i-BBD54303;4
263596;STOP;i-73D841FE;
263619;START;i-6CB63FA0;4
265005;STOP;i-6CB63FA0;
265939;STOP;i-BBD54303;
265958;START;i-FCCF44AC;4
267314;STOP;i-FCCF44AC;
267348;START;i-7BDB3E74;4
267724;START;i-4AE4434D;4
268560;START;i-15E043DA;4
268599;STOP;i-7BDB3E74;
274155;STOP;i-15E043DA;
275060;STOP;i-4AE4434D;
275382;START;i-B8BC3E9A;4
275426;START;i-F97942D4;4
279235;STOP;i-B8BC3E9A;
279265;START;i-DFE241E9;4
280692;STOP;i-DFE241E9;
280714;STOP;i-F97942D4;
281396;START;i-946041ED;4
285252;STOP;i-946041ED;
285297;START;i-5A6045EA;4
290545;STOP;i-5A6045EA;
290561;START;i-F7D04327;4
292037;STOP;i-F7D04327;
292048;START;i-6D52455E;4
292241;START;i-1B3D42D6;4
292241;START;i-9AA83C4E;4
292241;START;i-C3AD4151;4
293910;STOP;i-1B3D42D6;
293910;STOP;i-9AA83C4E;
293910;STOP;i-C3AD4151;
293911;STOP;i-6D52455E;
311804;START;i-9A2B45A2;4
314778;STOP;i-9A2B45A2;
339281;START;i-3BF13FC7;4
344535;STOP;i-3BF13FC7;
344553;START;i-582E3DC9;4
346085;STOP;i-582E3DC9;
346099;START;i-9DCF3FDC;4
346267;START;i-398E430D;4
346267;START;i-6D2C4252;4
346267;START;i-CA783C6F;4
347784;STOP;i-398E430D;
347784;STOP;i-6D2C4252;
347784;STOP;i-9DCF3FDC;
347784;STOP;i-CA783C6F;
398206;START;i-E1D2457F;4
398206;START;i-F8943EF8;4
402194;STOP;i-E1D2457F;
402217;START;i-D66C438F;4
402494;STOP;i-F8943EF8;
402529;START;i-1BBE4392;4
403702;STOP;i-D66C438F;
403733;START;i-15FE42D7;4
403904;START;i-CED140B1;4
403904;START;i-D43945F1;4
403904;START;i-D8143DEB;4
403963;STOP;i-1BBE4392;
405586;STOP;i-CED140B1;
405586;STOP;i-D43945F1;
405586;STOP;i-D8143DEB;
405593;STOP;i-15FE42D7;
433809;START;i-5AF14008;4
434805;STOP;i-5AF14008;
435092;START;i-55A34199;4
438761;STOP;i-55A34199;
438794;START;i-A4484142;4
440219;STOP;i-A4484142;
441590;START;i-2DCF4327;4
441774;START;i-1293422B;4
441774;START;i-5FAD3F1A;4
441774;START;i-94194446;4
444931;STOP;i-1293422B;
444931;STOP;i-2DCF4327;
444931;STOP;i-5FAD3F1A;
444931;STOP;i-94194446;
458088;START;i-A7024431;4
459421;STOP;i-A7024431;
464306;START;i-86A03E93;4
465585;STOP;i-86A03E93;
466173;START;i-42FE41CF;4
466721;STOP;i-42FE41CF;
468350;START;i-8A4C42B1;4
468832;STOP;i-8A4C42B1;
473008;START;i-B2EA3E6D;4
473595;STOP;i-B2EA3E6D;
484606;START;i-EA813F2E;4
486125;START;i-1B3C434A;4
486694;STOP;i-1B3C434A;
487909;STOP;i-EA813F2E;
487951;START;i-82CF49FC;4
489384;STOP;i-82CF49FC;
511719;START;i-CAC8445B;4
512246;STOP;i-CAC8445B;
517763;START;i-DA973E17;4
518282;STOP;i-DA973E17;
520211;START;i-F19D4534;4
520800;STOP;i-F19D4534;
521978;START;i-C6253F7E;4
522558;STOP;i-C6253F7E;
522998;START;i-66504192;4
523557;STOP;i-66504192;
534044;START;i-AA313F49;4
534994;STOP;i-AA313F49;
537072;START;i-460940A8;4
537744;START;i-1C1543A8;4
538702;STOP;i-1C1543A8;
539166;START;i-6599491C;4
540118;STOP;i-6599491C;
540840;STOP;i-460940A8;
541024;START;i-FBA44215;4
542025;STOP;i-FBA44215;
542872;START;i-DC2E4122;4
543812;STOP;i-DC2E4122;
571003;START;i-B21C3F28;4
572612;START;i-BA7A4396;4
574708;STOP;i-B21C3F28;
574726;START;i-BA33426A;4
576257;STOP;i-BA7A4396;
576294;START;i-DFF83DE5;4
577690;STOP;i-DFF83DE5;
577699;START;i-864C414A;4
577828;STOP;i-BA33426A;
577868;START;i-2F4B3EBA;4
577868;START;i-7DA33F4D;4
577868;START;i-BBA9451F;4
579534;STOP;i-2F4B3EBA;
579534;STOP;i-7DA33F4D;
579534;STOP;i-864C414A;
579534;STOP;i-BBA9451F;
607684;START;i-D57441A9;4
608638;STOP;i-D57441A9;
609611;START;i-A7274429;4
610038;STOP;i-A7274429;
610735;START;i-517A433F;4
611389;STOP;i-517A433F;
617742;START;i-1DAB4304;4
619050;STOP;i-1DAB4304;
629473;START;i-9F9A41FE;4
631367;STOP;i-9F9A41FE;
657405;START;i-625E4A62;4
660868;STOP;i-625E4A62;
660894;START;i-F87D4510;4
662249;STOP;i-F87D4510;
743804;START;i-485C4279;4
747581;STOP;i-485C4279;
747595;START;i-54CB3D60;4
750590;STOP;i-54CB3D60;
830205;START;i-20B94260;4
831590;STOP;i-20B94260;
864174;START;i-4CC04073;4
876132;START;i-E737406C;4
876606;START;i-73EB41C3;4
877069;START;i-24E53C23;4
877084;START;i-D5C53C55;4
877446;START;i-A92D3F62;4
877446;START;i-CDAE3F18;4
877446;START;i-EEB2438C;4
878697;STOP;i-4CC04073;
880349;STOP;i-A92D3F62;
880349;STOP;i-CDAE3F18;
880356;STOP;i-24E53C23;
880356;STOP;i-EEB2438C;
880397;START;i-6DBC42CE;4
880555;STOP;i-D5C53C55;
880586;START;i-5E4A3B22;4
880790;START;i-2C9B4419;4
880790;START;i-3DE64069;4
880790;START;i-A5984616;4
881032;START;i-4E1B3E23;4
882563;STOP;i-4E1B3E23;
883708;STOP;i-5E4A3B22;
916604;START;i-049C3EEF;4
920610;STOP;i-049C3EEF;
920622;START;i-4594418B;4
923726;STOP;i-4594418B;
949910;START;i-957A405B;4
953522;STOP;i-957A405B;
953552;START;i-57E542C2;4
955281;STOP;i-57E542C2;
960563;START;i-278543F7;4
961820;START;i-251C4777;4
962776;STOP;i-278543F7;
962923;START;i-16B845C9;4
963129;STOP;i-251C4777;
964320;START;i-6C3D4247;4
964323;STOP;i-16B845C9;
964392;START;i-188043AF;4
965672;STOP;i-2C9B4419;
965672;STOP;i-3DE64069;
965672;STOP;i-6DBC42CE;
965672;STOP;i-A5984616;
965692;START;i-FFE540ED;4
966028;START;i-45A73FE5;4
966028;START;i-66A8409A;4
966028;START;i-D65D42FB;4
967388;STOP;i-45A73FE5;
967388;STOP;i-66A8409A;
967388;STOP;i-73EB41C3;
967388;STOP;i-D65D42FB;
967388;STOP;i-E737406C;
967388;STOP;i-FFE540ED;
967569;START;i-F15142A7;4
967883;START;i-C01A49DC;4
967883;START;i-C55E42F3;4
967883;START;i-E22341A5;4
968098;STOP;i-6C3D4247;
968126;START;i-69614892;4
968503;STOP;i-C55E42F3;
968510;STOP;i-C01A49DC;
968510;STOP;i-E22341A5;
968510;STOP;i-F15142A7;
968643;START;i-3B8541DE;4
970953;STOP;i-69614892;
1003004;START;i-88364052;4
1004507;STOP;i-88364052;
1032429;START;i-A06E43A7;1
1032493;STOP;i-A06E43A7;
1040238;STOP;i-188043AF;
1040756;STOP;i-3B8541DE;
1040920;START;i-37B44938;4
1041226;START;i-43B140BC;4
1041226;START;i-5C9F42B3;4
1041226;START;i-69EF4296;4
1041226;START;i-6DDB4549;4
1041226;START;i-6F104410;4
1041226;START;i-796F42F0;4
1041226;START;i-9AD04128;4
1047519;STOP;i-43B140BC;
1047519;STOP;i-5C9F42B3;
1047519;STOP;i-6F104410;
1047526;STOP;i-37B44938;
1047526;STOP;i-69EF4296;
1047526;STOP;i-6DDB4549;
1047526;STOP;i-796F42F0;
1047526;STOP;i-9AD04128;
1047625;START;i-A970411C;4
1047907;START;i-7404425E;4
1047907;START;i-77DE45D0;4
1047907;START;i-79C13F4F;4
1047907;START;i-A6263B94;4
1047907;START;i-A94342C0;4
1047907;START;i-CFEA3CA3;4
1047907;START;i-FA6C4404;4
1049609;STOP;i-7404425E;
1049609;STOP;i-77DE45D0;
1049609;STOP;i-79C13F4F;
1049609;STOP;i-A6263B94;
1049609;STOP;i-A94342C0;
1049609;STOP;i-A970411C;
1049609;STOP;i-CFEA3CA3;
1049609;STOP;i-FA6C4404;
1050697;START;i-49274048;4
1051112;START;i-29DD4415;4
1051112;START;i-39E5432A;4
1051112;START;i-92A63EDC;4
1051112;START;i-A502413C;4
1051112;START;i-BB8E43EA;4
1051112;START;i-C0C64278;4
1051112;START;i-E2F3419E;4
1051556;STOP;i-39E5432A;
1051556;STOP;i-49274048;
1051556;STOP;i-BB8E43EA;
1051563;STOP;i-29DD4415;
1051563;STOP;i-92A63EDC;
1051563;STOP;i-A502413C;
1051563;STOP;i-C0C64278;
1051563;STOP;i-E2F3419E;
1051596;START;i-9F4C4593;4
1051885;START;i-1977423C;4
1051885;START;i-2F304231;4
1051885;START;i-588A4136;4
1051885;START;i-5ED23AB5;4
1051885;START;i-6CBE43C5;4
1051885;START;i-90B04614;4
1051885;START;i-BB5B40C8;4
1089404;START;i-BA2A40F3;4
1092895;STOP;i-BA2A40F3;
1092926;START;i-7DE93B5C;4
1095934;STOP;i-7DE93B5C;
1134619;START;i-148C4435;4
1138848;STOP;i-148C4435;
1142015;START;i-9A17493C;4
1145931;STOP;i-9A17493C;
1145977;START;i-D5B33CF8;4
1148980;START;i-B69842DB;4
1155106;STOP;i-B69842DB;
1155128;START;i-F2244657;4
1175804;START;i-1DCB4372;4
1185742;STOP;i-1DCB4372;
1185751;START;i-F6383C5E;4
1188907;STOP;i-F6383C5E;
1206555;STOP;i-F2244657;
1207461;START;i-EE2C3FBD;4
1207503;START;i-5022406C;4
1209484;START;i-716E41D9;4
1209785;START;i-6F98420C;4
1210277;START;i-EC9D3EE6;4
1210553;STOP;i-EE2C3FBD;
1211091;START;i-DD4D4123;4
1212599;START;i-CC5745A8;4
1213470;START;i-22F43A76;4
1214833;START;i-8ACC4632;4
1216144;START;i-4DD240C8;4
1220411;START;i-EA594425;4
1220885;STOP;i-588A4136;
1220885;STOP;i-5ED23AB5;
1220886;STOP;i-1977423C;
1220886;STOP;i-6CBE43C5;
1220886;STOP;i-90B04614;
1220886;STOP;i-BB5B40C8;
1220893;STOP;i-2F304231;
1220893;STOP;i-9F4C4593;
1221197;START;i-0BCB42F5;4
1222962;STOP;i-0BCB42F5;
1223496;START;i-D3BB41F1;4
1223963;STOP;i-D3BB41F1;
1224211;START;i-059E4692;4
1224679;STOP;i-EA594425;
1224728;START;i-5F804208;4
1224982;START;i-45764077;4
1225120;START;i-87D640C1;4
1225313;STOP;i-059E4692;
1225371;START;i-63FC4511;4
1225627;START;i-AE274300;4
1225956;STOP;i-63FC4511;
1227087;START;i-1C3A460B;4
1227112;STOP;i-22F43A76;
1227112;STOP;i-8ACC4632;
1227112;STOP;i-CC5745A8;
1227112;STOP;i-D5B33CF8;
1227113;STOP;i-45764077;
1227113;STOP;i-4DD240C8;
1227113;STOP;i-5022406C;
1227113;STOP;i-6F98420C;
1227113;STOP;i-716E41D9;
1227113;STOP;i-87D640C1;
1227113;STOP;i-DD4D4123;
1227113;STOP;i-EC9D3EE6;
1227526;STOP;i-1C3A460B;
1227676;START;i-93884462;4
1227791;STOP;i-5F804208;
1228214;STOP;i-93884462;
1228258;START;i-4DA040DA;4
1229649;STOP;i-AE274300;
1229686;START;i-AC0742A4;4
1232724;STOP;i-AC0742A4;
1232746;START;i-EA963F13;4
1236405;STOP;i-EA963F13;
1236430;START;i-B58740EE;4
1239428;STOP;i-B58740EE;
1239446;START;i-1F2D44DE;4
1243144;STOP;i-1F2D44DE;
1243163;START;i-94DF45B8;4
1246213;STOP;i-94DF45B8;
1246247;START;i-5C6941C4;4
1249993;STOP;i-5C6941C4;
1250026;START;i-67E43EE7;4
1252795;STOP;i-67E43EE7;
1252823;START;i-3B8D4432;4
1254141;STOP;i-3B8D4432;
1254191;START;i-95634410;4
1258067;STOP;i-95634410;
1258096;START;i-02B93D7D;4
1261062;STOP;i-02B93D7D;
1261087;START;i-157042C2;4
1265067;STOP;i-157042C2;
1265096;START;i-181E441D;4
1268291;STOP;i-181E441D;
1268318;START;i-D6994258;4
1272249;STOP;i-D6994258;
1272271;START;i-E2C53E9F;4
1273824;STOP;i-E2C53E9F;
1273849;START;i-83F04069;4
1277617;STOP;i-83F04069;
1277631;START;i-E23E4414;4
1279062;STOP;i-E23E4414;
1279088;START;i-6B5F3D39;4
1282592;STOP;i-6B5F3D39;
1282603;START;i-BF0D4429;4
1285783;STOP;i-BF0D4429;
1285818;START;i-F71E4226;4
1289486;STOP;i-F71E4226;
1289513;START;i-C54E40C3;4
1291363;STOP;i-C54E40C3;
1291382;START;i-7056434B;4
1461813;START;i-CE4741F0;4
1462179;STOP;i-CE4741F0;
1462213;START;i-A0EF415B;4
1463230;STOP;i-A0EF415B;
1463256;START;i-D08642DC;4
1463324;STOP;i-4DA040DA;
1463512;START;i-5D244636;4
1463702;START;i-C7943E22;4
1465268;STOP;i-7056434B;
1465681;START;i-0185406C;4
1466517;STOP;i-5D244636;
1466517;STOP;i-D08642DC;
1466550;START;i-6C3640D5;4
1466791;START;i-E44F4565;4
1467895;STOP;i-C7943E22;
1467925;START;i-9FCE3CF1;4
1469577;STOP;i-9FCE3CF1;
1469599;START;i-B1833F2C;4
1471510;STOP;i-0185406C;
1471540;START;i-B1E04133;4
1473420;START;i-EA6140DB;4
1473492;STOP;i-B1833F2C;
1473514;START;i-DB9A42AF;4
1473570;START;i-C29F4032;4
1475384;STOP;i-DB9A42AF;
1475406;START;i-8277410C;4
1479164;STOP;i-8277410C;
1479181;START;i-3F9748F3;4
1480592;STOP;i-3F9748F3;
1480620;START;i-A5C64114;4
1484414;STOP;i-A5C64114;
1484430;START;i-884A41B2;4
1485078;STOP;i-B1E04133;
1485103;START;i-21833F50;4
1485981;STOP;i-884A41B2;
1486019;START;i-76BE4066;4
1489764;STOP;i-76BE4066;
1489787;START;i-0CD04593;4
1491246;STOP;i-0CD04593;
1491268;START;i-FEF94141;4
1495719;STOP;i-FEF94141;
1495737;START;i-4C234304;4
1497187;STOP;i-4C234304;
1497208;START;i-9DDE456B;4
1498597;STOP;i-9DDE456B;
1498631;START;i-63424092;4
1503071;STOP;i-63424092;
1503086;START;i-3046463A;4
1504467;STOP;i-3046463A;
1504496;START;i-D00B4506;4
1507644;START;i-F6644412;4
1509373;STOP;i-D00B4506;
1509415;START;i-EBF840EA;4
1511440;STOP;i-EBF840EA;
1511460;START;i-6ADF4623;4
1513848;STOP;i-F6644412;
1514101;START;i-7F503D3F;4
1515953;STOP;i-6ADF4623;
1515994;START;i-7F77432A;4
1517251;STOP;i-7F77432A;
1517287;START;i-849E40F6;4
1521417;STOP;i-849E40F6;
1521433;START;i-1B2342F0;4
1522772;STOP;i-1B2342F0;
1522820;START;i-DE2640F2;4
1528349;STOP;i-DE2640F2;
1528366;START;i-7696448C;4
1529674;STOP;i-7696448C;
1529717;START;i-58EA3E4F;4
1531309;STOP;i-58EA3E4F;
1531341;START;i-3D3C3D5E;4
1535275;STOP;i-3D3C3D5E;
1535306;START;i-F74A41C2;4
1536821;STOP;i-F74A41C2;
1536831;START;i-A057455D;4
1540353;STOP;i-A057455D;
1540385;START;i-F7D84268;4
1541705;STOP;i-F7D84268;
1541729;START;i-56903E22;4
1545351;STOP;i-56903E22;
1545364;START;i-F2693BEB;4
1547138;STOP;i-F2693BEB;
1547162;START;i-0B9340F5;4
1552382;STOP;i-C29F4032;
1552382;STOP;i-EA6140DB;
1552404;STOP;i-6C3640D5;
1552411;STOP;i-E44F4565;
1552643;START;i-F84144C2;4
1552953;START;i-80D842F1;4
1555072;STOP;i-7F503D3F;
1558245;START;i-0FF94387;4
1558546;START;i-1B284534;4
1564557;STOP;i-21833F50;
1564943;START;i-01DD418F;4
1565212;START;i-0B294264;4
1565212;START;i-1CE54655;4
1565212;START;i-8FBC419C;4
1565684;STOP;i-01DD418F;
1565684;STOP;i-0B294264;
1565684;STOP;i-1CE54655;
1565684;STOP;i-8FBC419C;
1565794;START;i-17524864;4
1566076;START;i-09A73FDE;4
1566076;START;i-41D33E42;4
1566076;START;i-642B40B9;4
1567646;STOP;i-0FF94387;
1567647;STOP;i-1B284534;
1567757;START;i-F0B44346;4
1570959;STOP;i-F0B44346;
1571014;START;i-843544A3;4
1572950;STOP;i-843544A3;
1573005;START;i-257F4531;4
1573092;STOP;i-09A73FDE;
1573092;STOP;i-17524864;
1573092;STOP;i-41D33E42;
1573092;STOP;i-642B40B9;
1573131;START;i-05E946A9;4
1573131;START;i-481442EB;4
1573131;START;i-A6364249;4
1573652;START;i-46F8432B;4
1573743;START;i-FC683F10;4
1573816;START;i-0FF94145;4
1573816;START;i-63DD3CCE;4
1573816;START;i-C7903CFB;4
1573816;START;i-C8334088;4
1573816;START;i-E5053FFE;4
1573816;START;i-F3DC4255;4
1573816;START;i-FB7C463A;4
1576802;STOP;i-0FF94145;
1576802;STOP;i-46F8432B;
1576802;STOP;i-63DD3CCE;
1576802;STOP;i-C7903CFB;
1576802;STOP;i-C8334088;
1576802;STOP;i-E5053FFE;
1576802;STOP;i-F3DC4255;
1576802;STOP;i-FB7C463A;
1577456;STOP;i-FC683F10;
1577494;START;i-03C84453;4
1578151;START;i-20D93EC2;4
1578342;START;i-30FE421F;4
1578342;START;i-55DE42DE;4
1578342;START;i-5F92423A;4
1578342;START;i-7258433E;4
1578342;START;i-9D94432C;4
1578342;START;i-CEC541C6;4
1578342;START;i-DCB2433C;4
1578827;STOP;i-03C84453;
1578847;START;i-4A084785;4
1583117;STOP;i-4A084785;
1583135;START;i-F8B8419E;4
1584393;STOP;i-F8B8419E;
1584420;START;i-85FD4424;4
1586429;STOP;i-85FD4424;
1586477;START;i-D82B42C7;4
1591217;STOP;i-D82B42C7;
1591255;START;i-AAB14205;4
1592458;STOP;i-AAB14205;
1592480;START;i-167F3F1E;4
1596112;STOP;i-167F3F1E;
1596141;START;i-CD434002;4
1597417;STOP;i-CD434002;
1597436;START;i-B17645F3;4
1601423;STOP;i-B17645F3;
1601451;START;i-DA703EF1;4
1602665;STOP;i-DA703EF1;
1602710;START;i-66703DB9;4
1607409;STOP;i-66703DB9;
1607423;START;i-B2C94388;4
1609035;STOP;i-B2C94388;
1609061;START;i-8F8E4239;4
1638742;START;i-24E841AD;4
1638742;START;i-A361408B;4
1642701;STOP;i-A361408B;
1642739;START;i-4D7643BD;4
1642745;STOP;i-24E841AD;
1642769;START;i-3E854380;4
1644032;STOP;i-0B9340F5;
1644032;STOP;i-8F8E4239;
1644069;STOP;i-4D7643BD;
1644603;STOP;i-3E854380;
1644628;START;i-7151405E;4
1651887;STOP;i-20D93EC2;
1651887;STOP;i-5F92423A;
1651887;STOP;i-9D94432C;
1651887;STOP;i-CEC541C6;
1651888;STOP;i-30FE421F;
1651888;STOP;i-55DE42DE;
1651888;STOP;i-7258433E;
1651888;STOP;i-DCB2433C;
1652217;START;i-5112459E;4
1652391;START;i-26E740D6;4
1652391;START;i-41FB3CD1;4
1652391;START;i-49F74075;4
1652391;START;i-CA5A414E;4
1652391;START;i-D6C543E5;4
1652391;START;i-F09D400C;4
1652391;START;i-F6033F67;4
1655332;STOP;i-257F4531;
1655339;STOP;i-05E946A9;
1655339;STOP;i-481442EB;
1655339;STOP;i-A6364249;
1656184;START;i-F71A422F;4
1656326;STOP;i-F6033F67;
1656333;STOP;i-26E740D6;
1656333;STOP;i-41FB3CD1;
1656333;STOP;i-49F74075;
1656333;STOP;i-5112459E;
1656333;STOP;i-CA5A414E;
1656333;STOP;i-D6C543E5;
1656333;STOP;i-F09D400C;
1656376;START;i-196E416E;4
1656588;START;i-04B6421A;4
1656588;START;i-0B0C41BB;4
1656588;START;i-14FC3FF5;4
1656588;START;i-31CC459B;4
1656588;START;i-39D63EE7;4
1656588;START;i-B08E4496;4
1656588;START;i-EECE41D0;4
1660060;STOP;i-F71A422F;
1660093;START;i-19204287;4
1661180;STOP;i-19204287;
1661806;START;i-C40B4815;4
1665583;STOP;i-C40B4815;
1665600;START;i-2EE741A5;4
1665741;STOP;i-04B6421A;
1665741;STOP;i-0B0C41BB;
1665741;STOP;i-14FC3FF5;
1665741;STOP;i-196E416E;
1665741;STOP;i-31CC459B;
1665741;STOP;i-39D63EE7;
1665741;STOP;i-B08E4496;
1665741;STOP;i-EECE41D0;
1666809;STOP;i-2EE741A5;
1666824;START;i-6C3D3AF8;4
1669479;START;i-2FAC42BA;4
1670804;STOP;i-6C3D3AF8;
1670835;START;i-465247E3;4
1671940;STOP;i-465247E3;
1671952;START;i-9F5D4317;4
1673780;STOP;i-9F5D4317;
1673811;START;i-9B6A4450;4
1677658;STOP;i-9B6A4450;
1677693;START;i-B0104146;4
1678777;STOP;i-B0104146;
1678802;START;i-D66F3F4C;4
1683307;STOP;i-D66F3F4C;
1683344;START;i-D8F53BF1;4
1684478;STOP;i-D8F53BF1;
1684498;START;i-08BA3F78;4
1688510;STOP;i-08BA3F78;
1688543;START;i-2E8945F7;4
1689620;STOP;i-2E8945F7;
1689638;START;i-82D64106;4
1693262;STOP;i-82D64106;
1693282;START;i-ECFD3F25;4
1694532;STOP;i-ECFD3F25;
1694568;START;i-58FC3D35;4
1698574;STOP;i-58FC3D35;
1698607;START;i-301840AC;4
1699716;STOP;i-301840AC;
1699743;START;i-848A411F;4
1703246;STOP;i-848A411F;
1703281;START;i-24AC4327;4
1704394;STOP;i-24AC4327;
1704429;START;i-C8894626;4
1708501;STOP;i-C8894626;
1708547;START;i-1E1A4105;4
1710037;STOP;i-1E1A4105;
1710057;START;i-0C41442E;4
1723959;STOP;i-80D842F1;
1723959;STOP;i-F84144C2;
1724459;STOP;i-2FAC42BA;
1724476;START;i-67F944BB;4
1725137;STOP;i-0C41442E;
1725137;STOP;i-7151405E;
1725143;START;i-0BAA4352;4
1725370;STOP;i-0BAA4352;
1725703;START;i-79EE3C2D;4
1726014;STOP;i-79EE3C2D;
1726468;START;i-88D740FE;4
1727797;STOP;i-88D740FE;
1728897;START;i-11BC41FF;4
1729092;START;i-34FA41AC;4
1729092;START;i-58664208;4
1729092;START;i-612645DA;4
1729092;START;i-74464603;4
1729092;START;i-7714450F;4
1729092;START;i-843A3F53;4
1729092;START;i-B1D33FDA;4
1730390;STOP;i-612645DA;
1730398;STOP;i-11BC41FF;
1730398;STOP;i-34FA41AC;
1730398;STOP;i-58664208;
1730398;STOP;i-74464603;
1730398;STOP;i-7714450F;
1730398;STOP;i-843A3F53;
1730398;STOP;i-B1D33FDA;
1738625;START;i-40943E47;4
1738668;START;i-603B40E7;4
1738668;START;i-862B43EF;4
1738668;START;i-88B84387;4
1741153;STOP;i-603B40E7;
1741153;STOP;i-862B43EF;
1741153;STOP;i-88B84387;
1741160;STOP;i-40943E47;
1741189;START;i-9C754377;4
1741232;START;i-489D3E51;4
1741232;START;i-85B74513;4
1741232;START;i-B09C43B3;4
1741507;STOP;i-67F944BB;
1741539;START;i-8D4442E3;4
1742207;STOP;i-489D3E51;
1742208;STOP;i-85B74513;
1742208;STOP;i-9C754377;
1742215;STOP;i-B09C43B3;
1742277;START;i-513D40AE;4
1743385;START;i-313D3DA1;4
1744828;STOP;i-313D3DA1;
1745378;START;i-1591440A;4
1746255;STOP;i-513D40AE;
1746288;START;i-92364224;4
1747300;STOP;i-1591440A;
1747384;STOP;i-92364224;
1748395;START;i-138B440B;4
1748408;START;i-58EB425C;4
1748623;START;i-6F4641E2;4
1748623;START;i-75FC3FE3;4
1748623;START;i-8F0F4144;4
1749976;STOP;i-58EB425C;
1754656;STOP;i-138B440B;
1754656;STOP;i-8F0F4144;
1754663;STOP;i-6F4641E2;
1754663;STOP;i-75FC3FE3;
1754771;START;i-D4934906;4
1759389;STOP;i-D4934906;
1759409;START;i-75B83F04;4
1760548;STOP;i-75B83F04;
1760592;START;i-E5633C88;4
1765342;STOP;i-E5633C88;
1765365;START;i-988046B9;4
1766489;STOP;i-988046B9;
1766510;START;i-BCDB452C;4
1770303;STOP;i-BCDB452C;
1770318;START;i-2DE646CD;4
1771415;STOP;i-2DE646CD;
1771436;START;i-01CC443C;4
1775285;STOP;i-01CC443C;
1775323;START;i-C541455D;4
1776441;STOP;i-C541455D;
1776475;START;i-1C76433A;4
1780295;STOP;i-1C76433A;
1780319;START;i-9BCC41FF;4
1781823;STOP;i-9BCC41FF;
1781846;START;i-D0B74474;4
1782010;START;i-8F8944A6;4
1782010;START;i-C7664252;4
1782010;START;i-D22E3F49;4
1783483;STOP;i-8F8944A6;
1783483;STOP;i-C7664252;
1783483;STOP;i-D22E3F49;
1783484;STOP;i-D0B74474;
1783511;START;i-31133F05;4
1783745;START;i-1D9F412C;4
1783745;START;i-4B814478;4
1783745;START;i-54093FD6;4
1783745;START;i-5D18490D;4
1783745;START;i-BEFD3CDD;4
1783745;START;i-C5C2449E;4
1783745;START;i-E1913DC8;4
1785264;STOP;i-31133F05;
1785264;STOP;i-4B814478;
1785271;STOP;i-54093FD6;
1785271;STOP;i-5D18490D;
1785272;STOP;i-1D9F412C;
1785272;STOP;i-BEFD3CDD;
1785272;STOP;i-C5C2449E;
1785272;STOP;i-E1913DC8;
1785295;START;i-2E2E41E5;4
1788826;STOP;i-2E2E41E5;
1788844;START;i-D40B4145;4
1789963;STOP;i-D40B4145;
1789996;START;i-9A353F28;4
1791550;STOP;i-9A353F28;
1791604;START;i-D7673F37;4
1795207;STOP;i-D7673F37;
1795224;START;i-6C68466D;4
1796851;STOP;i-6C68466D;
1796874;START;i-20D63FE6;4
1797038;START;i-2598409D;4
1797038;START;i-8E32466E;4
1797038;START;i-B41446B1;4
1798163;STOP;i-2598409D;
1798163;STOP;i-B41446B1;
1798170;STOP;i-20D63FE6;
1798170;STOP;i-8E32466E;
1798201;START;i-15D943AD;4
1801619;STOP;i-15D943AD;
1801645;START;i-EDC442D8;4
1802789;STOP;i-EDC442D8;
1802814;START;i-3694481B;4
1806432;STOP;i-3694481B;
1806450;START;i-B050434B;4
1807786;STOP;i-B050434B;
1807802;START;i-EB4340C4;4
1809095;STOP;i-8D4442E3;
1809241;START;i-2D474354;4
1809429;START;i-8D36406E;4
1809429;START;i-8F4B41F1;4
1809429;START;i-AC0240DA;4
1809429;START;i-D7E13F8F;4
1809430;START;i-0E1A4262;4
1809430;START;i-936D4076;4
1809430;START;i-FCD14533;4
1811408;STOP;i-EB4340C4;
1811429;START;i-482D4389;4
1811830;START;i-8B2E411B;4
1815821;STOP;i-0E1A4262;
1815828;STOP;i-2D474354;
1815828;STOP;i-8D36406E;
1815828;STOP;i-8F4B41F1;
1815828;STOP;i-936D4076;
1815828;STOP;i-AC0240DA;
1815828;STOP;i-D7E13F8F;
1815828;STOP;i-FCD14533;
1815877;START;i-E3C54487;4
1816008;STOP;i-8B2E411B;
1816030;START;i-C03C43D8;4
1816079;START;i-5A0840AC;4
1816079;START;i-637F3BBC;4
1816079;START;i-6B0645E1;4
1816079;START;i-7BE3429E;4
1816079;START;i-7CB1424E;4
1816079;START;i-BF4A3F56;4
1816079;START;i-D08E3EB5;4
1816605;START;i-FFA54A06;4
1816804;START;i-37AA427C;4
1816978;STOP;i-482D4389;
1816978;STOP;i-C03C43D8;
1816978;STOP;i-FFA54A06;
1820766;STOP;i-37AA427C;
1820798;START;i-DC2A425C;4
1822339;STOP;i-DC2A425C;
1827385;START;i-75F84407;4
1827613;START;i-2CFC426D;4
1827613;START;i-3FDB3D22;4
1827613;START;i-7DF0409E;4
1828981;STOP;i-2CFC426D;
1828989;STOP;i-3FDB3D22;
1828989;STOP;i-75F84407;
1828989;STOP;i-7DF0409E;
1830594;START;i-BC333DF2;4
1833277;STOP;i-5A0840AC;
1833277;STOP;i-637F3BBC;
1833277;STOP;i-BF4A3F56;
1833277;STOP;i-D08E3EB5;
1833277;STOP;i-E3C54487;
1833284;STOP;i-6B0645E1;
1833284;STOP;i-7BE3429E;
1833284;STOP;i-7CB1424E;
1834687;STOP;i-BC333DF2;
1834707;START;i-03A0417D;4
1835806;STOP;i-03A0417D;
1835822;START;i-F5C5435B;4
1839584;STOP;i-F5C5435B;
1839603;START;i-243C419F;4
1840664;STOP;i-243C419F;
1840698;START;i-B02C3B4C;4
1842255;STOP;i-B02C3B4C;
1842303;START;i-B2E24201;4
1845978;STOP;i-B2E24201;
1846004;START;i-F08C4422;4
1847082;STOP;i-F08C4422;
1847103;START;i-F6684521;4
1851285;STOP;i-F6684521;
1851303;START;i-3CFB3CC1;4
1852458;STOP;i-3CFB3CC1;
1852471;START;i-77F142DE;4
1856032;STOP;i-77F142DE;
1856061;START;i-05D83D7A;4
1857308;STOP;i-05D83D7A;
1857328;START;i-8FFC428D;4
1860974;STOP;i-8FFC428D;
1860989;START;i-31AA3DBB;4
1862042;STOP;i-31AA3DBB;
1862064;START;i-7F3A439B;4
1865999;STOP;i-7F3A439B;
1866022;START;i-F3583D0C;4
1867096;STOP;i-F3583D0C;
1867736;START;i-46CA43E2;4
1871403;STOP;i-46CA43E2;
1871425;START;i-13894433;4
1875038;START;i-8D404238;4
1876238;STOP;i-13894433;
1878483;STOP;i-8D404238;
1878500;START;i-A5F042CF;4
1882115;START;i-E3EF4182;4
1883307;STOP;i-A5F042CF;
1886114;STOP;i-E3EF4182;
1886138;START;i-9B9B437B;4
1889755;START;i-125745BC;4
1890944;STOP;i-9B9B437B;
1893061;STOP;i-125745BC;
1893089;START;i-FC7042CE;4
1896707;START;i-2F2C47B4;4
1897900;STOP;i-FC7042CE;
1900507;STOP;i-2F2C47B4;
1900525;START;i-7F433F10;4
1904142;START;i-F17C41D9;4
1905337;STOP;i-7F433F10;
1908051;STOP;i-F17C41D9;
1908073;START;i-518A3DFC;4
1911689;START;i-59AC4292;4
1912878;STOP;i-518A3DFC;
1915600;STOP;i-59AC4292;
1915631;START;i-373543CB;4
1919248;START;i-709C4491;4
1920438;STOP;i-373543CB;
1923059;STOP;i-709C4491;
1923079;START;i-ACF04403;4
1926695;START;i-174B4070;4
1927892;STOP;i-ACF04403;
1931026;STOP;i-174B4070;
1931056;START;i-36713FEE;4
1934671;START;i-995542B2;4
1935869;STOP;i-36713FEE;
1938131;STOP;i-995542B2;
1938158;START;i-FE2F4570;4
1941773;START;i-738C3FEB;4
1942965;STOP;i-FE2F4570;
1945633;STOP;i-738C3FEB;
1945651;START;i-6B713F3F;4
1948064;STOP;i-6B713F3F;
1949263;START;i-8A3741DF;4
1953429;STOP;i-8A3741DF;
1953453;START;i-DDD73F92;4
1955865;STOP;i-DDD73F92;
1957085;START;i-83E64297;4
1960630;STOP;i-83E64297;
1960656;START;i-ADC44183;4
1963060;STOP;i-ADC44183;
1964268;START;i-896C423A;4
1968083;STOP;i-896C423A;
1968099;START;i-8AEF413E;4
1970507;STOP;i-8AEF413E;
1971710;START;i-DE5542D6;4
1975723;STOP;i-DE5542D6;
1975746;START;i-095743CD;4
1978159;STOP;i-095743CD;
1979359;START;i-2DF03EFC;4
1982761;STOP;i-2DF03EFC;
1982782;START;i-E46C3CEA;4
1985192;STOP;i-E46C3CEA;
1986394;START;i-45AB3FC1;4
1990087;STOP;i-45AB3FC1;
1990108;START;i-16D44382;4
1992517;STOP;i-16D44382;
1993720;START;i-563C3DBC;4
1998123;STOP;i-563C3DBC;
1998149;START;i-CE5244E4;4
2000559;STOP;i-CE5244E4;
2001761;START;i-E8A1459E;4
2005302;STOP;i-E8A1459E;
2005329;START;i-706F441D;4
2007739;STOP;i-706F441D;
2008941;START;i-DF794457;4
2012791;STOP;i-DF794457;
2012827;START;i-2D7A3EB7;4
2015236;STOP;i-2D7A3EB7;
2016460;START;i-C7CE40EE;4
2020424;STOP;i-C7CE40EE;
2020445;START;i-9FAD4006;4
2022854;STOP;i-9FAD4006;
2024058;START;i-FB27416B;4
2027514;STOP;i-FB27416B;
2027537;START;i-BAFC44CE;4
2029951;STOP;i-BAFC44CE;
2031167;START;i-4D5F3E7F;4
2035108;STOP;i-4D5F3E7F;
2035135;START;i-6AAB4228;4
2037546;STOP;i-6AAB4228;
2038766;START;i-36E54008;4
2042764;STOP;i-36E54008;
2042781;START;i-A4BE3E82;4
2045187;STOP;i-A4BE3E82;
2046393;START;i-91744486;4
2050265;STOP;i-91744486;
2050286;START;i-A66643D4;4
2052690;STOP;i-A66643D4;
2053899;START;i-2E4A41E6;4
2057436;STOP;i-2E4A41E6;
2057456;START;i-E93E4032;4
2059866;STOP;i-E93E4032;
2061069;START;i-F13E3F79;4
2065063;STOP;i-F13E3F79;
2065087;START;i-95A83FFA;4
2067499;STOP;i-95A83FFA;
2068701;START;i-DA0C3F76;4
2069992;START;i-16EB4275;4
2070097;STOP;i-16EB4275;
2070108;START;i-4CF7437D;4
2070191;STOP;i-DA0C3F76;
2078940;STOP;i-4CF7437D;
2078948;START;i-CAB9420C;8
2091831;START;i-636F4284;8
2091839;STOP;i-CAB9420C;
2148890;STOP;i-636F4284;
2148926;START;i-079342AF;4
2148926;START;i-454C487E;4
2148926;START;i-6A8E448D;4
2148926;START;i-701B4106;4
2148926;START;i-96134553;4
2148926;START;i-975640C7;4
2148926;START;i-E82B40B6;4
2148927;START;i-21F53EAC;4
2148927;START;i-38F24217;4
2148927;START;i-FF874098;4
2148928;START;i-2DC03F0A;4
2148928;START;i-EE164489;4
2151336;STOP;i-079342AF;
2151336;STOP;i-2DC03F0A;
2151336;STOP;i-38F24217;
2151336;STOP;i-454C487E;
2151336;STOP;i-6A8E448D;
2151336;STOP;i-96134553;
2151336;STOP;i-975640C7;
2151336;STOP;i-E82B40B6;
2151336;STOP;i-EE164489;
2151336;STOP;i-FF874098;
2151337;STOP;i-701B4106;
2151346;STOP;i-21F53EAC;
2154212;START;i-F10A417B;4
2154773;START;i-41254512;4
2155724;STOP;i-41254512;
2156622;STOP;i-F10A417B;
2165784;START;i-AA24448D;1
2165907;STOP;i-AA24448D;
2166005;START;i-B3E13EF9;4
2167014;START;i-4DC64065;4
2168977;STOP;i-4DC64065;
2169728;START;i-CC0D4393;4
2169755;STOP;i-B3E13EF9;
2169795;START;i-9127417F;4
2171000;STOP;i-9127417F;
2172212;START;i-68A8426F;4
2173409;STOP;i-CC0D4393;
2173450;START;i-F02944D0;4
2173548;STOP;i-68A8426F;
2174939;STOP;i-F02944D0;
2176671;START;i-C60E41E7;4
2180619;STOP;i-C60E41E7;
2180651;START;i-E3064724;4
2181866;STOP;i-E3064724;
2182151;START;i-CBA8413C;4
2183321;STOP;i-CBA8413C;
2188919;START;i-10F6442B;4
2189983;STOP;i-10F6442B;
2190667;START;i-13B343FF;4
2191685;STOP;i-13B343FF;
2193293;START;i-C65341AF;4
2194316;STOP;i-C65341AF;
2194468;START;i-8D75443C;4
2195660;STOP;i-8D75443C;
2195693;START;i-62563F2D;4
2196821;STOP;i-62563F2D;
2196849;START;i-7F7A40F3;4
2198217;STOP;i-7F7A40F3;
2198264;START;i-602240B7;4
2199318;STOP;i-602240B7;
2199349;START;i-8A254366;4
2200645;STOP;i-8A254366;
2200663;START;i-C2DE4338;4
2200854;START;i-7E4F4025;4
2200854;START;i-85D73EA4;4
2200854;START;i-C6C34402;4
2202162;STOP;i-7E4F4025;
2202162;STOP;i-85D73EA4;
2202162;STOP;i-C2DE4338;
2202162;STOP;i-C6C34402;
2202202;START;i-846244F6;4
2202253;START;i-59A53C66;4
2202253;START;i-879C4293;4
2202253;START;i-938E3EE0;4
2202253;START;i-B30B45FE;4
2202253;START;i-B5C44644;4
2202253;START;i-C7843EED;4
2202253;START;i-C81B3D3C;4
2238665;STOP;i-846244F6;
2238665;STOP;i-938E3EE0;
2238665;STOP;i-B5C44644;
2238665;STOP;i-C81B3D3C;
2238671;STOP;i-59A53C66;
2238671;STOP;i-C7843EED;
2238672;STOP;i-879C4293;
2238672;STOP;i-B30B45FE;
2238701;START;i-19923F4A;4
2239632;STOP;i-19923F4A;
2240716;START;i-2A2A4447;4
2244939;STOP;i-2A2A4447;
2244979;START;i-BAE2450E;4
2246018;STOP;i-BAE2450E;
2249696;START;i-B48E4273;4
2250622;STOP;i-B48E4273;
2250658;START;i-B35E43BF;4
2251582;STOP;i-B35E43BF;
2677202;START;i-2C8B3C0C;4
2677365;START;i-4EFD4415;4
2677365;START;i-5AF83F9A;4
2677365;START;i-6E8C4426;4
2683973;START;i-4B9742A5;4
2684921;STOP;i-4B9742A5;
2705340;START;i-5B5C3EC5;4
2706711;STOP;i-5B5C3EC5;
2777815;START;i-744C44C3;4
2781724;STOP;i-744C44C3;
2781784;START;i-47B9405A;4
2782479;START;i-26144096;4
2782685;START;i-AF654423;4
2782686;START;i-88B044CC;4
2782686;START;i-FD8D3F76;4
2783561;STOP;i-AF654423;
2783567;STOP;i-26144096;
2783568;STOP;i-88B044CC;
2783568;STOP;i-FD8D3F76;
2783696;START;i-E0C84306;4
2783937;START;i-4C764002;4
2783937;START;i-9098442A;4
2783937;START;i-D0A542EF;4
2785943;STOP;i-4C764002;
2785943;STOP;i-9098442A;
2785943;STOP;i-D0A542EF;
2785943;STOP;i-E0C84306;
2786009;START;i-4F9C4060;4
2786148;START;i-29CE435C;4
2786148;START;i-535843D5;4
2786148;START;i-AC8342CF;4
2787439;STOP;i-29CE435C;
2787439;STOP;i-4F9C4060;
2787439;STOP;i-535843D5;
2787439;STOP;i-AC8342CF;
2847444;STOP;i-47B9405A;
2847739;START;i-613F3DCC;4
2849910;STOP;i-6E8C4426;
2849917;STOP;i-4EFD4415;
2849917;STOP;i-5AF83F9A;
2849918;STOP;i-2C8B3C0C;
2849943;START;i-68B442EB;4
2850110;START;i-937C4244;4
2850110;START;i-D93A439F;4
2850110;START;i-F87A442D;4
2851656;STOP;i-937C4244;
2851656;STOP;i-F87A442D;
2851663;STOP;i-68B442EB;
2851663;STOP;i-D93A439F;
2856743;START;i-E4D142BD;4
2857918;START;i-C75D4130;4
2858023;STOP;i-613F3DCC;
2871732;START;i-75614136;4
2871752;STOP;i-C75D4130;
2875877;STOP;i-75614136;
2875912;START;i-80BF441B;4
2935022;START;i-48D24004;4
2936838;START;i-AE184334;4
2936917;STOP;i-AE184334;
2939174;STOP;i-48D24004;
2939212;START;i-18564147;4
2940338;START;i-F8A1452E;4
2944556;STOP;i-F8A1452E;
2944577;START;i-6B8F42B6;4
2946397;START;i-D2814443;4
2946585;START;i-1849412C;4
2946585;START;i-3EE04157;4
2946585;START;i-47C14862;4
2946585;START;i-59563E7A;4
2946585;START;i-85563F3C;4
2946585;START;i-88A1411C;4
2946585;START;i-96E54138;4
2953203;START;i-FEB444A7;4
2953278;STOP;i-47C14862;
2953278;STOP;i-85563F3C;
2953278;STOP;i-88A1411C;
2953278;STOP;i-96E54138;
2953285;STOP;i-3EE04157;
2953286;STOP;i-1849412C;
2953286;STOP;i-59563E7A;
2953286;STOP;i-D2814443;
2958006;STOP;i-FEB444A7;
2958035;START;i-B5163C5D;4
2959390;STOP;i-B5163C5D;
2961014;START;i-BC2E415B;4
2963188;STOP;i-18564147;
2963188;STOP;i-80BF441B;
2963188;STOP;i-BC2E415B;
2963195;STOP;i-6B8F42B6;
2990213;START;i-AE814081;4
2994430;STOP;i-AE814081;
2994469;START;i-522B3E86;4
2995971;STOP;i-522B3E86;
3021312;START;i-20543DA8;4
3076613;START;i-AFBB3EE8;4
3080922;STOP;i-AFBB3EE8;
3080959;START;i-E0FB42A9;4
3082416;STOP;i-E0FB42A9;
3163015;START;i-5D3C42FB;4
3166789;STOP;i-5D3C42FB;
3166814;START;i-699D440A;4
3168270;STOP;i-699D440A;
3249413;START;i-68A944D0;4
3253640;STOP;i-68A944D0;
3253672;START;i-7217441C;4
3255197;STOP;i-7217441C;
3281716;START;i-83BE43F9;4
3335812;START;i-40CE4151;4
3340111;STOP;i-40CE4151;
3340147;START;i-6505452C;4
3341509;STOP;i-6505452C;
3373037;START;i-FAA84479;4
3375694;STOP;i-FAA84479;
3388178;START;i-3C5A3CC5;4
3392718;STOP;i-3C5A3CC5;
3392747;START;i-1B1D3E11;4
3422212;START;i-C7723D49;4
3424250;STOP;i-C7723D49;
3444319;START;i-F8633F1B;4
3444496;START;i-26AA3EFA;4
3444496;START;i-676C456C;4
3444496;START;i-9E9A4154;4
3444496;START;i-B09B41D1;4
3444496;START;i-D3233ED5;4
3444496;START;i-EEF94245;4
3444497;START;i-EC154197;4
3445966;STOP;i-676C456C;
3445966;STOP;i-EEF94245;
3445967;STOP;i-26AA3EFA;
3445967;STOP;i-D3233ED5;
3445975;STOP;i-9E9A4154;
3445975;STOP;i-B09B41D1;
3445975;STOP;i-EC154197;
3445975;STOP;i-F8633F1B;
3446067;START;i-5EDA4331;4
3446208;START;i-082B44A4;4
3446208;START;i-0DBD3EFB;4
3446208;START;i-24183927;4
3446208;START;i-5C394497;4
3446208;START;i-9BEB3DFB;4
3446208;START;i-DC454648;4
3446208;START;i-F88E42A2;4
3446907;STOP;i-5C394497;
3446908;STOP;i-082B44A4;
3446908;STOP;i-0DBD3EFB;
3446908;STOP;i-9BEB3DFB;
3446908;STOP;i-DC454648;
3446908;STOP;i-F88E42A2;
3446915;STOP;i-24183927;
3446915;STOP;i-5EDA4331;
3446965;START;i-1DE53EFE;4
3447278;STOP;i-1DE53EFE;
3447313;START;i-81654030;4
3447444;START;i-1AF34179;4
3447444;START;i-86193EC1;4
3447444;START;i-A5C43CB6;4
3447444;START;i-E0E74305;4
3447444;START;i-F324466A;4
3447444;START;i-F4A14102;4
3447444;START;i-F7744465;4
3448332;STOP;i-F7744465;
3448706;STOP;i-1AF34179;
3448706;STOP;i-E0E74305;
3448706;STOP;i-F324466A;
3448706;STOP;i-F4A14102;
3448713;STOP;i-81654030;
3448713;STOP;i-86193EC1;
3448713;STOP;i-A5C43CB6;
3448765;START;i-1086430A;4
3448905;START;i-2E6B3F38;4
3448905;START;i-30943DD7;4
3448905;START;i-45774448;4
3448905;START;i-4EA43FD5;4
3448905;START;i-A55A428F;4
3448905;START;i-A7444454;4
3448905;START;i-F5F93CF1;4
3450589;STOP;i-30943DD7;
3450596;STOP;i-1086430A;
3450596;STOP;i-2E6B3F38;
3450596;STOP;i-45774448;
3450596;STOP;i-F5F93CF1;
3450597;STOP;i-4EA43FD5;
3450597;STOP;i-A55A428F;
3450597;STOP;i-A7444454;
3452668;STOP;i-20543DA8;
3452689;STOP;i-1B1D3E11;
3452833;START;i-16A944F8;4
3453064;STOP;i-16A944F8;
3453093;START;i-A5BA3FB1;4
3453222;START;i-20EE44D9;4
3453222;START;i-327D3CF0;4
3453222;START;i-6C4843DC;4
3453222;START;i-8A2043A3;4
3453222;START;i-D1DA4162;4
3453222;START;i-DBAB42B2;4
3453222;START;i-E5D640F5;4
3454046;STOP;i-20EE44D9;
3454046;STOP;i-D1DA4162;
3454046;STOP;i-E5D640F5;
3454047;STOP;i-327D3CF0;
3454047;STOP;i-8A2043A3;
3454047;STOP;i-A5BA3FB1;
3454047;STOP;i-DBAB42B2;
3454054;STOP;i-6C4843DC;
3456003;START;i-9A82439A;4
3457066;STOP;i-9A82439A;
3457114;START;i-972F4108;4
3457282;START;i-00053E39;4
3457282;START;i-04FD3FDC;4
3457282;START;i-49E84304;4
3457282;START;i-64B5459B;4
3457282;START;i-957641C6;4
3457282;START;i-C2AD4621;4
3457282;START;i-E3DE4106;4
3457750;STOP;i-64B5459B;
3457750;STOP;i-972F4108;
3457750;STOP;i-C2AD4621;
3457750;STOP;i-E3DE4106;
3457757;STOP;i-04FD3FDC;
3457757;STOP;i-957641C6;
3457758;STOP;i-00053E39;
3457758;STOP;i-49E84304;
3457807;START;i-049B4139;4
3457964;START;i-12DD4358;4
3457964;START;i-3FDB4253;4
3457964;START;i-62994346;4
3457964;START;i-6568404A;4
3457964;START;i-86DE4221;4
3457964;START;i-BAAF3E73;4
3457964;START;i-DEA24599;4
3458363;STOP;i-12DD4358;
3458363;STOP;i-3FDB4253;
3458363;STOP;i-62994346;
3458363;STOP;i-6568404A;
3458363;STOP;i-86DE4221;
3458363;STOP;i-BAAF3E73;
3458363;STOP;i-DEA24599;
3458370;STOP;i-049B4139;
3458418;START;i-43003F63;4
3458577;START;i-358B41D2;4
3458577;START;i-3BEE40A5;4
3458577;START;i-589F431A;4
3458577;START;i-71A83F1B;4
3458577;START;i-E3CB43C2;4
3458577;START;i-E80542D5;4
3458577;START;i-FF8E3F60;4
3462148;STOP;i-FF8E3F60;
3462312;STOP;i-358B41D2;
3462319;STOP;i-3BEE40A5;
3462319;STOP;i-43003F63;
3462319;STOP;i-589F431A;
3462319;STOP;i-E80542D5;
3462320;STOP;i-71A83F1B;
3462320;STOP;i-E3CB43C2;
3462553;START;i-98A83FE2;4
3462708;START;i-1A923E90;4
3462708;START;i-203E44AB;4
3462708;START;i-307046EC;4
3462708;START;i-AECE3C3F;4
3462708;START;i-B6D940EE;4
3462708;START;i-C39E4486;4
3462708;START;i-C4924322;4
3471102;STOP;i-C39E4486;
3471103;STOP;i-307046EC;
3471103;STOP;i-B6D940EE;
3471103;STOP;i-C4924322;
3471110;STOP;i-1A923E90;
3471110;STOP;i-203E44AB;
3471110;STOP;i-98A83FE2;
3471110;STOP;i-AECE3C3F;
3471604;START;i-D1453E57;4
3471735;START;i-178D41DB;4
3471735;START;i-2AC646D1;4
3471735;START;i-63A84170;4
3471735;START;i-8B884615;4
3471735;START;i-8FF33F83;4
3471735;START;i-BC66446F;4
3471735;START;i-E2464357;4
3472682;STOP;i-178D41DB;
3472682;STOP;i-8B884615;
3472682;STOP;i-8FF33F83;
3472682;STOP;i-E2464357;
3472683;STOP;i-2AC646D1;
3472683;STOP;i-63A84170;
3472683;STOP;i-BC66446F;
3472683;STOP;i-D1453E57;
3472735;START;i-865A469C;4
3472898;START;i-0CB1421B;4
3472898;START;i-1AE54437;4
3472898;START;i-27FA451B;4
3472898;START;i-3EBB436B;4
3472898;START;i-84034150;4
3472898;START;i-95304445;4
3472898;START;i-AA4F420F;4
3473569;STOP;i-0CB1421B;
3473569;STOP;i-1AE54437;
3473569;STOP;i-865A469C;
3473576;STOP;i-95304445;
3473576;STOP;i-AA4F420F;
3473577;STOP;i-27FA451B;
3473577;STOP;i-3EBB436B;
3473577;STOP;i-84034150;
3473663;START;i-63F73F4E;4
3473796;START;i-07223E3A;4
3473796;START;i-10284300;4
3473796;START;i-456A4043;4
3473796;START;i-5F973EB9;4
3473796;START;i-891E4267;4
3473796;START;i-A66A4173;4
3473796;START;i-D70A41DD;4
3474446;STOP;i-07223E3A;
3476426;STOP;i-10284300;
3476426;STOP;i-5F973EB9;
3476433;STOP;i-456A4043;
3476433;STOP;i-63F73F4E;
3476433;STOP;i-891E4267;
3476433;STOP;i-A66A4173;
3476433;STOP;i-D70A41DD;
3508613;START;i-E05B3D5F;4
3513401;STOP;i-E05B3D5F;
3513436;START;i-225948E3;4
3515018;STOP;i-225948E3;
3595012;START;i-7F893E7F;4
3599180;STOP;i-7F893E7F;
3599206;START;i-1C99432F;4
3600591;STOP;i-1C99432F;
3629516;START;i-053E4504;4
3629644;START;i-CF233F12;4
3629644;START;i-D2C242BC;4
3629644;START;i-FC173EC5;4
3630113;STOP;i-D2C242BC;
3633354;STOP;i-053E4504;
3633362;STOP;i-CF233F12;
3633362;STOP;i-FC173EC5;
3633444;START;i-547F3DA4;4
3633567;START;i-12F84418;4
3633567;START;i-A5393F44;4
3634107;START;i-8CB944DD;4
3634321;START;i-DA764558;4
3636172;STOP;i-547F3DA4;
3636172;STOP;i-A5393F44;
3636178;STOP;i-12F84418;
3636178;STOP;i-8CB944DD;
3636178;STOP;i-DA764558;
3636222;START;i-0297454C;4
3636360;START;i-04993BDF;4
3636360;START;i-31F343A2;4
3638259;START;i-EAF93D0C;4
3638488;STOP;i-EAF93D0C;
3638495;STOP;i-0297454C;
3638495;STOP;i-04993BDF;
3638495;STOP;i-31F343A2;
3639173;START;i-61B7415F;4
3639302;START;i-2A19408B;4
3639302;START;i-E05A3DBD;4
3639838;START;i-E3654528;4
3640060;START;i-FC424735;4
3640275;START;i-A4E73B98;4
3640528;START;i-415F41E4;4
3640847;STOP;i-415F41E4;
3640847;STOP;i-61B7415F;
3640847;STOP;i-A4E73B98;
3640854;STOP;i-2A19408B;
3640854;STOP;i-E05A3DBD;
3640854;STOP;i-E3654528;
3640854;STOP;i-FC424735;
3681412;START;i-D4D44461;4
3685625;STOP;i-D4D44461;
3685658;START;i-A63B4407;4
3687220;STOP;i-A63B4407;
3767813;START;i-AEC744A5;4
3772087;STOP;i-AEC744A5;
3772126;START;i-70E342C6;4
3773705;STOP;i-70E342C6;
3854214;START;i-B2DA40EA;4
3858143;STOP;i-B2DA40EA;
3858171;START;i-6AA840E8;4
3859750;STOP;i-6AA840E8;
3878912;START;i-FE773EA8;4
3879027;START;i-20E64296;4
3879027;START;i-E06C42CE;4
3879659;START;i-8B43425C;4
3879878;START;i-1B0840DE;4
3880180;START;i-04063E7C;4
3880409;START;i-DCFE41AB;4
3884329;STOP;i-E06C42CE;
3884337;STOP;i-04063E7C;
3884337;STOP;i-1B0840DE;
3884337;STOP;i-20E64296;
3884337;STOP;i-8B43425C;
3884337;STOP;i-DCFE41AB;
3884337;STOP;i-FE773EA8;
3940614;START;i-FBFA4726;4
3944748;STOP;i-FBFA4726;
3944796;START;i-50D74961;4
3946122;STOP;i-50D74961;
4027012;START;i-EE9A4279;4
4031011;STOP;i-EE9A4279;
4031047;START;i-1EF03E3E;4
4032635;STOP;i-1EF03E3E;
4113413;START;i-3FB4431F;4
4117270;STOP;i-3FB4431F;
4117305;START;i-9BC44187;4
4118921;STOP;i-9BC44187;
4147339;START;i-BA444287;4
4147502;START;i-04394883;4
4147502;START;i-131B3EEC;4
4147502;START;i-3D9A3D52;4
4160759;STOP;i-04394883;
4160759;STOP;i-131B3EEC;
4160759;STOP;i-3D9A3D52;
4160759;STOP;i-BA444287;
4163284;START;i-BF9E4330;4
4163778;STOP;i-BF9E4330;
4164131;START;i-37C0444E;4
4165239;STOP;i-37C0444E;
4166990;START;i-EC4C40D9;4
4167929;STOP;i-EC4C40D9;
4199812;START;i-64D942FF;4
4204479;STOP;i-64D942FF;
4204513;START;i-4FE44115;4
4206004;STOP;i-4FE44115;
4227537;START;i-B75440E7;4
4227599;START;i-43B24526;4
4227599;START;i-95594180;4
4227599;START;i-AF6442FB;4
4230628;STOP;i-AF6442FB;
4230628;STOP;i-B75440E7;
4230635;STOP;i-43B24526;
4230635;STOP;i-95594180;
4230755;START;i-B8A940DF;4
4230877;START;i-E5C34423;4
4230883;STOP;i-B8A940DF;
4230919;START;i-14654382;4
4230919;START;i-AF8945AD;4
4230919;START;i-BA5943F5;4
4231983;STOP;i-BA5943F5;
4231983;STOP;i-E5C34423;
4231990;STOP;i-14654382;
4231990;STOP;i-AF8945AD;
4232201;START;i-C5FE4130;4
4232369;START;i-39F6400D;4
4232369;START;i-67D93F4F;4
4232369;START;i-ECC340D2;4
4232682;START;i-3BB44376;4
4232941;STOP;i-3BB44376;
4233227;START;i-61294449;4
4233390;STOP;i-61294449;
4233393;START;i-7BFB44AD;4
4246943;START;i-94FA3F35;4
4247505;STOP;i-7BFB44AD;
4247910;START;i-04723FB3;4
4248806;STOP;i-94FA3F35;
4248884;STOP;i-39F6400D;
4248884;STOP;i-ECC340D2;
4248891;STOP;i-67D93F4F;
4248891;STOP;i-C5FE4130;
4250760;START;i-508640B2;4
4255148;STOP;i-508640B2;
4255177;START;i-0DAB4464;4
4256755;STOP;i-0DAB4464;
4286212;START;i-C6E7428B;4
4290491;STOP;i-C6E7428B;
4290528;START;i-E3F24334;4
4292064;STOP;i-E3F24334;
4355674;START;i-6C6A426A;4
4355762;STOP;i-6C6A426A;
4355769;START;i-3B15418C;4
4356511;START;i-EC053B68;4
4356565;STOP;i-3B15418C;
4363689;STOP;i-EC053B68;
4372613;START;i-6FA446C1;4
4376642;STOP;i-6FA446C1;
4376677;START;i-27B343B4;4
4378000;STOP;i-27B343B4;
4406625;START;i-B18A3F2B;4
4406906;STOP;i-B18A3F2B;
4407135;START;i-CD4C461C;2
4407592;START;i-2F4D431A;2
4407611;STOP;i-CD4C461C;
4408090;START;i-32DF42B4;4
4411784;STOP;i-32DF42B4;
4411813;START;i-19AD4243;4
4412092;STOP;i-2F4D431A;
4450158;START;i-423341AA;4
4450373;START;i-59BD3EF5;4
4450373;START;i-766041EC;4
4450373;START;i-9F733F51;4
4459013;START;i-0F0D3C46;4
4462978;STOP;i-0F0D3C46;
4463004;START;i-DC6840AC;4
4464295;STOP;i-DC6840AC;
4509095;START;i-EA2E4117;4
4511803;START;i-897D419A;4
4514077;STOP;i-EA2E4117;
4514103;START;i-C25E454E;4
4515598;STOP;i-C25E454E;
4545413;START;i-BA1D4104;4
4575624;STOP;i-897D419A;
4575712;START;i-A67542B2;4
4576509;STOP;i-A67542B2;
4576545;START;i-F8154577;4
4577034;STOP;i-423341AA;
4577034;STOP;i-59BD3EF5;
4577034;STOP;i-766041EC;
4577034;STOP;i-9F733F51;
4577701;START;i-1DD54005;4
4577701;START;i-361A4303;4
4577701;START;i-625B430B;4
4577701;START;i-FBF142EA;4
4579469;STOP;i-625B430B;
4579469;STOP;i-FBF142EA;
4579470;STOP;i-1DD54005;
4579470;STOP;i-361A4303;
4592453;START;i-899540AE;1
4593137;START;i-C79A4988;4
4594252;STOP;i-F8154577;
4594540;START;i-2598436A;4
4594908;STOP;i-2598436A;
4595072;START;i-0F3A4150;4
4595301;START;i-2CB243FD;4
4595301;START;i-68793CFF;4
4595301;START;i-7CD24194;4
4597059;START;i-FA633F20;1
4631814;START;i-37423E73;4
4635904;STOP;i-37423E73;
4635945;START;i-8D474661;4
4640841;STOP;i-8D474661;
4667242;START;i-7F474421;4
4677920;STOP;i-0F3A4150;
4677920;STOP;i-7CD24194;
4677947;STOP;i-2CB243FD;
4677947;STOP;i-68793CFF;
4678554;START;i-C7C03ED8;4
4679829;START;i-9B5B40F4;4
4679898;START;i-2B7A40A4;4
4679898;START;i-B1E340D7;4
4679898;START;i-C5A14228;4
4683449;STOP;i-2B7A40A4;
4683449;STOP;i-9B5B40F4;
4683449;STOP;i-B1E340D7;
4683477;STOP;i-C5A14228;
4683505;START;i-690042D0;4
4683776;STOP;i-690042D0;
4683776;STOP;i-C79A4988;
4683803;STOP;i-899540AE;
4683803;STOP;i-C7C03ED8;
4683813;START;i-BCE34688;4
4683975;START;i-22BD4266;4
4683975;START;i-2EBE40ED;4
4683975;START;i-3FD346E6;4
4684556;START;i-710A41C7;4
4685544;STOP;i-710A41C7;
4685603;START;i-1D703F00;4
4686115;STOP;i-22BD4266;
4686115;STOP;i-2EBE40ED;
4686115;STOP;i-3FD346E6;
4686142;STOP;i-BCE34688;
4686216;START;i-1FA143AC;4
4686352;START;i-699C416F;4
4686352;START;i-A8C641C0;4
4686352;START;i-CF02412D;4
4718212;START;i-08574482;4
4721789;STOP;i-08574482;
4721834;START;i-139D4120;4
4723316;STOP;i-139D4120;
4749032;STOP;i-1FA143AC;
4749032;STOP;i-699C416F;
4749032;STOP;i-A8C641C0;
4749032;STOP;i-CF02412D;
4749048;START;i-640C3DBF;4
4749381;START;i-759A4768;4
4749381;START;i-8D78451A;4
4749381;START;i-E62743DC;4
4751021;STOP;i-640C3DBF;
4751021;STOP;i-759A4768;
4751021;STOP;i-8D78451A;
4751021;STOP;i-E62743DC;
4751085;START;i-DD3A42AC;4
4751361;START;i-7C694260;4
4751361;START;i-C44C481B;4
4751361;START;i-EF8441D7;4
4766628;STOP;i-DD3A42AC;
4766629;STOP;i-7C694260;
4766629;STOP;i-EF8441D7;
4766656;STOP;i-C44C481B;
4767654;START;i-27CF46DD;4
4767909;START;i-13E6428E;4
4767909;START;i-636B46C0;4
4767909;START;i-FEE147AB;4
4804613;START;i-48B03FF7;4
4808335;STOP;i-48B03FF7;
4808375;START;i-97D442DF;4
4809865;STOP;i-97D442DF;
4839686;STOP;i-13E6428E;
4839686;STOP;i-27CF46DD;
4839686;STOP;i-636B46C0;
4839686;STOP;i-FEE147AB;
4840442;START;i-389C46F6;4
4840580;STOP;i-1D703F00;
4840715;STOP;i-389C46F6;
4840763;START;i-627B44CB;4
4840771;START;i-4E9042C3;4
4841620;START;i-C1FD41CB;4
4841782;START;i-009043D0;4
4841782;START;i-09CC468C;4
4841782;START;i-D90D41F0;4
4842567;START;i-B4AF45C2;4
4842568;START;i-BFFA3E51;4
4842568;START;i-CE603F83;4
4842637;START;i-121F408C;4
4842637;START;i-22CE471E;4
4842637;START;i-4865435D;4
4842647;STOP;i-B4AF45C2;
4842647;STOP;i-BFFA3E51;
4842647;STOP;i-CE603F83;
4842702;START;i-50F44011;4
4842702;START;i-924046F1;4
4842702;START;i-C28745AB;4
4842702;STOP;i-121F408C;
4842702;STOP;i-22CE471E;
4842702;STOP;i-4865435D;
4843480;STOP;i-009043D0;
4843480;STOP;i-09CC468C;
4843480;STOP;i-D90D41F0;
4843720;STOP;i-50F44011;
4843720;STOP;i-924046F1;
4843793;START;i-5F7F4258;4
4843959;START;i-063B3E9A;4
4843959;START;i-368A417F;4
4843959;START;i-44224111;4
4847540;STOP;i-4E9042C3;
4854639;STOP;i-368A417F;
4854646;STOP;i-5F7F4258;
4854653;STOP;i-063B3E9A;
4854653;STOP;i-44224111;
4854784;START;i-373F4491;4
4855067;STOP;i-627B44CB;
4855072;START;i-E9073E00;4
4855216;START;i-D3524401;4
4855980;START;i-92B0452A;4
4860397;STOP;i-92B0452A;
4860430;START;i-4B3A4498;4
4861770;STOP;i-4B3A4498;
4891013;START;i-D93A48D2;4
4894769;STOP;i-D93A48D2;
4894792;START;i-DD993DBB;4
4896157;STOP;i-DD993DBB;
4977413;START;i-7AC544A4;4
4981602;STOP;i-7AC544A4;
4981642;START;i-5F6F48C7;4
4982973;STOP;i-5F6F48C7;
5063812;START;i-3A7D40F2;4
5067698;STOP;i-3A7D40F2;
5067742;START;i-B68A4218;4
5068987;STOP;i-B68A4218;
5094465;STOP;i-D3524401;
5094471;STOP;i-E9073E00;
5094672;START;i-91524243;4
5095286;START;i-E42A460A;4
5095289;STOP;i-91524243;
5098193;STOP;i-E42A460A;
5098309;START;i-92EB458D;4
5098546;STOP;i-92EB458D;
5098656;START;i-DDAB3FEF;4
5098825;START;i-03C03EBC;4
5098825;START;i-80AC41FF;4
5098825;START;i-AB1B420A;4
5101850;STOP;i-03C03EBC;
5101850;STOP;i-DDAB3FEF;
5101864;STOP;i-80AC41FF;
5101864;STOP;i-AB1B420A;
5102191;START;i-79313DC3;4
5102485;STOP;i-79313DC3;
5102600;START;i-E7034546;4
5102905;STOP;i-E7034546;
5103202;START;i-133541E8;4
5103473;STOP;i-FA633F20;
5103506;STOP;i-133541E8;
5103576;START;i-FF7E41C5;4
5103643;START;i-019B4729;4
5103643;START;i-06B23FC2;4
5103643;START;i-18023D5D;4
5103643;START;i-69EE3E5E;4
5103643;START;i-A83D3FCD;4
5103643;START;i-DDDA45AE;4
5103643;START;i-F49A3C81;4
5106472;START;i-015B3F94;4
5106472;START;i-1FE33F20;4
5106472;START;i-4AFE3ED5;4
5106472;START;i-576E4378;4
5106472;START;i-57814202;4
5106472;START;i-6A604106;4
5106472;START;i-79EB3F57;4
5106472;START;i-89BC417E;4
5106472;START;i-8F8944E2;4
5106472;START;i-AD264993;4
5106472;START;i-B0633EE3;4
5106472;START;i-BE94460E;4
5106658;STOP;i-015B3F94;
5106658;STOP;i-1FE33F20;
5106658;STOP;i-4AFE3ED5;
5106658;STOP;i-576E4378;
5106658;STOP;i-57814202;
5106658;STOP;i-6A604106;
5106658;STOP;i-79EB3F57;
5106658;STOP;i-89BC417E;
5106658;STOP;i-8F8944E2;
5106658;STOP;i-AD264993;
5106658;STOP;i-B0633EE3;
5106658;STOP;i-BE94460E;
5111003;STOP;i-06B23FC2;
5111003;STOP;i-18023D5D;
5111003;STOP;i-69EE3E5E;
5111003;STOP;i-A83D3FCD;
5111003;STOP;i-F49A3C81;
5111004;STOP;i-DDDA45AE;
5111004;STOP;i-FF7E41C5;
5111011;STOP;i-019B4729;
5111210;START;i-1C5B3F7A;4
5111334;STOP;i-1C5B3F7A;
5111547;START;i-690A4231;4
5111986;STOP;i-690A4231;
5112051;START;i-5B914081;4
5112176;STOP;i-5B914081;
5112917;START;i-12AA3E98;4
5113983;STOP;i-12AA3E98;
5117083;START;i-01FF45FF;4
5117689;STOP;i-01FF45FF;
5120303;START;i-901440DF;4
5120358;START;i-1A45420C;4
5120358;START;i-7C7843A6;4
5120358;START;i-83D240A1;4
5121375;STOP;i-1A45420C;
5121375;STOP;i-373F4491;
5121375;STOP;i-901440DF;
5121382;STOP;i-7C7843A6;
5121382;STOP;i-7F474421;
5121396;STOP;i-83D240A1;
5121908;START;i-01353F1A;4
5121908;START;i-036F3B32;4
5121908;START;i-0CFE4052;4
5121908;START;i-1E8A4528;4
5121908;START;i-3A6F4446;4
5121908;START;i-618644AC;4
5121908;START;i-8A0D465F;4
5121908;START;i-8BAD416E;4
5121908;START;i-943841B4;4
5121908;START;i-A69F4689;4
5121908;START;i-A99A4754;4
5121908;START;i-D0124573;4
5121985;STOP;i-3A6F4446;
5121985;STOP;i-618644AC;
5121985;STOP;i-8BAD416E;
5121985;STOP;i-D0124573;
5121995;STOP;i-01353F1A;
5121995;STOP;i-1E8A4528;
5121995;STOP;i-8A0D465F;
5121995;STOP;i-A69F4689;
5121995;STOP;i-A99A4754;
5122003;STOP;i-036F3B32;
5122003;STOP;i-0CFE4052;
5122003;STOP;i-943841B4;
5122459;START;i-B54A429B;4
5122510;START;i-11074514;4
5122510;START;i-6F26451C;4
5122510;START;i-74BC3AE2;4
5122510;START;i-87414167;4
5122510;START;i-CEEE3E54;4
5122510;START;i-DCDC42F8;4
5122510;START;i-E40A4719;4
5150213;START;i-2AE34328;4
5154304;STOP;i-2AE34328;
5154336;START;i-A7774422;4
5155650;STOP;i-A7774422;
5182217;STOP;i-6F26451C;
5182217;STOP;i-74BC3AE2;
5182217;STOP;i-87414167;
5182217;STOP;i-B54A429B;
5182217;STOP;i-CEEE3E54;
5182217;STOP;i-E40A4719;
5182218;STOP;i-11074514;
5182218;STOP;i-DCDC42F8;
5182294;START;i-CF684495;4
5236614;START;i-5A2D4250;4
5240502;STOP;i-5A2D4250;
5240526;START;i-231F46B3;4
5241817;STOP;i-231F46B3;
5301808;START;i-22ED41CA;1
5302396;START;i-BC04433B;4
5303056;STOP;i-BC04433B;
5303126;STOP;i-22ED41CA;
5323012;START;i-C4B43FAD;4
5326689;STOP;i-C4B43FAD;
5326709;START;i-15B54519;4
5328031;STOP;i-15B54519;
5378337;START;i-FDD243D6;4
5409413;START;i-640F429B;4
5413461;STOP;i-640F429B;
5413492;START;i-E67B40DB;4
5414905;STOP;i-E67B40DB;
5495812;START;i-E23B4205;4
5499613;STOP;i-E23B4205;
5499639;START;i-140541DB;4
5500972;STOP;i-140541DB;
5582214;START;i-F8CB461A;4
5587244;STOP;i-F8CB461A;
5587274;START;i-94783C22;4
5588648;STOP;i-94783C22;
5668612;START;i-063241B6;4
5672374;STOP;i-063241B6;
5672398;START;i-56353EC4;4
5673846;STOP;i-56353EC4;
5714703;START;i-ECC03E8A;4
5719568;STOP;i-ECC03E8A;
5719597;START;i-EB3942F9;4
5721008;STOP;i-EB3942F9;
5728579;STOP;i-FDD243D6;
5728606;START;i-9D8A4279;4
5729244;STOP;i-9D8A4279;
5729407;START;i-6BCC41A2;4
5731138;STOP;i-6BCC41A2;
5731158;START;i-A570444B;4
5731940;STOP;i-A570444B;
5731959;START;i-A3574174;4
5755013;START;i-25CA3EC7;4
5758909;STOP;i-25CA3EC7;
5758940;START;i-81C23CA8;4
5760357;STOP;i-81C23CA8;
5776973;START;i-BA42416E;4
5777234;START;i-41E74243;4
5777234;START;i-C21C4248;4
5777234;START;i-C5E43F40;4
5788143;STOP;i-41E74243;
5788143;STOP;i-BA42416E;
5788164;STOP;i-C5E43F40;
5788165;STOP;i-C21C4248;
5794567;START;i-995C4052;1
5794612;START;i-571C3FD2;1
5794643;STOP;i-571C3FD2;
5795269;STOP;i-995C4052;
5801493;STOP;i-A3574174;
5801578;START;i-F7853DF2;4
5801921;STOP;i-CF684495;
5801928;STOP;i-F7853DF2;
5802054;START;i-B0283E24;4
5803507;STOP;i-B0283E24;
5803551;START;i-ECE14065;4
5841414;START;i-490D4366;4
5846063;STOP;i-490D4366;
5846094;START;i-C48B42A6;4
5847428;STOP;i-C48B42A6;
5885792;STOP;i-ECE14065;
5885862;START;i-FFCD401E;4
5886294;STOP;i-FFCD401E;
5886361;START;i-410547B1;4
5887505;STOP;i-410547B1;
5888315;START;i-601B4217;4
5927814;START;i-FB804362;4
5931996;STOP;i-FB804362;
5932025;START;i-90534232;4
5933443;STOP;i-90534232;
5953108;START;i-4EA04424;4
5957614;STOP;i-4EA04424;
5957661;START;i-2C9E449A;4
5957817;START;i-7E6441F4;4
5958109;START;i-2F823E33;4
5958109;START;i-4A3E3F33;4
5958109;START;i-8DA53F33;4
5958368;START;i-6BEC4288;4
5958531;STOP;i-8DA53F33;
5958538;STOP;i-4A3E3F33;
5958552;STOP;i-2F823E33;
5958552;STOP;i-7E6441F4;
5958655;START;i-219F4503;4
5958893;START;i-0A973EB0;4
5958893;START;i-6DDD40B5;4
5958893;START;i-EEDE3F57;4
5961327;STOP;i-0A973EB0;
5961327;STOP;i-219F4503;
5961327;STOP;i-6DDD40B5;
5961327;STOP;i-EEDE3F57;
5961361;START;i-A2E441FA;4
5961650;START;i-2AD04133;4
5961650;START;i-3EB443CD;4
5961650;START;i-42494452;4
5962145;STOP;i-3EB443CD;
5962145;STOP;i-42494452;
5962159;STOP;i-A2E441FA;
5962166;STOP;i-2AD04133;
5962336;START;i-B4384348;4
5962453;START;i-6A6B42A3;4
5962453;START;i-72DE4335;4
5962453;START;i-ABE0445D;4
5963484;START;i-A7814030;4
5964307;STOP;i-6A6B42A3;
5964307;STOP;i-72DE4335;
5964307;STOP;i-A7814030;
5964307;STOP;i-B4384348;
5964329;STOP;i-ABE0445D;
6014213;START;i-0C134059;4
6046143;START;i-E19E41F6;4
6100613;START;i-EDCF42FB;4
6187013;START;i-6BF24168;4
6301252;START;i-ADA04053;4
6301669;STOP;i-2C9E449A;
6301669;STOP;i-6BF24168;
6301676;STOP;i-0C134059;
6301676;STOP;i-6BEC4288;
6301676;STOP;i-EDCF42FB;
6309013;STOP;i-E19E41F6;
6309121;START;i-F5B940A5;4
6310806;START;i-A4864077;4
6312017;STOP;i-A4864077;
6312035;START;i-ACDB3E6E;4
6317493;STOP;i-ACDB3E6E;
6317541;START;i-A3CB3DFA;4
6320162;START;i-88814029;1
6320462;STOP;i-88814029;
6320462;STOP;i-A3CB3DFA;
6320492;START;i-3F0241C9;4
6321360;STOP;i-3F0241C9;
6321363;START;i-E5A34685;1
6323789;START;i-FF55437A;1
6323807;STOP;i-ADA04053;
6324025;STOP;i-FF55437A;
6324099;START;i-F62C4251;1
6324326;START;i-D8303965;4
6324562;STOP;i-F62C4251;
6324922;START;i-41DC4322;4
6325153;START;i-98E2438D;4
6325434;STOP;i-D8303965;
6325434;STOP;i-E5A34685;
6325528;START;i-12654316;4
6327965;STOP;i-98E2438D;
6329593;STOP;i-12654316;
6329662;START;i-7A35452A;4
6359815;START;i-5D923CDF;4
6359815;START;i-C8C645BD;4
6363769;STOP;i-C8C645BD;
6363817;START;i-15BF4537;4
6364040;STOP;i-5D923CDF;
6365274;STOP;i-15BF4537;
6387989;STOP;i-7A35452A;
6388147;START;i-9065448B;4
6391438;STOP;i-9065448B;
6391504;START;i-EDF43F62;4
6446213;START;i-3DDE412C;4
6446213;START;i-81F64909;4
6450825;STOP;i-3DDE412C;
6458280;STOP;i-81F64909;
6458319;START;i-A5E53D01;4
6459756;STOP;i-A5E53D01;
6478117;START;i-17E140BB;4
6482132;STOP;i-17E140BB;
6496336;START;i-24D4431A;4
6496527;STOP;i-24D4431A;
6496527;STOP;i-41DC4322;
6496569;START;i-69373C29;4
6496691;START;i-2226454E;4
6496691;START;i-335E455E;4
6496691;START;i-75333F1F;4
6497283;STOP;i-2226454E;
6497283;STOP;i-335E455E;
6497283;STOP;i-69373C29;
6497297;STOP;i-75333F1F;
6497516;START;i-652F460F;4
6498021;STOP;i-652F460F;
6532614;START;i-04EF4032;4
6532614;START;i-4E9745A8;4
6536853;STOP;i-4E9745A8;
6536892;START;i-E62543E0;4
6538253;STOP;i-E62543E0;
6542324;STOP;i-04EF4032;
6559438;START;i-A81D3FD4;4
6559698;START;i-136645BF;4
6559698;START;i-AE2C4890;4
6559698;START;i-FB4C3EF9;4
6582438;STOP;i-136645BF;
6582438;STOP;i-A81D3FD4;
6582438;STOP;i-AE2C4890;
6582438;STOP;i-FB4C3EF9;
6582693;START;i-19DF45DB;4
6591153;STOP;i-19DF45DB;
6591178;START;i-F442406B;4
6619015;START;i-56AA40CE;4
6619015;START;i-E235415E;4
6621315;STOP;i-56AA40CE;
6621315;STOP;i-E235415E;
6645906;STOP;i-EDF43F62;
6646585;START;i-6C0A3BBC;4
6656573;START;i-B02343CD;4
6656696;START;i-3E6243B4;4
6656696;START;i-540340EB;4
6656696;START;i-90493FF4;4
6657258;STOP;i-90493FF4;
6657265;STOP;i-B02343CD;
6657280;STOP;i-3E6243B4;
6657280;STOP;i-540340EB;
6657928;STOP;i-F442406B;
6658084;START;i-31114506;4
6662140;START;i-504442A9;4
6662835;STOP;i-504442A9;
6662877;STOP;i-31114506;
6663520;START;i-79F34083;4
6676619;STOP;i-79F34083;
6676674;START;i-22953F18;4
6676929;STOP;i-22953F18;
6677025;START;i-7F4D4569;4
6677428;STOP;i-7F4D4569;
6677585;START;i-137D41A9;4
6678357;STOP;i-137D41A9;
6678404;START;i-FABF3E6A;4
6678799;STOP;i-FABF3E6A;
6678866;START;i-8EE63FD2;4
6679186;STOP;i-8EE63FD2;
6679259;START;i-429A4145;4
6705415;START;i-9EA245B5;4
6752295;STOP;i-429A4145;
6752334;START;i-73573F68;4
6753317;STOP;i-73573F68;
6753404;START;i-99364252;4
6757937;STOP;i-99364252;
6757979;START;i-77B83DA9;4
6765318;STOP;i-9EA245B5;
6791814;START;i-39804668;4
6795781;STOP;i-39804668;
6795823;START;i-D21C431F;4
6797330;STOP;i-D21C431F;
6878214;START;i-81383F59;4
6882048;STOP;i-81383F59;
6882074;START;i-BC0E3FF8;4
6883539;STOP;i-BC0E3FF8;
6909807;STOP;i-77B83DA9;
6909886;START;i-E1604559;4
6910643;START;i-6E483D49;4
6910804;START;i-B15D4053;4
6911300;STOP;i-B15D4053;
6911314;STOP;i-6E483D49;
6912179;START;i-136B434A;4
6913083;STOP;i-136B434A;
6913325;START;i-CB8841DC;4
6913569;STOP;i-CB8841DC;
6916042;STOP;i-E1604559;
6916122;START;i-2F833FEE;4
6917600;START;i-63E13FF0;4
6917659;STOP;i-2F833FEE;
6917695;START;i-CEF94551;4
6918903;STOP;i-63E13FF0;
6919056;START;i-396C4644;4
6920538;STOP;i-396C4644;
6922884;STOP;i-CEF94551;
6922926;START;i-168B3E5E;4
6926617;STOP;i-168B3E5E;
6926644;START;i-AE9D49A9;4
6926886;STOP;i-6C0A3BBC;
6926917;START;i-C94C3C91;4
6927007;START;i-A3E24287;4
6927620;STOP;i-A3E24287;
6927717;START;i-47BD4687;4
6928795;STOP;i-47BD4687;
6928992;START;i-8A094255;4
6929042;STOP;i-AE9D49A9;
6929081;START;i-9E8C41FB;4
6929915;STOP;i-9E8C41FB;
6930134;START;i-F9EC4417;4
6939145;STOP;i-F9EC4417;
6939304;START;i-DD0144A1;4
6996900;START;i-EF6C4305;4
6998617;START;i-EC1E4132;8
7001270;START;i-E1F44370;4
7003815;STOP;i-EC1E4132;
7005106;STOP;i-E1F44370;
7005175;START;i-05E5432F;4
7007907;START;i-13DA3EFF;8
7009315;STOP;i-05E5432F;
7018149;START;i-D90147C3;4
7019762;STOP;i-D90147C3;
7032836;START;i-139C3FD5;4
7036916;STOP;i-139C3FD5;
7036956;START;i-80B73E9C;4
7038629;STOP;i-80B73E9C;
7051013;START;i-41C33E6C;4
7060166;STOP;i-41C33E6C;
7060201;START;i-6B83430A;4
7061956;STOP;i-6B83430A;
7074506;STOP;i-EF6C4305;
7074555;START;i-12884355;4
7075898;STOP;i-12884355;
7076019;START;i-75983F34;4
7076462;STOP;i-75983F34;
7076599;START;i-B06C4439;4
7077006;STOP;i-B06C4439;
7077058;START;i-AB504686;4
7078577;STOP;i-AB504686;
7078682;START;i-D9A342AE;4
7081792;STOP;i-8A094255;
7081877;STOP;i-D9A342AE;
7082408;START;i-E4CA411B;4
7082528;START;i-07E4445C;4
7082552;START;i-EDD13F08;4
7082858;STOP;i-DD0144A1;
7083007;START;i-CBA64466;4
7086448;STOP;i-EDD13F08;
7086512;START;i-5F563E89;4
7086556;STOP;i-07E4445C;
7087108;STOP;i-5F563E89;
7087175;START;i-4FEA4354;4
7087726;STOP;i-4FEA4354;
7087801;START;i-A4E14157;4
7088303;STOP;i-A4E14157;
7088344;START;i-C27247E9;4
7089735;START;i-B0CB475B;4
7089944;STOP;i-B0CB475B;
7089976;START;i-6C5E3EA9;4
7090200;STOP;i-6C5E3EA9;
7094290;STOP;i-C27247E9;
7095426;STOP;i-601B4217;
7095722;START;i-9D644651;4
7096293;STOP;i-9D644651;
7096317;START;i-8D6B3D3F;4
7096886;STOP;i-8D6B3D3F;
7096964;START;i-810B41A1;4
7097505;STOP;i-810B41A1;
7097556;START;i-B56F482C;4
7097701;START;i-02B9453F;4
7097701;START;i-31654124;4
7097701;START;i-D97A4604;4
7098635;START;i-D1D04517;4
7098832;STOP;i-D1D04517;
7099433;START;i-1C3E4761;4
7099627;STOP;i-1C3E4761;
7099981;START;i-53B83DA6;4
7100203;STOP;i-53B83DA6;
7100232;START;i-D8453FA3;4
7100453;STOP;i-D8453FA3;
7100497;START;i-B3C742E3;4
7100636;START;i-5A14405E;4
7100636;START;i-AE4F40E4;4
7100946;STOP;i-5A14405E;
7100946;STOP;i-B3C742E3;
7100968;STOP;i-AE4F40E4;
7101057;START;i-A3334434;4
7101196;START;i-30EA4482;4
7101196;START;i-6C8E3E78;4
7101533;STOP;i-6C8E3E78;
7101533;STOP;i-A3334434;
7101547;STOP;i-30EA4482;
7102675;STOP;i-02B9453F;
7102682;STOP;i-B56F482C;
7102682;STOP;i-D97A4604;
7102696;STOP;i-31654124;
7102915;START;i-59F33D25;4
7102981;START;i-7C8F40D6;1
7102990;START;i-F50E408C;1
7103015;STOP;i-7C8F40D6;
7103136;STOP;i-59F33D25;
7103348;START;i-881F4282;4
7103494;START;i-582B39CA;4
7103494;START;i-DC3F3E64;4
7103494;START;i-E4713E44;4
7103591;START;i-267741CB;4
7103799;STOP;i-F50E408C;
7105776;STOP;i-267741CB;
7137415;START;i-DF0342F7;4
7138257;STOP;i-DF0342F7;
7165538;START;i-66DD4462;4
7165746;START;i-DBFD4399;4
7165749;STOP;i-66DD4462;
7165780;START;i-52A642A8;4
7165938;START;i-C5C94193;4
7166022;STOP;i-DBFD4399;
7166080;STOP;i-C5C94193;
7166094;STOP;i-52A642A8;
7166117;START;i-DBBD419A;4
7166174;START;i-D16142D7;4
7166235;START;i-BD89451A;4
7166474;STOP;i-D16142D7;
7171642;START;i-38C044AC;4
7172308;START;i-531848B8;4
7172641;STOP;i-531848B8;
7173104;START;i-AE454164;4
7173301;STOP;i-38C044AC;
7174644;STOP;i-AE454164;
7175069;START;i-16A8432C;4
7176604;STOP;i-16A8432C;
7180333;START;i-38643F97;4
7180340;START;i-938642B7;4
7180441;STOP;i-938642B7;
7181841;STOP;i-38643F97;
7189021;START;i-8D2843E1;4
7190512;STOP;i-8D2843E1;
7219478;START;i-30C64249;4
7221000;STOP;i-30C64249;
7223811;START;i-FD2B3F78;4
7227957;STOP;i-FD2B3F78;
7249344;START;i-AB8341C8;4
7252730;STOP;i-AB8341C8;
7261623;START;i-CFE93FE3;4
7264738;STOP;i-CFE93FE3;
7264775;START;i-D4F347C8;4
7266202;STOP;i-D4F347C8;
7268347;START;i-BF8940DF;4
7269499;STOP;i-BF8940DF;
7271627;START;i-8C9743C0;4
7272038;STOP;i-8C9743C0;
7272038;STOP;i-DBBD419A;
7272053;STOP;i-BD89451A;
7272059;START;i-95914025;4
7272231;START;i-4DF942E9;4
7272231;START;i-E6E544E9;4
7274105;STOP;i-4DF942E9;
7274105;STOP;i-95914025;
7274119;STOP;i-E6E544E9;
7274669;START;i-73D24475;4
7274799;START;i-3BB3443D;4
7274799;START;i-69073BED;4
7275316;STOP;i-3BB3443D;
7275316;STOP;i-69073BED;
7275316;STOP;i-73D24475;
7275387;START;i-C26F422D;4
7275510;START;i-3C44420F;4
7275510;START;i-A67A4002;4
7277371;STOP;i-3C44420F;
7277371;STOP;i-A67A4002;
7277371;STOP;i-C26F422D;
7310213;START;i-43DE4833;4
7311685;STOP;i-43DE4833;
7396613;START;i-23C2405B;4
7398174;STOP;i-23C2405B;
7434385;START;i-923940E6;4
7437754;STOP;i-923940E6;
7437784;START;i-E8E24209;4
7439104;STOP;i-E8E24209;
7483012;START;i-DB4A3D91;4
7486355;STOP;i-DB4A3D91;
7486378;START;i-0DB1406D;4
7487729;STOP;i-0DB1406D;
7522348;START;i-55A5434B;4
7523482;STOP;i-55A5434B;
7523811;START;i-8A8143FA;4
7524598;START;i-7E66454E;4
7526163;START;i-A89840F6;4
7529504;STOP;i-13DA3EFF;
7529615;START;i-BCA14370;8
7529741;START;i-ED9C3DB2;4
7529935;STOP;i-582B39CA;
7529935;STOP;i-CBA64466;
7529935;STOP;i-DC3F3E64;
7529935;STOP;i-E4713E44;
7529942;STOP;i-BCA14370;
7529949;STOP;i-F5B940A5;
7529998;START;i-5D7D427E;4
7530083;START;i-340C3FC0;8
7530278;STOP;i-ED9C3DB2;
7530306;STOP;i-7E66454E;
7530327;STOP;i-8A8143FA;
7530470;STOP;i-A89840F6;
7530491;STOP;i-5D7D427E;
7530510;START;i-F3E74270;4
7530738;STOP;i-F3E74270;
7531082;STOP;i-340C3FC0;
7531103;START;i-844D418F;8
7532257;STOP;i-844D418F;
7532407;START;i-FB35423F;8
7532877;START;i-35F54226;8
7533025;STOP;i-FB35423F;
7533101;START;i-E69A442B;8
7533103;START;i-2A65412F;8
7533103;START;i-4688454C;8
7533103;START;i-63944045;8
7533103;START;i-E7D64318;8
7533416;STOP;i-2A65412F;
7533416;STOP;i-63944045;
7533417;STOP;i-35F54226;
7533417;STOP;i-4688454C;
7533424;STOP;i-E7D64318;
7533708;START;i-A5F9427E;8
7533897;START;i-A4CA4146;8
7534235;STOP;i-A5F9427E;
7569413;START;i-BA46456C;4
7577443;STOP;i-BA46456C;
7577479;START;i-9CAC402F;4
7578705;STOP;i-9CAC402F;
7604545;START;i-6DF83DEB;8
7616556;START;i-201440FF;8
7617101;STOP;i-201440FF;
7617493;START;i-57C54949;8
7617730;STOP;i-57C54949;
7617820;START;i-9EFE4642;8
7618631;START;i-DCA240E2;8
7618766;START;i-DBD2440F;8
7619974;STOP;i-DBD2440F;
7619974;STOP;i-DCA240E2;
7620059;STOP;i-9EFE4642;
7620127;START;i-937640B4;8
7620435;STOP;i-937640B4;
7620717;START;i-E8763FF8;8
7621030;STOP;i-E8763FF8;
7621460;START;i-584D411A;8
7621688;STOP;i-584D411A;
7623062;START;i-30B14344;8
7623105;START;i-FEF43E67;1
7623321;STOP;i-30B14344;
7623435;STOP;i-FEF43E67;
7623440;START;i-643442C7;4
7623648;STOP;i-643442C7;
7623725;START;i-EC82454D;4
7624066;STOP;i-EC82454D;
7624096;START;i-DB6140FF;4
7624548;STOP;i-DB6140FF;
7624664;START;i-63AB4934;4
7624859;STOP;i-63AB4934;
7624913;START;i-CC38417E;4
7625594;STOP;i-CC38417E;
7628253;START;i-1EEA402A;8
7628283;START;i-3CD04149;1
7629030;STOP;i-3CD04149;
7634970;START;i-9AEE44CA;4
7637009;STOP;i-9AEE44CA;
7637056;START;i-64E34648;4
7638413;STOP;i-64E34648;
7655813;START;i-B5BD43F9;4
7658968;STOP;i-B5BD43F9;
7658993;START;i-88144025;4
7660325;STOP;i-88144025;
7662007;START;i-23B84392;4
7664745;START;i-E28B4230;4
7665277;STOP;i-23B84392;
7665320;START;i-E6133F53;4
7666659;STOP;i-E6133F53;
7667712;STOP;i-E28B4230;
7667744;START;i-B68E4203;4
7669196;STOP;i-B68E4203;
7684300;START;i-315D42FD;4
7687202;STOP;i-315D42FD;
7687981;START;i-5C274389;4
7688499;START;i-CE1D4954;8
7688618;START;i-0BDF3E4F;8
7690532;START;i-8B9B42A5;8
7691252;STOP;i-5C274389;
7692990;STOP;i-8B9B42A5;
7692997;STOP;i-0BDF3E4F;
7693004;STOP;i-CE1D4954;
7693194;START;i-0829411F;4
7693480;START;i-768040DD;4
7693611;START;i-E92145BC;4
7694749;START;i-92A03DBC;4
7699363;STOP;i-768040DD;
7699377;STOP;i-E92145BC;
7699378;STOP;i-92A03DBC;
7710258;START;i-83FD3B98;4
7713196;STOP;i-83FD3B98;
7713841;START;i-1A383BDA;4
7716246;START;i-D6CC4353;4
7719301;STOP;i-D6CC4353;
7733872;START;i-C04B46FF;4
7742219;START;i-CDEA3C9E;4
7744235;STOP;i-C04B46FF;
7744283;START;i-89654130;4
7745455;STOP;i-89654130;
7745729;STOP;i-CDEA3C9E;
7745789;START;i-5A313D5A;4
7746975;STOP;i-5A313D5A;
7777217;START;i-182841D4;4
7778111;STOP;i-1A383BDA;
7778946;START;i-AA0F446C;8
7779138;START;i-08E94237;8
7779138;START;i-819E444D;8
7779138;START;i-AA1C4093;8
7779488;STOP;i-08E94237;
7779488;STOP;i-819E444D;
7779489;STOP;i-AA0F446C;
7779496;STOP;i-AA1C4093;
7779592;START;i-541D401A;4
7779780;START;i-B6AD4425;4
7779795;START;i-24EB463D;4
7780862;START;i-25304582;4
7780920;STOP;i-25304582;
7780921;STOP;i-541D401A;
7780942;STOP;i-B6AD4425;
7781018;START;i-C2433D1F;4
7781150;START;i-A2E840D1;4
7781767;START;i-F968431B;4
7782376;STOP;i-A2E840D1;
7782376;STOP;i-C2433D1F;
7782391;STOP;i-F968431B;
7782451;START;i-E69840C9;4
7783350;STOP;i-E69840C9;
7783360;START;i-AE613BCB;4
7784250;START;i-9B063C23;4
7785469;START;i-7941406F;4
7786001;STOP;i-7941406F;
7786001;STOP;i-9B063C23;
7786001;STOP;i-AE613BCB;
7786041;START;i-5E0143A2;4
7786182;START;i-2CD2411F;4
7786182;START;i-EDF34109;4
7786757;START;i-2AB740EC;4
7787330;STOP;i-2AB740EC;
7787890;STOP;i-2CD2411F;
7787898;STOP;i-EDF34109;
7787905;STOP;i-5E0143A2;
7788322;START;i-905C43D4;4
7788445;START;i-69BA43D0;4
7788913;START;i-477E42B1;4
7790578;STOP;i-905C43D4;
7790579;STOP;i-477E42B1;
7790579;STOP;i-69BA43D0;
7790606;START;i-87664BAA;4
7790724;START;i-C3B44617;4
7791139;START;i-649B40D4;4
7791977;STOP;i-87664BAA;
7791977;STOP;i-C3B44617;
7791978;STOP;i-649B40D4;
7792012;START;i-B4D33C7D;4
7792139;START;i-833D4387;4
7792782;START;i-51053D74;4
7793269;STOP;i-51053D74;
7793283;STOP;i-833D4387;
7793291;STOP;i-B4D33C7D;
7793316;START;i-7AB53FD8;4
7793445;START;i-993D3EE7;4
7794019;START;i-E13943B2;4
7795098;STOP;i-E13943B2;
7795191;STOP;i-24EB463D;
7795892;STOP;i-182841D4;
7795923;START;i-38A63FAB;4
7795924;START;i-575B44EE;4
7797048;STOP;i-575B44EE;
7797091;STOP;i-38A63FAB;
7828613;START;i-99DB43AF;4
7829491;STOP;i-99DB43AF;
7852259;START;i-862040B0;4
7855672;STOP;i-862040B0;
7855714;START;i-942543A3;4
7856922;STOP;i-942543A3;
7859027;START;i-A2F1415A;4
7865166;START;i-53C0428A;8
7865275;START;i-88E5413B;8
7866973;STOP;i-7AB53FD8;
7866981;STOP;i-993D3EE7;
7866989;START;i-41C3461F;8
7867035;START;i-308E4543;8
7868000;STOP;i-A4CA4146;
7868024;START;i-69594229;8
7868410;STOP;i-308E4543;
7868410;STOP;i-53C0428A;
7868410;STOP;i-69594229;
7868417;STOP;i-41C3461F;
7868424;STOP;i-88E5413B;
7868473;START;i-6F7346E7;8
7868626;START;i-39CA400F;8
7875064;START;i-931143BC;8
7876494;STOP;i-6F7346E7;
7876501;STOP;i-931143BC;
7876508;STOP;i-39CA400F;
7876965;START;i-4A6E40BB;8
7877192;START;i-AAF844DC;8
7877982;START;i-D564417E;8
7879805;START;i-3B9744C9;4
7880710;STOP;i-D564417E;
7880748;STOP;i-AAF844DC;
7880755;STOP;i-4A6E40BB;
7880898;START;i-8D89420C;8
7881129;START;i-0DA043CD;8
7882341;START;i-3F8D411C;8
7884407;STOP;i-3F8D411C;
7886910;STOP;i-3B9744C9;
7886942;START;i-96843EFB;4
7887961;STOP;i-96843EFB;
7895879;START;i-BF55457A;8
7901812;STOP;i-BF55457A;
7915012;START;i-AD964110;4
7916934;STOP;i-AD964110;
7916967;START;i-45673C59;4
7918101;STOP;i-45673C59;
7963017;STOP;i-0DA043CD;
7963017;STOP;i-1EEA402A;
7963017;STOP;i-6DF83DEB;
7963017;STOP;i-8D89420C;
7963017;STOP;i-A2F1415A;
7963017;STOP;i-C94C3C91;
7963017;STOP;i-E4CA411B;
7963017;STOP;i-E69A442B;
7963025;STOP;i-0829411F;
7963025;STOP;i-881F4282;
7965237;START;i-2B4D3DF4;1
7965237;START;i-31764610;1
7965237;START;i-3ACC419A;1
7965237;START;i-50A63F85;1
7965237;START;i-5CE73ED5;1
7965237;START;i-64A54310;1
7965237;START;i-709942D6;1
7965237;START;i-A1104098;1
7965237;START;i-C30A405F;1
7965237;START;i-DD0E41C8;1
7965237;START;i-DF1C3FA6;1
7965237;START;i-E5183ED8;1
7965628;STOP;i-31764610;
7965628;STOP;i-DD0E41C8;
7965635;STOP;i-2B4D3DF4;
7965635;STOP;i-3ACC419A;
7965635;STOP;i-50A63F85;
7965635;STOP;i-5CE73ED5;
7965635;STOP;i-64A54310;
7965635;STOP;i-709942D6;
7965635;STOP;i-A1104098;
7965635;STOP;i-C30A405F;
7965635;STOP;i-DF1C3FA6;
7965635;STOP;i-E5183ED8;
7965714;START;i-1CC2409E;1
7965714;START;i-1D3C43C8;1
7965714;START;i-3A574279;1
7965714;START;i-447F4375;1
7965714;START;i-6D344572;1
7965714;START;i-7CA74063;1
7965714;START;i-8ABF40AC;1
7965714;START;i-94D6445F;1
7965714;START;i-A817411D;1
7965714;START;i-C0864212;1
7965715;START;i-06F74084;1
7965715;START;i-362644C9;1
7967254;STOP;i-362644C9;
7967254;STOP;i-3A574279;
7967254;STOP;i-6D344572;
7967254;STOP;i-C0864212;
7967255;STOP;i-06F74084;
7967261;STOP;i-1CC2409E;
7967261;STOP;i-1D3C43C8;
7967261;STOP;i-447F4375;
7967261;STOP;i-7CA74063;
7967261;STOP;i-8ABF40AC;
7967261;STOP;i-94D6445F;
7967261;STOP;i-A817411D;
7973430;START;i-1683454D;1
7973430;START;i-2C0642E5;1
7973430;START;i-44A63D4C;1
7973430;START;i-5FA23E7E;1
7973430;START;i-796D4198;1
7973430;START;i-7F4D442E;1
7973430;START;i-8716411B;1
7973430;START;i-9AF244BE;1
7973430;START;i-B8A54671;1
7973430;START;i-CFD14015;1
7973430;START;i-E67D3E9D;1
7973430;START;i-F2BB3C6B;1
7973568;STOP;i-1683454D;
7973568;STOP;i-2C0642E5;
7973568;STOP;i-44A63D4C;
7973568;STOP;i-5FA23E7E;
7973568;STOP;i-796D4198;
7973568;STOP;i-8716411B;
7973568;STOP;i-9AF244BE;
7973568;STOP;i-B8A54671;
7973568;STOP;i-F2BB3C6B;
7973575;STOP;i-7F4D442E;
7973575;STOP;i-CFD14015;
7973575;STOP;i-E67D3E9D;
7973625;START;i-0A61413A;1
7973625;START;i-18ED3C2F;1
7973625;START;i-21B23F7D;1
7973625;START;i-26264352;1
7973625;START;i-4D6D44B2;1
7973625;START;i-819F3DC7;1
7973625;START;i-8582428D;1
7973625;START;i-8F13450B;1
7973625;START;i-8F3D446F;1
7973625;START;i-D83342E5;1
7973625;START;i-E0C243D3;1
7973625;START;i-FB354027;1
7973759;STOP;i-819F3DC7;
7973759;STOP;i-8582428D;
7973759;STOP;i-D83342E5;
7973760;STOP;i-18ED3C2F;
7973760;STOP;i-26264352;
7973760;STOP;i-4D6D44B2;
7973760;STOP;i-8F3D446F;
7973767;STOP;i-0A61413A;
7973767;STOP;i-21B23F7D;
7973767;STOP;i-8F13450B;
7973767;STOP;i-E0C243D3;
7973767;STOP;i-FB354027;
7974882;START;i-11274342;4
7974882;START;i-1E924218;4
7974882;START;i-2B5D3F11;4
7974882;START;i-5775412D;4
7974882;START;i-58094139;4
7974882;START;i-74093E87;4
7974882;START;i-8D19416E;4
7974882;START;i-8F7649BB;4
7974882;START;i-C47941E8;4
7974882;START;i-E472437E;4
7974882;START;i-ED4840D5;4
7974882;START;i-F47241F7;4
7975846;STOP;i-11274342;
7975846;STOP;i-1E924218;
7975846;STOP;i-2B5D3F11;
7975846;STOP;i-5775412D;
7975846;STOP;i-58094139;
7975853;STOP;i-74093E87;
7975853;STOP;i-8D19416E;
7975853;STOP;i-8F7649BB;
7975853;STOP;i-C47941E8;
7975853;STOP;i-E472437E;
7975853;STOP;i-ED4840D5;
7975853;STOP;i-F47241F7;
7975860;START;i-12C63DD7;4
7975860;START;i-27783B72;4
7975860;START;i-3B024067;4
7975860;START;i-43D13D45;4
7975860;START;i-7C923D68;4
7975860;START;i-A0E33EDC;4
7975860;START;i-C2524177;4
7975860;START;i-C4084801;4
7975860;START;i-CD734240;4
7975860;START;i-CFE83ECA;4
7975860;START;i-F5804085;4
7975860;START;i-FBFC43D8;4
7975942;STOP;i-12C63DD7;
7975942;STOP;i-27783B72;
7975942;STOP;i-3B024067;
7975942;STOP;i-43D13D45;
7975942;STOP;i-7C923D68;
7975942;STOP;i-A0E33EDC;
7975942;STOP;i-C2524177;
7975942;STOP;i-C4084801;
7975942;STOP;i-CD734240;
7975942;STOP;i-CFE83ECA;
7975942;STOP;i-F5804085;
7975942;STOP;i-FBFC43D8;
7977175;START;i-136242E6;4
8028330;START;i-3DBE3AC4;4
8036973;STOP;i-3DBE3AC4;
8037023;START;i-68F648D9;4
8038170;STOP;i-68F648D9;
8110600;START;i-2A5F3CEE;4
8112805;START;i-52C14220;4
8114688;STOP;i-52C14220;
8114716;START;i-BAD24248;4
8115884;STOP;i-BAD24248;
8118497;START;i-339D4099;4
8118705;STOP;i-339D4099;
8118799;START;i-6E8943AC;4
8119323;STOP;i-6E8943AC;
8121945;START;i-5DCD3A96;4
8124207;STOP;i-5DCD3A96;
8124221;STOP;i-136242E6;
8124307;START;i-DE1944AA;4
8124693;STOP;i-DE1944AA;
8124792;START;i-9D544284;4
8124850;STOP;i-2A5F3CEE;
8124898;START;i-924843B7;4
8125244;STOP;i-9D544284;
8125356;START;i-A05840EB;4
8125766;STOP;i-A05840EB;
8125817;START;i-2B164374;4
8126098;STOP;i-2B164374;
8126176;START;i-F4BD4187;4
8126542;STOP;i-F4BD4187;
8126595;START;i-956343F5;4
8129234;STOP;i-956343F5;
8129279;START;i-299A3E8B;4
8129645;STOP;i-924843B7;
8129666;STOP;i-299A3E8B;
8129672;START;i-C2CB406B;4
8129886;START;i-9A7945CE;4
8130438;STOP;i-9A7945CE;
8130681;STOP;i-C2CB406B;
8131070;START;i-023E45EE;4
8132266;START;i-89D83F47;4
8132459;STOP;i-89D83F47;
8133288;STOP;i-023E45EE;
8133333;START;i-5B6543AE;4
8133566;STOP;i-5B6543AE;
8133652;START;i-72CD43A5;4
8133897;START;i-CB9643D2;4
8134353;STOP;i-72CD43A5;
8134421;START;i-C273401D;4
8134948;STOP;i-C273401D;
8134981;START;i-3E144219;4
8135165;STOP;i-3E144219;
8135209;START;i-1EED413C;4
8135355;STOP;i-1EED413C;
8135420;START;i-046744AA;4
8135697;STOP;i-046744AA;
8135720;STOP;i-CB9643D2;
8135778;START;i-1DE24276;4
8136027;STOP;i-1DE24276;
8136127;START;i-6CB34776;4
8136801;STOP;i-6CB34776;
8136841;START;i-64964149;4
8137174;STOP;i-64964149;
8137350;START;i-2A153F1C;4
8138025;STOP;i-2A153F1C;
8138072;START;i-6D6C441E;4
8138293;START;i-62A341B8;4
8138981;STOP;i-6D6C441E;
8140646;STOP;i-62A341B8;
8140673;START;i-55F74221;4
8141794;STOP;i-55F74221;
8145160;START;i-5B3842AE;4
8145465;STOP;i-5B3842AE;
8145502;START;i-06A740DB;4
8145744;STOP;i-06A740DB;
8174214;START;i-A538432E;4
8176269;STOP;i-A538432E;
8176307;START;i-AD4E44B7;4
8177435;STOP;i-AD4E44B7;
8177436;STOP;i-04723FB3;
8177436;STOP;i-19AD4243;
8177436;STOP;i-83BE43F9;
8177436;STOP;i-BA1D4104;
8177436;STOP;i-C1FD41CB;
8177436;STOP;i-C28745AB;
8177436;STOP;i-E4D142BD;