0;0.0
300;0.0
600;0.00261260783141
900;0.0180291682051
1200;0.027432392898
1500;0.0499661327769
1800;0.0593276983562
2100;0.0730442681904
2399;0.0806639920901
2699;0.0892347812829
2999;0.0987870399876
3299;0.114793527547
3599;0.142060777531
3899;0.169303490778
4199;0.245589808801
4499;0.342603269372
4799;0.37754571762
5099;0.622561046712
5399;0.934551001835
5699;1.15640578408
5999;1.3082935251
6299;1.43671667708
6599;1.53653852731
6899;1.67600854538
7199;1.7983615218
7499;1.91066510386
7799;2.02450489908
8099;2.08801771145
8399;2.1797851108
8699;2.26523696721
8999;2.33817508733
9299;2.41555649063
9600;2.48208838857
9900;2.54735077703
10200;2.60019544253
10500;2.64004097108
10800;2.70121745929
11100;2.76250596304
11400;2.80822430644
11700;2.86559226621
12000;2.91218539765
12300;2.95974399639
12600;3.00130709658
12900;3.05055659659
13199;3.09287180114
13499;3.11231983288
13799;3.14340147877
14099;3.17987053884
14399;3.21797182537
14699;3.25367811294
14999;3.25878815529
15299;3.29569460937
15599;3.33257439309
15899;3.34925404072
16199;3.3550201741
16499;3.38265600856
16799;3.41603130603
17099;3.41141199844
17399;3.44214159549
17699;3.4546286614
17999;3.44461660556
18299;3.46627827778
18599;3.47625832917
18899;3.42730753727
19199;3.43599674289
19499;3.44467528037
19799;3.41097460442
20099;3.44992400863
20401;3.46540348973
20701;3.5118899397
21001;3.43354306911
21301;3.4120627554
21601;3.39617255064
21901;3.37522031019
22201;3.15321617389
22501;3.2215616568
22801;3.23106164158
23101;3.23944680502
23401;3.23944680502
23701;3.23522221886
24000;3.25889483676
24300;3.22422335944
24600;3.16266815202
24900;3.10932741768
25200;3.00719591365
25500;2.95431390963
25800;2.95257500169
26100;2.88184518797
26400;2.79102725369
26700;2.78460502927
27000;2.65781410376
27300;2.59366653665
27601;2.52149118902
27901;2.53814950035
28202;2.42232009575
28501;1.34385579268
28801;0.460798868955
29101;0.419976671561
29401;0.388053842284
29701;0.367615806516
30001;0.365982513231
30301;0.371861195562
30601;0.357049540452
30901;0.322711442724
31201;0.289455095088
31501;0.279113393516
31801;0.282814707071
32101;0.284012206557
32401;0.301756001833
32701;0.353137530996
33001;0.538965447863
33301;0.798260091537
33601;1.02980155114
33901;0.836580075083
34201;0.529073408681
34501;0.448824407504
34800;0.426181799186
35100;0.448497428802
35400;0.473843345536
35700;0.302518240927
36000;0.185059810293
36300;0.116709526724
36600;0.088456539969
36900;0.072120940079
37200;0.0539808231466
37500;0.0413390691093
37800;0.0290652594574
38100;0.0
38401;0.0
38702;0.0
39002;0.0
39302;0.0
39602;0.0
82480;0.0
82780;0.0
83080;0.0
83380;0.0
83680;0.0
83980;0.0235094485913
84280;0.0358568151158
84580;0.0453396241844
84880;0.0518590354162
85180;0.070752216836
85480;0.0717134168687
85780;0.0624283952431
86080;0.0589767163243
86380;0.0667745982767
86680;0.087518276452
86980;0.186088753058
87280;0.200225114472
87580;0.259393857439
87880;0.303841091138
88180;0.245971195052
88480;0.282211956773
88780;0.326267669482
89080;0.406295306611
89380;0.430776036634
89680;0.558200116664
89980;1.07717879137
90280;1.38755252224
90580;1.28631714255
90880;1.57549859967
91180;1.68626063452
91480;1.74107890719
91780;1.07214876012
92080;0.915583036705
92380;1.54778808819
92680;1.71153347445
92980;1.45959451804
93280;1.0667133393
93580;0.860999463261
93880;0.793198055848
94181;0.674264220503
94481;0.512762345529
94781;0.471275522585
95081;0.599629865022
95380;0.458631634919
95680;0.484906747244
95980;0.522236193354
96280;0.460706056077
96580;0.484696051344
96880;0.494055749997
97180;0.590108543943
97480;0.619147239715
97780;0.668167374568
98080;0.723657740496
98380;0.678131423742
98680;0.722110859201
98980;0.678808851068
99280;0.737713023994
99580;0.679400933219
99880;0.593388999105
100180;0.616677563715
100480;0.55089243606
100780;0.546150444778
101080;0.560899157821
101380;0.490932116595
101680;0.528764565829
101980;0.613029057487
102280;0.636264281363
102580;0.666561818465
102880;0.656592435218
103180;0.693728254461
103480;0.710541253924
103780;0.703516279212
104080;0.697856827299
104380;0.799614946189
104680;0.93145190517
104980;0.929216928401
105280;0.777094488153
105580;0.701825377933
105880;0.657472557334
106180;0.6801477035
106480;0.731264129212
106780;0.70057720475
107080;0.647103118579
107380;0.580523213983
107680;0.580912601344
107980;0.616085481564
108280;0.689807710488
108580;0.739659960797
108880;0.805743796564
109180;0.768410616603
109480;0.658955429749
109780;0.628631222279
110080;0.605417334697
110380;0.679742313919
110680;0.658064639485
110980;0.725930055779
111280;0.800308375735
111580;0.768309269208
111880;0.830141848448
112180;0.891190318894
112480;0.739163891967
112780;0.7370089263
113080;0.838537680033
113380;0.976236785717
113680;0.994367301318
113980;0.949977142204
114280;1.02726253218
114580;0.807125321583
114880;0.60254760319
115180;0.567582751834
115480;0.574431702122
115780;0.620363408458
116080;0.523343013591
116380;0.51019398917
116680;0.458828995636
116980;0.276038300181
117280;0.203955765431
117580;0.20118524769
117880;0.222521541423
118179;0.274309526981
118480;0.304746816807
118780;0.210259573415
119080;0.162096624162
119380;0.134458656074
119680;0.104366480799
119979;0.0845551986598
120279;0.0678334118532
120579;0.0532419472945
120879;0.0353256480833
121179;0.00780353607021
121479;0.0
121779;0.0
122079;0.0
122379;0.0
172484;0.0
172785;0.0
173085;0.0
173385;0.0
173685;0.0
173985;0.00474139920019
174285;0.0532400803688
174585;0.0704295053933
174885;0.0319056535607
175185;0.00128413017244
175485;0.0380299699734
175785;0.109545866103
176085;0.119664603406
176384;0.102631306711
176684;0.0499822416786
176984;0.0395116688917
177284;0.104014431952
177584;0.127326466486
177884;0.478881377894
178184;0.718489023339
178484;0.386917684642
178784;0.360939146799
179084;0.57789351578
179384;0.660534315485
179684;0.543974142817
179984;0.259789112281
180284;0.0952233455267
180584;0.107372764586
180884;0.106187533469
181184;0.115373874736
181484;0.133648410319
181784;0.143315351603
182083;0.134438386595
182383;0.16434973678
182683;0.166739401678
182983;0.138103961858
183283;0.140698988584
183584;0.202398215988
183884;0.147139882254
184184;0.12338832007
184484;0.20081773003
184784;0.41309411661
185084;0.197360717038
185384;0.247441799097
185684;0.194743820611
185984;0.219882241889
186284;0.22778467168
186584;0.334738178094
186884;0.247837053939
187183;0.411118909217
187483;0.375262200783
187783;0.121174146188
188083;0.191724735048
188383;0.190643518363
188683;0.120066792543
188983;0.332524004212
189283;0.183531598254
189583;0.198769979239
189883;0.159015663347
190183;0.29337403884
190483;0.566793308965
190784;0.634258669752
191084;0.924672297836
191384;0.812459395017
191684;1.11804312795
191984;1.85023005186
192284;1.15294930449
192584;1.018605331
192884;0.824311706186
193184;1.08410241869
193484;1.45811164562
193784;2.08730294561
194084;1.75128832374
194384;2.21001863902
194684;1.80163130881
194984;1.42540310733
195284;0.68404691118
195584;0.210947668887
195884;0.142242136028
196184;0.158935652245
196484;0.110435056144
196784;0.115092769066
197084;0.243490317498
197384;0.450075247724
197684;0.952526829306
197983;2.69864643589
198283;2.15395752724
198583;0.999584025135
198883;2.66545783099
199183;2.93303629071
199483;2.57784034077
199783;2.1973342124
200083;2.37810596106
200383;2.31136603426
200683;2.48399798686
200983;1.38987817826
201283;0.835475921882
201584;0.885952258783
201884;0.944130997721
202184;0.606372133842
202484;0.40143863275
202784;0.672984042879
203084;0.675816435872
203384;0.730373338949
203684;0.659451498578
203984;0.729658573109
204284;0.677630020839
204584;0.645321538053
204884;0.599293818395
205184;0.601944852892
205484;0.637027053864
205784;0.91015294995
206084;1.14119300665
206384;1.25340590947
206684;1.05262605136
206984;0.856220133465
207284;0.808704207319
207584;0.675917783267
207884;0.605022613263
208184;0.446185107969
208484;0.389588455211
208783;0.276581842264
209083;0.175727848821
209383;0.119261880862
209683;0.0985816781604
209983;0.0852480947988
210283;0.0705740587833
210583;0.0530443732146
210883;0.0361531762358
211183;0.00592674233264
211482;0.0
211782;0.0
212082;0.0
212383;0.0
259511;0.0
259811;0.0
260110;0.0
260410;0.00523529172754
260710;0.0227452892313
261010;0.0393140948117
261310;0.0478053529697
261610;0.0335849265591
261910;0.0489944779602
262210;0.0955103186774
262510;0.0722617596177
262810;0.0223240574522
263110;0.0604526544434
263410;0.110138481661
263710;0.134257561505
264010;0.151428477295
264310;0.098026401116
264610;0.0612431641262
264910;0.0524349553248
265210;0.143919168715
265510;0.334960075549
265810;0.369038937308
266110;0.363309609033
266410;0.30236301939
266710;0.224544222069
267010;0.116855680336
267310;0.0846538790183
267610;0.0582795529266
267910;0.191020103947
268210;0.315698202974
268510;0.138290654428
268810;0.331009127357
269110;0.31833323525
269410;0.136773643944
269710;0.206217412567
270010;0.187877801288
270310;0.0754670043438
270610;0.072563668174
270910;0.125054151203
271210;0.339669528984
271510;0.305721352024
271810;0.261566958956
272110;0.35355838939
272410;0.340096788266
272710;0.207238887629
273010;0.142610720502
273310;0.191829282887
273610;0.220574071213
273910;0.20980671058
274210;0.184579210277
274510;0.216128654413
274810;0.191532708404
275110;0.143416165591
275410;0.190347477287
275710;0.152272861119
276010;0.125350725686
276310;0.170097734312
276610;0.394218430951
276910;0.223537149005
277210;0.175727848821
277510;0.20881884018
277810;0.286731517193
278110;0.250010155455
278409;0.216523909255
278709;0.181157402169
279009;0.206645738663
279309;0.0951075961332
279609;0.0906792483687
279909;0.113497347702
280209;0.19393890893
280509;0.258505200805
280809;0.331779367561
281109;0.677224631258
281409;0.499490637419
281709;0.755662181097
282009;1.07372764586
282309;0.243194276422
282609;0.104705727869
282909;0.145969053136
283209;0.324687183524
283509;0.44154286386
283809;0.614357241771
284109;0.609636586783
284409;0.867443023969
284709;0.561064514098
285010;0.318266559332
285310;0.253171127372
285610;1.60565745086
285910;2.26486891614
286210;1.44138399133
286510;0.509404012895
286810;1.19181336353
287110;1.59337841382
287410;0.833299619921
287710;0.58477447051
288010;0.645524232843
288310;0.406673492418
288609;0.160120883362
288909;0.150243246178
289209;0.212155303113
289509;0.30987019434
289809;0.449642654368
290109;0.331618278543
290409;0.304444908251
290709;0.261757385378
291009;0.298808926261
291309;0.340689403824
291609;0.394227498876
291909;0.529357181387
292209;0.495968015323
292509;0.0746770280684
292809;1.02197113134
293109;0.722212206596
293409;1.10214225504
293709;0.983149744887
294009;0.833299619921
294309;0.688687555067
294609;0.503214354083
294909;0.411020228859
295209;0.0793198055848
295509;0.070752216836
295810;0.0677624686766
296110;0.0655893671598
296410;0.0672685334766
296710;0.0600840699691
297010;0.0476115660819
297310;0.0312141976216
297610;0.00938402202854
297910;0.0
298210;0.0
298510;0.0
298810;0.0
299110;0.0
344680;0.0
344980;0.0
345280;0.0
345580;0.0
345880;0.00928523498855
346180;0.0239045434106
346480;0.0348690513974
346780;0.0472164179219
347080;0.0571652649863
347380;0.0684537645935
347680;0.077837999985
347980;0.087320915735
348280;0.104668389355
348580;0.141704994833
348880;0.401339418984
349180;0.510762601398
349480;0.671597183786
349780;0.754275322004
350080;1.02009353749
350380;1.20741019425
350680;1.2956837755
350980;1.38624567425
351279;1.46015459575
351579;1.52544365457
351879;1.60575879826
352179;1.68808488763
352479;1.81891904081
352779;2.03721599607
353079;2.13061028782
353379;2.21196024175
353679;2.30135397842
353979;2.3882567028
354280;2.46197359765
354580;2.5494844064
354880;2.621003663
355179;2.68195078605
355479;2.73024015284
355779;2.79426503626
356079;2.85975678988
356379;2.92475247466
356679;2.98587562214
356979;3.03271945503
357279;3.07453859075
357579;3.13258397785
357879;3.18236688521
358179;3.26877887483
358479;2.94682487053
358779;2.11960076025
359079;2.67458443064
359379;3.32352247048
359679;3.17960916924
359979;3.25862279901
360279;3.3661043787
360579;2.78685600826
360879;0.942722802335
361179;1.5553944769
361479;2.58277969277
361779;3.9084943017
362079;3.04354229003
362379;2.29968974751
362679;2.38302397676
362979;3.77020311387
363279;2.64145450054
363579;2.32666415686
363879;1.6507463736
364179;2.92316825485
364479;1.16111577092
364779;2.86321326946
365079;1.23116282325
365380;1.36315447036
365680;1.84262366315
365980;1.30885893688
366280;2.5980938176
366580;3.67972122621
366880;1.31968710595
367180;1.24970939658
367480;2.15674191357
367780;2.09165021546
368080;1.29396620385
368380;1.90426421574
368680;1.40216788345
368980;1.85646024963
369280;2.21535271246
369580;3.15945170574
369880;2.10092083509
370180;1.50883868397
370480;0.822338099015
370779;0.688095472916
371079;1.59570940391
371379;2.58662555972
371679;1.54013902688
371979;0.712397511478
372279;2.63266394752
372579;3.14247335
372879;1.61330651217
373179;1.77683853549
373480;1.31489710801
373779;1.45797829379
374079;2.35989010028
374379;2.11475742157
374679;0.325279799082
374979;0.144120796691
375279;0.346517412457
375579;0.417835574485
375879;0.379926848001
376179;0.121597138211
376479;0.0501201808176
376779;0.0705068494581
377079;0.125501679964
377379;0.512473772156
377679;0.757635788267
377979;0.691013211084
378279;0.706071300386
378579;1.46143477337
378879;1.38784589628
379179;0.247008672334
379479;0.256134205164
379779;0.681971956614
380079;0.488561654361
380379;0.421794523787
380679;0.769818811989
380979;0.894214738531
381279;0.382598685383
381579;0.477992187853
381879;0.137981278169
382179;0.118534846653
382479;0.158915382766
382779;0.110103276777
383079;0.135679625483
383379;0.186893664739
383679;0.175319792203
383979;0.0854438552938
384279;0.0135867918275
384579;0.0
384879;0.0
385179;0.0
431086;0.0
431386;0.0
431686;0.0
431986;0.0
432286;0.0177802269979
432586;0.0283813245618
432886;0.0533407343345
433187;0.0651941123184
433487;0.0812950129772
433787;0.0943021510447
434087;0.105891492394
434387;0.12338832007
434687;0.156600394896
434987;0.22531499568
435287;0.459125570118
435587;0.664849580893
435887;0.739622622283
436187;0.821548656147
436487;0.986803585189
436786;1.15462953763
437086;0.918468770433
437386;0.852443609474
437686;0.859772626371
437986;0.667463276875
438286;1.42903561134
438586;1.30594119871
438886;1.77703589621
439186;2.01768795323
439485;2.13303729123
439785;2.22561546974
440085;2.32022059616
440386;2.39904753336
440686;2.47945335629
440986;2.53962170462
441286;2.61992084609
441586;2.67859565386
441886;2.74602367613
442186;2.80773357168
442486;2.84568017009
442786;2.95819711509
443086;3.01488231347
443386;2.6074711187
443686;2.70105210301
443986;3.30420779057
444286;2.95685292859
444586;3.38291204408
444886;3.21231770754
445186;1.72280437161
445486;2.42897701939
445786;1.61813384863
446086;3.06648947394
446386;3.43316968397
446686;1.29507035706
446986;3.96677438804
447286;3.62025697558
447585;2.55371432663
447885;4.05903252214
448185;2.4529696817
448485;2.54672135636
448785;0.864615965049
449085;1.46546199881
449385;2.82528267328
449685;3.14295341661
449986;2.19149873606
450286;1.03244191749
450586;0.791320462
450886;1.38716313488
451187;4.48545968871
451487;1.58175013374
451787;0.721332084479
452087;0.604329183717
452387;0.995002056056
452687;1.59577874687
452987;1.61813384863
453287;2.28505838408
453587;2.57746695563
453887;3.72970149429
454187;2.03962699726
454487;1.00112557236
454787;0.808805554715
455087;0.902466550133
455387;1.26220179656
455687;1.29659056798
455987;2.25097898892
456288;1.27866808125
456588;1.31376095037
456888;1.04658788023
457187;2.16311613132
457487;2.32766696267
457787;1.3275068576
458087;1.75853732954
458386;1.99583425438
458686;1.89458287246
458986;2.87154509217
459286;2.0747572049
459586;0.731370810681
459886;0.382845652983
460186;0.289146785644
460486;0.561459235532
460786;0.739926664468
461086;0.650756958881
461386;0.625073395299
461686;0.79739597164
461987;0.693530893744
462287;0.733632457817
462587;0.495666106767
462887;0.497578372093
463187;0.548401423767
463487;0.3779292375
463787;0.406620685091
464087;0.409439742901
464387;0.502588133862
464687;0.50492552484
464987;1.13806723961
465287;0.674712282671
465587;0.538149334628
465887;0.983741827038
466187;1.370755525
466487;1.19651268223
466787;1.02759857881
467087;0.817825472891
467387;0.435481756217
467687;0.359160766717
467987;0.218596196784
468287;0.0922896051383
468587;0.0756648984682
468887;0.0622310345261
469187;0.0595639978093
469487;0.0424712795363
469787;0.0128822674084
470087;0.0
470387;0.0
470687;0.0
470987;0.0
471287;0.0
471587;0.0
471887;0.0
518081;0.0
518381;0.0
518681;0.0
518981;0.00211349858024
519281;0.0218395102215
519581;0.0327946835799
519881;0.0460310801235
520181;0.0570943218097
520481;0.0809168271708
520780;0.0832318150409
521080;0.0803076759847
521379;0.0968032980777
521679;0.105272206468
521979;0.113323990316
522279;0.118040911453
522579;0.139792729507
522879;0.196570740762
523180;0.243292956781
523480;0.281680149652
523780;0.324489289399
524080;0.378620533417
524380;0.403809094984
524680;0.458126498164
524980;0.521833470809
525280;0.626257559602
525580;0.721710803693
525880;0.8048530063
526180;0.77146704068
526479;0.765439537701
526779;0.896225684215
527079;1.07698676473
527379;1.08100332202
527679;1.00409131719
527979;1.05815748551
528279;1.16193721823
528580;1.20198010749
528880;1.22170551105
529180;1.18980241785
529480;1.21468587041
529780;1.29499568003
530080;1.39752723956
530380;1.43881830201
530680;1.6352455562
530980;1.29054172871
531280;1.18466037106
531580;1.52624909966
531880;1.35702561998
532180;1.48247769307
532480;1.79659594349
532780;1.43013443046
533080;1.76980289263
533380;2.0353437363
533680;1.65859812969
533980;1.05288742096
534280;0.771328354771
534580;0.697083386651
534880;0.787933325369
535180;0.838254974141
535480;0.658064639485
535781;0.678536813323
536081;0.734816622119
536381;0.756254263248
536681;0.615296038696
536981;0.639384714321
537281;0.387475095316
537580;0.484314131686
537880;0.541259099439
538180;0.535722331215
538480;0.498044570111
538780;0.402068586823
539080;0.431961267751
539380;0.502094198662
539680;0.481978874337
539980;0.275056830669
540280;0.229562518356
540580;0.239630581961
540880;0.295547140357
541180;0.23077441984
541480;0.232283962621
541780;0.251195386572
542080;0.277774541084
542380;0.475127790419
542680;0.43956712306
542979;0.290556047845
543279;0.353357294821
543579;0.300620377599
543879;0.290707002123
544179;0.260085686764
544479;0.24428082718
544779;0.183923119244
545079;0.149772247494
545379;0.131968710595
545679;0.210343851775
545979;0.325773734282
546279;0.15666387037
546580;0.112015542103
546880;0.180955774193
547180;0.286127700081
547480;0.255344228889
547780;0.341783422285
548080;0.266602857685
548380;0.157355166287
548680;0.137276647069
548980;0.128116442761
549280;0.148464866095
549580;0.0914841600498
549880;0.0784007447322
550180;0.0725039265516
550480;0.036449484015
550780;0.00553538136483
551080;0.0
551380;0.0
551681;0.0291864496058
551980;0.097692488119
552280;0.059580533437
552580;0.0953220258852
552880;0.0124461535645
553180;0.0585739937801
553480;0.0272630360665
553779;0.0999642699943
554079;0.143617260159
554379;0.215832613338
554679;0.115571768861
554979;0.139792729507
555279;0.153107643612
555579;0.166541507554
555879;0.0763881988258
556179;0.0464970114379
556479;0.0
556779;0.0
557079;0.0
557380;0.0
