0;0.0
300;0.0
600;0.00167924632795
901;0.027978708699
1201;0.0374373010742
1501;0.068157723518
1801;0.083131001053
2101;0.106384894186
2401;0.131771349878
2701;0.160424925548
3001;0.196354177381
3301;0.234214363797
3601;0.277069909983
3900;0.322813856934
4200;0.36597664575
4500;0.446284321735
4800;0.531092355475
5100;0.580304516972
5401;0.645225524731
5701;0.698566259065
6001;0.758446567429
6301;0.747559723552
6601;0.781836479435
6901;0.862711700833
7201;0.956207339975
7501;1.09575736914
7801;1.15642712037
8101;1.13605629393
8401;1.1626253137
8701;1.21705953309
9001;1.38626701055
9301;1.4557059785
9601;1.66232131295
9901;1.76903478606
10201;1.85428394767
10501;1.86259976815
10802;1.66071042277
11102;1.57818163861
11402;1.63410406449
11702;1.84588811609
12002;1.83284630654
12302;2.0602591933
12602;2.1854872353
12902;2.28584782695
13202;2.42779285509
13502;2.7085038036
13802;2.71524073834
14101;2.62268389613
14402;2.54525982024
14702;2.55867501493
15002;2.82073804271
15302;3.13489896572
15602;3.15036244461
15902;2.83763105328
16202;3.14790877083
16502;3.26356215101
16802;3.38989968028
17102;2.93011855254
17403;3.51474900307
17703;2.8991649244
18003;3.11677911827
18303;3.37737527586
18603;2.92652872112
18903;3.67843571452
19203;3.31920187099
19503;1.76255922091
19803;1.19364828479
20103;2.83329978565
20403;2.27695592654
20703;0.996858313611
21002;4.01833354184
21302;4.09765654787
21602;2.8278483626
21902;1.70831169409
22202;0.691615961382
22502;2.4202611434
22802;3.36204514881
23102;2.0944132655
23401;3.64679399091
23701;4.08066752399
24001;1.35097678071
24301;0.878308531552
24601;2.1717733325
24901;0.796355827321
25201;0.368742362825
25501;0.308269438903
25801;0.548321412665
26101;0.908099331678
26402;1.57345031547
26702;2.64459093572
27002;2.57605342617
27301;0.703996345821
27601;1.92006907533
27901;0.775712963133
28202;0.396641700512
28502;0.320143086366
28802;0.778774721284
29102;2.97520747527
29402;2.30175403393
29702;1.57646940104
30002;0.995962189274
30302;0.659254137861
30602;0.56631857643
30902;0.527570266787
31202;0.574266345846
31502;0.773440647851
31801;0.745586116381
32101;0.714867187478
32402;0.682660052087
32702;0.872910449238
33002;0.729285187969
33302;0.811787301764
33601;1.12941537251
33901;1.47623149308
34201;1.43416165591
34501;0.854145178899
34801;1.01397002119
35101;0.942018704642
35401;0.981666872473
35701;0.834286423506
36001;0.813798247448
36301;0.74834916642
36601;0.623985244319
36901;0.383348656108
37201;0.175017883647
37501;0.151972552785
37801;0.121979057869
38101;0.0997669092773
38401;0.081319549715
38701;0.0653173294147
39002;0.0518590354162
39302;0.0386963024267
39602;0.0143919168715
39902;0.0
40202;0.0
40502;0.0
40802;0.0
41102;0.0
86138;0.0
86438;0.0
86738;0.0
87038;0.000905784343808
87338;0.0237517222067
87638;0.0324983224599
87938;0.051562727637
88238;0.0620966158756
88538;0.0765540885096
88838;0.0868547177169
89138;0.0987304988092
89437;0.122974395972
89737;0.240341080543
90037;0.42109522676
90337;0.548225399344
90637;0.734619261402
90937;0.926315192454
91237;1.02018955081
91537;1.10495864581
91837;1.18536980282
92137;1.2686186869
92437;1.34811238328
92737;1.43416165591
93038;1.51872805612
93338;1.59025798086
93638;1.67359221011
93938;1.74192702487
94238;1.97706364996
94538;2.10992475104
94838;2.18968515109
95138;2.24856265365
95438;2.31162740386
95738;2.39084906249
96038;2.45961060312
96338;2.53852288549
96638;2.62245453097
96938;2.68555661969
97238;2.7552462891
97538;2.83733234516
97838;2.9669503296
98138;3.11608568872
98438;3.07101810228
98738;2.85442271644
99038;1.27997492924
99338;1.67278676502
99638;3.01526103268
99938;3.4677398139
100237;3.44118146227
100537;3.41099060664
100837;3.41528986982
101137;3.42427244949
101437;3.45144421956
101737;3.49075634076
102037;3.4862117102
102337;3.52763612448
102637;3.53810157656
102937;3.54557994751
103236;3.56839377959
103536;3.59466409125
103837;3.64734340047
104137;3.64196665445
104437;3.64468169783
104737;3.6549284529
105037;3.65132261926
105337;3.64528444813
105638;3.65660335195
105938;3.67685682878
106238;3.6880157104
106538;3.69651288938
106838;3.40590723466
107138;3.74511163244
107438;3.76595185734
107738;3.68232425405
108038;3.64770078339
108338;3.6560112698
108638;3.6277620169
108938;3.69641154199
109238;3.11015953314
109538;3.59315454846
109838;3.57715232816
110138;3.04911639677
110438;2.59870190197
110738;3.60198244
111038;3.60170506818
111338;3.56395049642
111638;3.4062592835
111938;2.99359936047
112238;3.31950591318
112537;3.33211566278
112838;3.29525188128
113137;3.08487069099
113438;3.17733151989
113738;3.23491817667
114038;2.589842006
114339;2.08280632171
114639;2.86882471471
114939;2.90365088016
115239;2.82575207174
115539;2.80713082138
115839;2.76677322179
116139;1.04764936084
116439;0.582720852238
116739;0.537951973911
117039;0.514738086328
117339;0.482931006445
117639;0.465941449152
117939;0.415554724685
118239;0.338159986202
118539;0.3934375226
118840;0.466983193693
119140;0.53212343187
119440;0.556322522815
119740;0.677726034161
120040;1.1566031448
120340;1.48215231459
120640;1.41589778847
120940;1.34596275168
121240;1.20688212098
121540;1.09565602175
121840;0.982274956844
122140;0.886939062368
122440;0.792963356617
122740;0.699067661968
123040;0.535087576477
123340;0.233810041031
123640;0.113826993441
123940;0.0717134168687
124240;0.043276457921
124540;0.0271642490265
124840;0.0
125140;0.0
125440;0.0
125740;0.0
126040;0.0
126340;0.0
126640;0.0
126940;0.0
127240;0.0
127540;0.0
173090;0.0
173390;0.0
173690;0.0
173990;0.0
174290;0.0
174590;0.0
174890;0.00898887386859
175190;0.019725990305
175490;0.0242009045305
175789;0.0269722757236
176089;0.0309178898423
176389;0.0318068665207
176689;0.0299529026175
176989;0.0342763824982
177289;0.0392153077717
177589;0.0550199006514
177889;0.0589767163243
178189;0.059366103685
178489;0.0797145270189
178789;0.0921887911504
179089;0.0990756133603
179390;0.121893712694
179690;0.143416165591
179990;0.147773570178
180290;0.103520496752
180590;0.179409426305
180890;0.241021174905
181190;0.309573619857
181490;0.340374160084
181790;0.344146416816
182090;0.388481634973
182390;0.346319518333
182690;0.370869057903
182990;0.428940048559
183290;0.430676822868
183590;0.443715965377
183890;0.39582878772
184190;0.291360959526
184490;0.257319436281
184790;0.358691368255
185090;0.346517412457
185390;0.290509641406
185690;0.253961103648
185990;0.282605077985
186290;0.321328317483
186590;0.463762480154
186890;0.521229653697
187190;0.593463676133
187490;0.785591667132
187790;0.795982442181
188090;0.872169013031
188390;1.04429422865
188690;1.10012597528
188990;1.50490213778
189290;2.13787529583
189590;2.44622741288
189890;2.85560688075
190190;2.28550111218
190490;2.01855207313
190790;1.42077313159
191090;0.844895895565
191390;0.977122241907
191690;0.64819126956
191990;0.888224574065
192290;0.828690980475
192590;0.798036060452
192889;0.610255339301
193189;0.942520107544
193489;1.00764381009
193789;1.01139899779
194089;1.0103535194
194389;1.13882467804
194689;1.26628769681
194989;1.35888187754
195289;1.10721495888
195589;0.790925740566
195889;0.734795285825
196189;1.04034168024
196489;1.77674785624
196789;1.82523991783
197089;1.75757719632
197389;1.40588039856
197689;1.11442129208
197989;0.893852021538
198290;0.639587409112
198590;0.63223705592
198890;0.980973442926
199190;0.871971652314
199490;0.831128652034
199790;0.769685460154
200090;2.39107309357
200390;1.71954525274
200690;1.40460555501
200990;1.29688394202
201291;1.29427024604
201591;1.34892849651
201891;1.29668124723
202191;1.08104066054
202491;0.98669690372
202791;0.909208818952
203090;0.864221243615
203390;0.830339209165
203690;0.79045100803
203990;0.837945597882
204290;0.764079348975
204590;0.655893671598
204890;0.620363408458
205190;0.503633612255
205490;0.449873619748
205790;0.43205994811
206090;0.298609431915
206390;0.273547287888
206690;0.264388683803
206990;0.236971012947
207290;0.147944793936
207590;0.145558862889
207890;0.133450516195
208190;0.117349615536
208490;0.089169705587
208790;0.0771013644439
209090;0.0856529509724
209390;0.0811963326187
209690;0.0756467626186
209990;0.0697456771791
210290;0.0557111965684
210590;0.0501201808176
210890;0.0464261749428
211190;0.0378323958934
211490;0.0272742376207
211790;0.0279544920056
212090;0.0341775954582
212390;0.00414872496692
212690;0.0
212990;0.0
213290;0.0
213590;0.0
213890;0.0
259819;0.0
260119;0.0
260419;0.0
260719;0.0
261019;0.0
261319;0.00207436248346
261619;0.0303941371719
261919;0.0326958965399
262219;0.0281520660856
262519;0.0367230153007
262819;0.0419811315285
263119;0.0357580280758
263419;0.0504685491536
263719;0.0717134168687
264019;0.115867809936
264319;0.104568108775
264619;0.113200773219
264920;0.131741479067
265220;0.12499867684
265520;0.138784589628
265820;0.21879569113
266120;0.315120522821
266420;0.205164466471
266720;0.194990254804
267020;0.229667066195
267320;0.345205230393
267620;0.362914354192
267920;0.312438550698
268220;0.358792182243
268519;0.364226536257
268819;0.253620256355
269119;0.276581842264
269419;0.307499198699
269719;0.325781201985
270019;0.285570289407
270319;0.297818922232
270619;0.288553103271
270919;0.338417088541
271219;0.30987019434
271519;0.399954693521
271819;0.418230829326
272119;0.439709009413
272419;0.448665985523
272719;0.427911105793
273019;0.405389580942
273318;0.360804728149
273618;0.343455120899
273918;0.341380699741
274219;0.363723533132
274519;0.355605073366
274818;0.406080876859
275118;0.463038646389
275418;0.414548185028
275719;0.51216972997
276019;0.491237759003
276319;0.453099667361
276619;0.419177627361
276919;0.472619175683
277219;0.48668459392
277519;0.473927623896
277819;0.53451683062
278119;0.478758160798
278419;0.424204458164
278719;0.548001368259
279019;0.485601777013
279318;0.466237490227
279618;0.479572673811
279918;0.496873740992
280218;0.515528062604
280518;0.567188030399
280818;0.7174328768
281118;0.712098803366
281418;0.757139719438
281718;0.847914981129
282018;1.00883330847
282318;0.904536170625
282618;0.911321112032
282918;0.873998600218
283218;0.85969261527
283519;0.781740466113
283819;0.811381912183
284119;0.902743921951
284419;0.865896142673
284719;0.651349041032
285019;0.68409491784
285319;0.757737135663
285619;0.798233421169
285919;0.578944328247
286219;0.442929189545
286520;0.563598198979
286820;0.667255248011
287120;0.552428649209
287420;0.611935572433
287720;0.568228174719
288020;0.642201105094
288320;0.968529049606
288620;0.956004645184
288920;0.913412068818
289220;1.11946199148
289520;1.25518215592
289820;1.23196826834
290119;1.06908700197
290419;0.990164051452
290719;0.961317382324
291019;0.952585504113
291319;0.901559757649
291619;1.04696126537
291919;1.1218676586
292219;1.07343427182
292519;0.951780059025
292819;1.11571213786
293119;1.22059602378
293419;1.13444540375
293720;1.13793388778
294020;1.13852596993
294320;1.1356615725
294620;0.783810086605
294920;0.540896382446
295220;0.518491673803
295520;0.484808066886
295820;0.276756266465
296120;0.0913838794693
296420;0.0720099913516
296720;0.0819233668277
297020;0.0935436458025
297320;0.115077833661
297620;0.0808160131829
297919;0.0661222410958
298219;0.0542299243759
298519;0.0246947863897
298819;0.0240033304505
299119;9.87817059141e-05
299419;0.0
299719;0.0
300020;0.0
300320;0.0
300619;0.0
344992;0.0
345292;0.0
345592;0.0
345892;0.0164047828224
346192;0.0288435220248
346492;0.0663238690716
346792;0.0884074664934
347092;0.115538164198
347392;0.137599358511
347692;0.166060907538
347992;0.209411989146
348292;0.248231775373
348592;0.282403983417
348892;0.276680522623
349192;0.320933596049
349492;0.417869179147
349792;0.541963197133
350092;0.636264281363
350392;0.73540870427
350692;0.837550876447
350992;0.970097267195
351292;1.10958862155
351592;1.2267355423
351892;1.36740039281
352192;1.48357651219
352492;1.60980202592
352792;1.7307574751
353092;1.85595884673
353392;1.98585420298
353692;2.06277687596
353992;2.1316184277
354292;2.23685436247
354593;2.3209140257
354893;2.39388948435
355193;2.45619146205
355493;2.55363964961
355793;2.62194779399
356093;2.69511527928
356393;2.74368735197
356693;2.8179696586
356993;2.89005966105
357293;2.9584371484
357593;3.0227073992
357893;3.08585749457
358192;3.11308793945
358492;3.1667273819
358792;3.20962933452
359092;3.24528761543
359392;3.32333044383
359692;3.37233991054
359992;3.40471773628
360292;3.39602853066
360592;3.43810903597
360892;3.49180715323
361192;3.49210586134
361492;3.5083374468
361792;3.56305970615
362092;3.59999816468
362392;3.60402005605
362692;3.64811150705
362992;3.67231219822
363292;3.73676914159
363592;3.76937633248
363892;3.78304222862
364192;3.75439825428
364492;3.82382655409
364792;3.86056231783
365092;3.84754717865
365393;3.7989484356
365693;3.81324908647
365993;3.74047098855
366293;3.78442908771
366593;3.79242486379
366893;3.83924736039
367193;3.81939927314
367493;3.82433329107
367793;3.65092256375
368093;3.58933535189
368393;3.56990332237
368693;3.75914024557
368992;3.73274191614
369292;3.44681957789
369592;3.55258892
369892;3.67764627165
370192;3.64337484984
370492;3.44038135126
370792;3.26524238414
371092;3.26404755169
371392;3.3896543129
371692;3.38049570882
371992;3.3434559029
372292;3.2809512304
372592;3.23491817667
372892;3.17981186403
373192;2.92166404615
373493;3.0131487396
373793;2.9829525499
374093;2.92286954674
374393;2.90005571467
374693;2.85664702507
374993;2.80904575375
375293;2.16197997368
375593;0.4689957396
375893;0.380228756557
376194;0.337429751549
376494;0.311154105816
376794;0.288667252442
377094;0.283208895098
377394;0.288945691076
377694;0.29633765004
377994;0.328242876874
378294;0.414950374165
378594;0.446753720197
378894;0.454603876069
379194;0.795785081464
379494;1.5531061594
379793;1.4951194471
380093;1.39732454477
380393;1.20600199886
380693;1.1061268079
380993;1.02897476975
381293;0.919370228843
381593;0.706663382537
381893;0.629319317752
382193;0.534740861704
382492;0.26324665868
382792;0.181753751579
383092;0.1490462801
383393;0.108261954627
383693;0.0961141357901
383993;0.0862343649766
384293;0.069046380152
384594;0.060486259106
384894;0.0493895727794
385193;0.0384250647926
385493;0.024053630763
385793;0.0
386093;0.0
386394;0.0
386693;0.0
386993;0.0
431101;0.0
431401;0.0
431701;0.0
432001;0.0
432300;0.0107669339069
432600;0.0284819251867
432900;0.0457347190036
433200;0.0657867278768
433500;0.0841599438183
433800;0.104970297912
434100;0.121979057869
434400;0.158836971887
434700;0.257545067587
435000;0.390177336918
435300;0.514046790411
435600;0.609215194982
435900;0.705084496801
436200;0.790136297698
436500;0.871299559061
436800;0.947294103267
437099;1.02740121809
437399;1.09358640125
437699;1.17231199106
437999;1.26105497077
438299;1.37679369613
438599;1.46015459575
438899;1.54487035002
439199;1.6347441533
439499;1.89067833071
439799;2.01450351139
440099;2.1333253312
440399;2.22104950288
440699;2.24967214093
440999;2.33000328683
441299;2.38837938649
441599;2.49443676857
441899;2.53469302077
442199;2.61842730553
442499;2.67770486359
442799;2.77220864261
443099;2.8671604838
443399;2.91961576195
443699;2.9745993909
443999;3.05088730915
444299;3.12922351159
444599;3.14967434913
444899;3.16511649172
445199;3.25072303626
445499;3.27149925228
445799;3.31517464555
446099;3.38089576433
446399;3.42823033197
446700;3.45346049931
447000;3.48700115306
447300;3.51807213081
447600;3.52848957623
447900;3.62124377916
448200;3.62891417676
448500;3.64406294531
448800;3.66914909267
449100;3.69453928221
449400;3.7057461705
449700;3.68831441852
450000;3.74903217641
450299;3.77948973571
450599;3.7742516756
450899;3.79203014236
451199;3.82402924888
451499;3.83608958892
451799;3.8562310502
452099;3.79341700145
452399;3.75617450074
452699;3.76696533129
452999;3.80983527948
453299;3.77741478115
453599;3.79746556318
453899;3.7685708874
454199;3.73711052229
454499;3.74472224507
454799;3.76002036768
455099;3.74313802527
455399;3.69256034097
455699;3.67408844467
455999;3.65061852156
456299;3.58510009758
456599;3.53777619808
456899;3.52894297247
457199;3.50659853886
457500;3.48133636708
457800;3.43227889371
458100;3.35553757922
458400;3.32785907218
458700;3.27512108814
459000;3.24845072097
459300;3.22439938386
459600;3.14639922804
459900;3.09692569695
460200;3.0149569905
460500;2.91270280278
460800;2.85856195743
461099;2.78730407043
461399;2.67741148955
461699;2.2043805234
461999;0.623382494021
462299;0.511577114412
462599;0.49133857299
462899;0.488660334719
463199;0.469793716985
463499;0.457347190036
463799;0.460717791038
464099;0.468608485868
464398;0.504623616284
464698;0.564403644067
464998;0.588033589377
465298;0.576986723297
465598;0.818977632752
465898;1.42142922262
466198;1.34569604801
466498;1.21757693821
466798;1.16252930038
467098;1.10316639714
467398;1.00438469123
467698;0.952788198904
467998;0.854054499651
468299;0.741041485816
468599;0.598109654093
468899;0.311187710478
469199;0.236611496398
469499;0.205263146829
469799;0.156197672352
470099;0.130936567386
470399;0.116263064778
470699;0.0944744416166
470999;0.0751709632683
471299;0.0652698561611
471599;0.0494156563985
471898;0.0393900520174
472198;0.0131376095037
472498;0.0
472798;0.0
473098;0.0
473398;0.0
603939;0.0
604239;0.0
604539;0.0
604839;0.00993604528817
605139;0.0256826034489
605439;0.0446481682452
605739;0.0608889816502
606039;0.0766901073821
606339;0.092753669527
606639;0.107285285782
606938;0.142142922262
607238;0.258752701813
607538;0.420601824967
607838;0.541360446835
608138;0.61976065816
608438;0.705185844196
608738;0.780385611461
609038;0.864018548824
609337;0.914137502805
609637;0.973073680171
609937;1.07531186567
610237;1.19513649128
610537;1.32435975428
610837;1.39209181874
611137;1.45549794964
611437;1.52976958813
611737;1.60150754173
612037;1.69502985124
612337;1.84106077963
612637;2.02279799558
612937;1.02947617266
613237;0.813798247448
613537;0.872617075199
613837;0.893409293443
614138;0.943634928892
614438;1.16035833249
614738;1.23579279899
615038;1.02132570845
615338;1.02424344662
615638;1.20741019425
615938;1.32466379646
616238;1.24491406456
616538;1.3647333561
616838;1.88232517171
617138;2.2133364327
617438;2.24248180994
617737;1.87304921801
618037;2.3657095744
618337;2.82736296192
618637;3.30753091832
618937;3.07065005122
619237;3.31477459004
619537;3.32087143598
619837;3.38822478122
620137;3.49095370148
620437;3.48395539713
620737;3.56306504023
621037;3.57554143799
621337;3.58301447487
621637;3.63349081177
621937;3.60714048901
622237;3.59862197373
622537;3.63615784848
622837;3.61780863587
623137;3.67161876867
623437;3.63582713593
623737;3.66762888174
624037;3.68090539052
624337;3.69364849195
624637;3.70718103625
624938;3.72718381163
625238;3.68881048735
625538;3.68120409863
625838;3.64091584199
626138;3.63082377505
626438;3.61156243588
626738;3.61418680001
627038;2.58554274281
627338;3.54923378781
627638;3.53387165632
627938;3.51253536259
628238;3.49124707552
628537;3.45647958488
628837;3.42910512002
629137;3.41269751014
629437;3.38555774451
629737;3.38703528285
630037;3.29343829631
630337;3.25556104086
630637;3.22208973007
630937;3.17880372415
631237;3.15183464887
631537;3.10835661632
631837;3.05994456584
632138;3.03864561062
632438;2.92830496757
632737;2.89773539272
633037;2.86228514069
633337;2.78096719119
633637;2.74240717434
633937;2.66653531382
634237;2.60530015081
634537;2.14107573989
634837;0.918250073422
635137;0.56652127122
635437;0.494156563985
635737;0.455470663002
636037;0.448464890954
636337;0.43759138226
636637;0.446049089096
636937;0.432361856666
637237;0.444338451746
637537;0.508614036619
637837;0.540997729841
638137;0.542229900804
638437;1.03144977983
638737;1.46635812315
639037;1.39118502625
639336;1.28007627663
639636;1.20727684241
639936;1.11383454401
640236;1.01649303792
640536;0.923600149076
640836;0.828290924967
641136;0.74252435823
641436;0.587553522768
641736;0.318760494532
642036;0.227005896959
642336;0.175135233263
642636;0.129993503203
642937;0.116756999978
643237;0.103360474549
643537;0.0855462695037
643837;0.0735702078309
644137;0.0546491825478
644437;0.036844632175
644737;0.0299300727832
645037;0.0108694547983
645337;0.0
645637;0.0
645937;0.0
646237;0.0
