0;0.0
300;0.0
600;0.0
900;0.0104668389355
1200;0.0289271069555
1500;0.0426725874676
1800;0.0571652649863
2100;0.0706514028481
2400;0.0843386352784
2700;0.101655171273
3000;0.141254265628
3300;0.149957873249
3600;0.139088631814
3900;0.247581551821
4200;0.499389823431
4500;0.591682095606
4800;0.673805490187
5100;0.760761555299
5400;0.85063535858
5700;0.939191645722
6000;1.03296465668
6300;1.11995272623
6600;1.21949187058
6900;1.29558776218
7200;1.38460277964
7500;1.47733564628
7800;1.55704803967
8099;1.64750859102
8399;1.72884254274
8699;1.81529720495
8999;1.90528835784
9299;1.99188170596
9599;2.24979482462
9899;2.37758855593
10199;2.47408727842
10499;2.56357702841
10799;2.65831550666
11099;2.74240717434
11399;2.82152215151
11700;2.88286399599
12000;2.94229624219
12300;3.02293676435
12600;3.07365846863
12900;3.13875016674
13200;3.21298980079
13500;3.29040320853
13800;3.3256454317
14100;3.37636713598
14400;3.40652598717
14700;3.48304860465
15000;3.53709343668
15300;3.56547604142
15600;3.60875137918
15900;3.6720134901
16200;3.71159231498
16500;3.75176855608
16800;3.79855371417
17100;3.82775243214
17400;3.86811003174
17700;3.89991177755
18000;3.93312705282
18300;3.96558488966
18600;4.00256602077
18900;4.01313815432
19200;4.03729083883
19500;4.05399715682
19800;4.06104346783
20100;4.0727144205
20400;4.1046175137
20700;4.13759808974
21000;4.1356191485
21300;4.14558319767
21600;4.15267751534
21900;4.12585779412
22199;4.12826879531
22499;4.15625134454
22799;4.14699139306
23099;4.17253093666
23399;4.1794492299
23699;4.15715813702
23999;4.14829824105
24299;4.13340550802
24599;4.10641509645
24899;4.07634159043
25199;4.05409317014
25499;4.04774028868
25799;4.03255951569
26099;3.99419685956
26399;3.98646778715
26699;3.94000267347
26999;3.93695158347
27299;3.91279356489
27599;3.87274000748
27899;3.83217971309
28199;3.79081397361
28499;3.7661598862
28799;3.71513413974
29099;3.67438715278
29399;3.63089311801
29700;3.58131823951
30000;3.53266615573
30300;3.48651041831
30600;3.43222555298
30900;3.37828206834
31200;3.31829507851
31500;3.26294339849
31800;3.19387781568
32100;3.15092785639
32400;3.08986338372
32700;3.02303811175
33000;2.94178950521
33299;2.89383618504
33599;2.81498257748
33899;2.73879600663
34199;2.66077984859
34499;2.58702561523
34799;2.49723715712
35099;2.42700341222
35399;2.34256502977
35699;2.25364602563
35999;2.16799147444
36299;2.08682821308
36599;2.00027753755
36899;1.90293069738
37199;1.80180733323
37499;1.72004132157
37799;1.62135562898
38099;1.52831338608
38399;1.44276551635
38700;1.35054472076
39000;1.241532262
39300;1.10128880329
39600;0.674408240485
39900;0.241777013111
40200;0.172863451387
40500;0.116954360695
40800;0.117452029746
41100;0.122683688969
41400;0.11543735021
41700;0.112733508387
42000;0.109249825027
42300;0.0937991479199
42599;0.0809344296131
42900;0.0706268661103
43200;0.0624993384198
43499;0.0564606338858
43799;0.0459322930835
44099;0.0312864209758
44400;0.0226204185722
44700;0.0
45000;0.0
45300;0.0
45600;0.0
45900;0.0
46200;0.0
86085;0.0
86385;0.0
86685;0.0
86985;0.0
87285;0.00133351835836
87585;0.021928962633
87885;0.0288844877088
88185;0.0395526345757
88485;0.0483085694574
88785;0.065619237971
89085;0.0796083789576
89385;0.197558077755
89685;0.220307367541
89985;0.115092769066
90285;0.368252161477
90585;0.558264125545
90885;0.640483533449
91185;0.72332169387
91485;0.806575912019
91785;0.894214738531
92085;0.987304988092
92385;1.07635200999
92685;1.16494030157
92985;1.24915998701
93284;1.33945518209
93584;1.42450698299
93884;1.50855597808
94184;1.59335174345
94484;1.68043582633
94784;1.76769059955
95084;1.84610147902
95384;1.93992249665
95684;2.02332606885
95984;2.29505977177
96284;2.40647256358
96584;2.4854755252
96885;2.56730021167
97185;2.64036634956
97485;2.72047879846
97785;2.79374763114
98085;2.85554287187
98385;2.92689677218
98685;2.9967251275
98985;3.05582132707
99285;3.13406685027
99585;3.202908402
99885;3.26153520311
100185;3.31537734034
100485;3.37103306255
100785;3.4176048577
101085;3.44148550446
101385;3.48908677578
101685;3.5427315523
101985;3.58479605539
102285;3.63602449665
102585;3.6576381622
102885;3.69530738879
103185;3.72841598259
103485;3.76897627698
103785;3.80601074883
104085;3.83691103623
104385;3.85009153168
104685;3.88209597228
104985;3.92849707708
105285;3.92457119903
105585;3.95304981709
105885;3.96568090298
106185;3.98414746521
106485;3.98583836649
106785;4.01152726414
107084;4.01461035859
107384;4.03195676539
107685;4.02989247897
107984;4.05912853546
108284;4.03878437939
108585;4.05641349209
108885;4.05738429345
109185;4.06084077304
109485;4.02833492953
109785;4.03604799972
110085;4.03104997291
110385;4.00337146586
110685;4.01343686243
110985;3.99854412941
111285;3.98475554958
111585;3.96680639248
111885;3.95526345757
112184;3.91661809554
112485;3.89186266074
112785;3.90197606397
113085;3.86146377624
113385;3.84053287209
113684;3.80773898862
113985;3.7750144481
114285;3.71332055477
114585;3.68426585678
114885;3.65578723872
115185;3.61680583007
115485;3.5906368658
115785;3.55310632513
116084;3.49421282035
116385;3.42246419859
116685;3.37923686749
116985;3.32604548721
117285;3.26535973376
117585;3.21080283068
117885;3.15978241829
118185;3.10795122674
118485;3.04132864955
118785;2.96473668912
119085;2.89821545933
119385;2.83803644286
119685;2.77482767267
119985;2.68970652882
120285;2.62627372755
120585;2.55049254628
120885;2.4658781394
121185;2.39137713576
121485;2.30827227167
121784;2.22236168495
122085;2.13711785741
122385;2.06901774188
122685;1.98528345712
122985;1.89841807126
123284;1.81056588181
123584;1.71606210279
123884;1.6351442088
124184;1.54667860091
124484;1.46370708865
124784;1.37397730536
125084;1.28458890276
125384;1.18851157207
125684;1.0506097716
125984;0.653834719252
126284;0.227050169768
126584;0.190819009379
126884;0.142308811946
127184;0.138082092157
127484;0.132748018724
127784;0.126832531286
128084;0.124193231751
128384;0.117144253709
128684;0.099398324803
128984;0.087320915735
129284;0.0742743055241
129584;0.0660219605152
129884;0.0579568414838
130184;0.050422089374
130484;0.0332121815075
130785;0.0259658960889
131085;0.0
131385;0.0
131685;0.0
131985;0.0
132285;0.0
132585;0.0
172479;0.0
172779;0.0
173079;0.0
173379;0.0
173679;0.0103604241705
173979;0.0220407648122
174279;0.0375398219656
174579;0.0522541835761
174879;0.0683172123136
175179;0.0852443609474
175479;0.112317450659
175779;0.257343973019
176079;0.303745611224
176379;0.2581488847
176679;0.464577526575
176979;0.550012313944
177279;0.625996190003
177578;0.707618181682
177878;0.792109904868
178178;0.879722061012
178478;0.971302767791
178778;1.06097921035
179077;1.15135441654
179377;1.22703425041
179678;1.3097177227
179978;1.38182906145
180278;1.45721018721
180578;1.53139114645
180878;1.61199966418
181178;1.68767949805
181478;1.7705123244
181778;1.83820171627
182078;1.96475260848
182378;2.17209871098
182679;2.27473161792
182979;2.35715905468
183279;2.42277882606
183579;2.51154314207
183879;2.59443464322
184179;2.662625438
184479;2.75056830669
184779;2.80730151173
185078;2.89086510614
185379;2.93825301452
185679;2.98836663443
185979;3.0467800726
186279;3.11057025679
186578;3.14046240431
186878;3.21644628037
187178;3.25552903642
187478;3.28756548146
187778;3.36381072712
188078;3.43202285819
188378;3.45035606858
188678;3.48999356826
188978;3.18695952243
189278;3.53950977194
189578;3.63855818153
189878;3.76990440575
190178;3.52249941176
190478;3.03570120208
190778;3.57010601716
191078;1.44493115017
191378;2.25497954399
191678;1.51754389182
191978;0.97210821288
192278;2.4960369906
192578;4.05430119901
192878;4.17885181368
193178;1.38303456205
193478;1.67902763094
193778;4.43422591338
194078;4.23002158012
194378;4.12665790513
194678;2.73235244592
194978;1.7721178805
195278;2.32243423663
195578;3.1016143475
195878;4.28664810369
196178;4.28437045434
196478;4.12738867319
196778;4.01675999018
197078;2.76204189865
197378;4.22720518935
197678;4.22539160438
197978;3.63330945327
198278;4.21250981704
198578;2.45588741986
198878;0.859591267875
199178;0.959023730748
199479;1.15004756855
199779;1.48410458546
200079;1.11976069959
200379;2.09239165167
200679;1.1864792901
200979;3.13160250834
201279;3.34758447573
201579;3.31417183975
201879;4.09042887837
202179;3.86538965429
202479;3.75388084916
202779;2.4380716146
203079;1.46556334621
203379;1.11882190267
203679;2.36420003162
203979;1.66332411875
204279;2.83611617642
204579;2.03027103246
204879;1.15021292482
205179;2.55441842433
205479;2.65908361324
205779;2.32112738864
206079;2.33179553551
206379;2.71655292041
206679;1.66176656931
206979;2.28426894122
207279;1.02615304491
207579;1.28541035007
207879;1.34790968849
208179;1.27302996563
208479;2.19079463837
208779;0.926016484341
209079;2.08944724313
209379;0.949465071155
209679;0.799022864038
209979;1.07607463817
210279;1.17841950514
210579;1.03451153798
210879;0.761465652993
211179;1.17661658832
211479;1.31640665079
211779;0.957919577547
212079;0.836644083964
212379;0.23039089996
212679;0.115373874736
212979;0.0821244613961
213279;0.07334350971
213579;0.068157723518
213879;0.0534415483224
214179;0.0481073148668
214479;0.0410622840388
214779;0.0355269560147
215079;0.0311993155567
215379;0.0361307731274
215679;0.0360301725024
215978;0.0326083110541
216279;0.0329102196105
216579;0.0297477008125
216879;0.00754819397495
217179;0.0
217479;0.0
217779;0.0
218079;0.0
218379;0.0
259215;0.0
259515;0.0
259815;0.0
260115;0.00225672378601
260415;0.0
260715;0.0
261015;0.0211349858024
261315;0.0265697132016
261615;0.0148951333592
261915;0.0
262215;0.0217388562558
262515;0.0243555926601
262815;0.0334134360982
263115;0.0330302362627
263415;0.0288844877088
263714;0.00956105992579
264014;0.0233491596847
264314;0.0393900520174
264614;0.0571652649863
264914;0.053541828903
265214;0.0501798157586
265514;0.0763183224638
265814;0.089169705587
266114;0.115275194378
266414;0.112117956312
266714;0.103259660562
267014;0.18125768275
267315;0.283913526198
267615;0.303136460038
267915;0.454000058956
268215;0.539850904053
268515;0.410924748944
268815;0.296091215847
269115;0.308555878646
269415;0.411810205134
269715;0.631031555324
270015;0.87673497989
270315;0.863314451131
270615;0.75081884242
270915;0.706455353673
271215;0.673906837583
271515;0.641769045146
271815;0.632087701864
272114;0.792664648505
272414;0.875897530361
272715;0.889968816078
273015;0.927734055987
273315;0.939196979795
273615;0.965264596665
273915;1.09398645676
274215;1.14159306215
274514;1.40386945288
274814;1.65499763012
275114;1.73643826331
275414;1.73055478031
275714;1.51621037346
276014;1.48504338239
276314;1.57918977849
276614;2.14814872127
276914;3.15602723059
277214;3.53568524129
277514;2.73627832397
277814;2.4137162353
278115;3.0618594982
278415;3.75015233183
278715;2.93202815083
279014;1.91124118379
279314;1.4840779151
279614;1.62422536049
279914;1.4900200729
280214;1.67797681848
280514;2.37336396977
280814;2.49282587839
281114;1.99925339545
281414;2.77717466498
281714;3.12566568461
282014;2.67720879476
282314;4.28233817236
282614;2.86520287885
282914;2.98255249439
283214;2.9091449758
283514;3.61239988541
283814;3.44097876748
284114;4.67053603463
284414;2.71745971289
284714;2.66703671673
285014;3.6572967815
285314;4.4402640845
285614;4.07573350606
285915;4.30479462151
286215;4.59485086668
286515;4.0494845307
286815;3.60247317475
287115;3.78920308344
287415;4.01040177465
287715;4.08382529546
288015;4.04081132729
288315;4.00770273349
288615;3.07868316581
288915;1.39430545921
289215;0.736203481212
289514;0.545483685599
289814;1.60464931099
290114;3.88994772837
290414;3.63033304029
290714;3.65917437535
291014;3.50972430589
291314;3.38653387995
291614;3.21952404074
291914;1.63172506773
292214;1.41204658745
292514;2.0272519469
292814;0.743591172917
293114;0.666156428884
293414;0.667063221367
293714;0.733536444495
294014;1.41698593945
294314;0.749586671456
294614;0.586337354026
294914;0.53219970912
295214;0.542667294826
295514;0.873107809955
295814;2.22068678589
296114;2.23578221371
296414;2.51435953284
296714;1.9802480918
297014;1.65920087999
297314;0.414180667368
297614;0.385160640853
297914;1.47753834107
298214;1.59186887104
298514;1.27514225871
298814;0.50304419714
299114;0.218194007647
299414;0.157552527004
299714;0.122683688969
300014;0.131338756523
300314;0.14673715971
300614;0.151329796936
300914;0.129829213741
301214;0.105373020456
301514;0.080413824046
301814;0.0676317838774
302114;0.0616938933313
302414;0.0565209089156
302714;0.0499188728862
303014;0.0384456009753
303314;0.0292871035715
303614;0.0262752723481
303914;0.00191221731923
304214;0.0
304514;0.0
304814;0.0
305114;0.0
305414;0.0
345322;0.0
345622;0.0
345922;0.0
346222;0.0120016652253
346522;0.0377410765562
346822;0.067430689309
347122;0.0825271839404
347422;0.0778977416075
347722;0.0809168271708
348022;0.124495140307
348322;0.292669407739
348622;0.401363955722
348923;0.46868049586
349223;0.542261905245
349523;0.616538877806
349823;0.695483164621
350123;0.761967055895
350423;0.841860807782
350723;0.917156588368
351023;1.00592623845
351323;1.0732582474
351623;1.14734852739
351923;1.22593009721
352223;1.31459839989
352523;1.40152779464
352823;1.47261499129
353123;1.56590260157
353423;1.65058635139
353723;1.72844248723
354023;1.79888959507
354323;1.88464015958
354623;1.96102942522
354923;2.16191063073
355223;2.33621748238
355523;2.428512955
355823;2.50882809869
356123;2.59366653665
356423;2.65646991726
356723;2.71826515798
357023;2.7906432004
357323;2.85684971986
357623;2.91691672079
357923;2.9827711914
358223;3.03619727091
358523;3.08339848672
358822;3.13838211567
359122;3.19852912771
359422;3.25276065231
359722;3.31420384419
360022;3.35362264686
360322;3.41692743037
360622;3.45104416405
360922;3.51213530708
361222;3.56919922467
361522;3.58100886326
361822;3.61770728848
362122;3.60703914161
362422;3.67651011401
362722;3.76192996597
363022;3.76349818356
363323;3.82060477374
363622;3.86891547683
363922;3.89418298268
364222;3.97237516514
364522;3.86951822712
364822;2.77443828531
365122;4.35713255004
365422;3.54746287543
365722;1.86461071384
366022;3.60813262666
366322;2.39328673405
366622;2.25742254963
366922;1.30982440417
367222;1.9440670717
367522;2.8293739076
367822;1.24324983365
368122;1.81091793066
368422;1.03018027035
368722;1.47548472279
369022;1.91080378977
369322;2.16985840014
369622;4.44174695692
369922;4.11760064844
370222;4.43462596888
370522;3.56556672067
370822;2.91310819236
371122;3.4377623212
371422;1.54024037428
371722;3.58100886326
372022;4.19650759674
372322;4.08261979486
372622;4.03165272321
372922;4.03891773122
373222;2.80471448612
373522;4.27611330866
373822;4.00927628515
374122;1.04195790449
374422;0.578133549085
374722;2.34709365811
375022;4.06087277748
375322;2.93527660155
375622;0.784210142113
375922;2.63728858919
376222;3.25645183112
376522;3.28387430264
376822;3.28266880205
377122;3.27809750112
377422;3.20146820217
377722;3.10281984809
378022;2.96604887119
378322;2.63644047151
378622;2.65312545321
378922;0.625996190003
379222;2.52965765545
379522;0.788536075667
379822;0.669980959536
380122;2.36832860445
380422;2.34779775581
380722;2.27030433697
381022;2.27422488094
381322;1.97032671522
381622;1.87749250118
381922;1.916340558
382222;1.79005103539
382522;1.70891444439
382822;1.56986048405
383122;1.51588499498
383422;1.38897138578
383722;0.980856093311
384022;0.998293179365
384322;1.04487564266
384622;1.14262253833
384922;0.997871787563
385222;0.664945594214
385522;0.543766113953
385822;0.464577526575
386121;0.412032102589
386421;0.347822126819
386721;0.342919579927
387021;0.306457454158
387321;0.254425168036
387621;0.22577479281
387921;0.17756330349
388221;0.151507954989
388521;0.137880997589
388821;0.125400865976
389121;0.0952084101211
389421;0.0715998011046
389721;0.055051905092
390021;0.0430828843961
390321;0.0324070031227
390621;0.00181157402169
390921;0.0
391221;0.0
391521;0.0
391821;0.0
431671;0.0
431971;0.0
432270;0.0
432570;0.0
432870;0.0
433170;0.00976236785717
433470;0.0287838870838
433770;0.0565614478737
434070;0.0738721163872
434370;0.0756003561797
434670;0.0829299064846
434970;0.0990324073655
435270;0.119708876216
435570;0.128017762403
435870;0.133450516195
436170;0.127212850722
436470;0.124696768283
436770;0.129225396628
437070;0.143814620876
437429;0.160191293131
437729;0.184679490857
438029;0.196153082812
438329;0.210182762757
438629;0.23529184663
438929;0.276849079343
439229;0.31903786635
439529;0.369730233225
439829;0.439445506186
440129;0.531897800564
440429;0.690565148915
440729;0.809034919872
440970;0.794776941585
441270;0.839460474737
441570;1.20580997222
441870;1.44885702822
442170;1.51618370309
442470;1.52473955688
442770;1.67691000379
443070;2.05608261381
443370;2.32257825661
443670;2.13534161095
443970;2.17414699518
444270;2.58843381061
444570;2.61020749837
444870;2.46202693839
445170;2.66570319837
445470;2.36145831787
445770;2.79742280773
446070;2.67851030868
446370;2.94430718787
446670;2.96994807887
446970;2.63996629405
447270;3.33571082827
447570;3.07652820014
447870;1.7870159476
448170;2.64451625869
448470;3.36429079373
448770;2.72837856121
449070;3.00349406669
449370;2.55413038436
449670;3.05314362221
449970;3.82010337084
450270;2.7018575481
450570;1.91667660462
450870;2.08280632171
451170;2.71907060307
451470;3.79580666635
451770;3.8727346734
452070;3.13715527878
452370;2.47634359148
452670;3.78940577823
452970;3.6001955254
453270;3.83950872999
453570;3.69631019459
453870;3.87303871559
454170;3.79423844876
454470;3.31184618373
454770;4.1912748707
455070;4.18468195594
455370;3.81768703557
455670;3.6137867445
455970;3.43494059635
456270;3.27819884851
456570;3.66214012018
456870;3.63117048982
457170;3.82181560841
457470;3.64963705205
457770;3.66561793606
458070;3.70536745128
458370;3.47278584736
458729;3.47917073326
459029;3.4388664744
459329;3.54031521703
459629;3.43719690942
459870;3.51986971356
460170;2.84162627428
460470;3.2389880747
460770;3.3309261644
461070;3.20366584043
461370;3.17689412586
461670;3.06627077693
461970;3.24762927366
462270;3.12433216625
462570;3.12402278999
462870;2.91854361319
463170;2.72953605515
463470;2.6061642707
463770;2.65004769284
464070;2.06982318697
464370;2.05413034293
464670;2.59819516499
464970;2.4367647666
465270;2.32654680725
465570;2.13594436125
465870;2.16861022696
465929;2.09949130341
466229;1.98467003868
466529;1.30467702331
466829;0.996340908488
467129;0.817521430705
467429;1.02736387958
467729;1.65436820946
468029;1.84094876409
468329;1.70823701706
468629;1.66525505334
468929;1.45965852692
469229;1.32788024274
469529;1.20283355924
469829;1.02716118479
470129;1.07154600983
470429;1.07989916882
470729;1.01518618993
471029;0.902162507947
471329;0.848517731427
471629;0.659211465273
471929;0.568030814002
472229;0.468794645031
472529;0.391299625968
472829;0.364563649698
473129;0.354061925922
473429;0.315599522615
473729;0.274191643959
474029;0.241469237074
474329;0.193838094942
474629;0.164961021596
474870;0.149988810875
475170;0.129829213741
475470;0.109398645676
475770;0.0905784343808
476070;0.074375119512
476370;0.0603859785254
476670;0.0489944779602
476970;0.0216440164302
477270;0.0
477570;0.0
477870;0.0
478170;0.0
478470;0.0
518118;0.0
518418;0.0
518718;0.0
519018;0.0
519318;0.0183169948075
519618;0.0394128818517
519918;0.0607262924105
520218;0.0738721163872
520519;0.0959125078143
520819;0.150561690362
521119;0.221979599563
521418;0.315895563691
521718;0.381386250492
522018;0.451584790506
522318;0.499249003892
522618;0.433188104641
522918;0.702044074944
523218;0.804239587856
523518;0.894214738531
523818;0.985059343176
524118;1.06993511965
524418;1.05645058201
524718;1.12015542103
525018;1.30305013091
525318;1.40467489797
525618;1.4828724145
525918;1.51969885748
526218;1.62327056134
526518;1.68405766219
526818;1.76245787351
527118;1.83574270842
527418;1.96384581599
527718;2.20941588872
528018;2.31211813861
528318;2.39962894736
528618;2.46474198176
528918;2.46363782856
529218;2.52332611028
529518;2.65173859412
529818;2.79666536931
530118;2.84911531338
530418;2.92558992419
530718;2.94246159846
531018;3.00862011126
531318;3.07292770057
531618;3.14660192283
531918;3.22239377225
532218;3.24422613481
532518;3.28578923501
532818;3.35359597649
533118;3.42240018971
533418;3.40888364763
533718;3.49693853187
534018;3.51032172212
534318;3.49497025877
534618;3.55671749284
534918;3.7839703574
535218;3.38785673016
535518;3.58993276811
535818;2.94551802254
536118;2.34740836845
536418;2.63392278885
536718;1.74091888499
537018;3.46037879256
537318;3.67281893519
537618;3.74321270229
537918;1.80271412572
538218;2.11157297973
538519;2.69169613821
538819;2.96102417401
539119;2.5333808387
539420;2.63848875571
539720;3.14145454197
540020;2.8525237863
540320;2.78388492936
540620;2.66837023509
540920;2.42740346773
541220;2.38734991032
541520;2.07545596852
541820;2.17948106862
542120;2.1327225809
542420;2.07425046792
542720;2.31881240077
543019;2.72027610367
543319;2.37253185432
543619;2.01336201968
543919;2.12910074504
544218;3.52260075916
544518;4.37219597342
544818;2.10081948769
545118;2.50701451372
545418;3.86299998939
545718;2.32011924876
546018;2.77197394338
546318;3.82855787723
546619;2.77230999001
546919;2.38043161707
547219;2.69108805384
547519;3.70848788424
547819;2.5280414312
548119;2.51184718425
548419;3.20113748962
548719;3.24629575531
549019;1.90549638671
549319;3.52390760715
549619;2.89519637377
549920;1.67288811242
550219;1.03420749579
550518;2.12449743966
550818;0.700070467774
551118;0.687594070013
551418;0.620598107689
551718;0.604595887388
552018;0.586054648134
552318;0.472373274898
552618;0.560984502996
552918;0.717731584912
553218;0.72563668174
553518;0.433167301755
553818;0.394117616963
554118;0.382206630986
554418;0.399954693521
554718;0.388984638098
555018;0.325276065231
555318;0.27244046765
555618;0.273245379331
555918;0.209054606226
556218;0.164269725679
556518;0.130835753398
556818;0.126553559245
557118;0.142636857462
557419;0.150460876374
557719;0.116644984435
558019;0.0744759334999
558319;0.0524175129047
558619;0.065619237971
558919;0.0728655767304
559219;0.103561569118
559519;0.109450919596
559819;0.0943021510447
560119;0.102655843449
560419;0.0952084101211
560719;0.0731674852867
561018;0.0718046295244
561318;0.0882175734792
561618;0.0485098773888
561918;0.0284141824541
562218;0.00221414187779
562518;0.00513278683837
562818;0.0120771423644
563118;0.0
563418;0.0
563718;0.0
564018;0.0
564318;0.0
564618;0.0
