0;0.0
300;0.0
601;0.0
901;0.0
1201;0.0
1501;0.0102414209922
1801;0.024928632169
2101;0.0302627056025
2401;0.037447382473
2701;0.0493129754849
3001;0.0623761213235
3301;0.0713432321724
3601;0.116914355144
3901;0.492912124653
4201;0.592519545135
4501;0.692560092379
4801;0.780844341776
5101;0.868387154966
5401;0.957748887197
5701;1.01249248284
6001;1.08804429896
6301;1.17414691232
6601;1.27017623634
6901;1.30140723629
7201;1.36671763141
7501;1.43431100996
7801;1.54992705163
8101;1.61744575315
8401;1.67968905605
8701;1.78051371209
9001;1.90513366971
9301;2.07702418611
9601;2.02117643726
9901;2.29375825785
10201;1.93779420135
10501;2.38400544627
10801;2.36136230455
11101;1.70912780733
11401;1.96933991163
11702;2.35896730558
12002;2.22175360058
12301;1.92233605654
12602;2.44812100894
12902;2.17346956786
13202;2.72679967548
13502;2.37660175235
13802;2.72756244798
14102;2.82357576978
14401;2.84572817675
14702;2.73680639724
15002;3.0777603711
15302;3.08564946571
15602;3.24594904053
15902;3.38372282325
16202;3.46028811331
16502;3.4721564267
16802;3.47346327469
17102;3.50837478531
17402;3.55880844963
17702;3.57241567095
18002;3.59405600687
18302;3.65297084795
18602;3.68388713757
18902;3.77696138491
19202;3.79219549863
19502;3.54508921275
19802;3.81864183472
20102;3.54215013829
20402;2.15123181571
20702;2.18552457382
21002;2.37246784544
21302;2.63492559466
21602;2.14007293409
21902;1.61481072088
22202;4.04986858398
22502;4.11112508329
22802;3.9103025526
23102;3.66102529883
23402;3.62682855405
23702;3.72231380258
24002;3.75431824318
24302;3.97321794874
24602;4.03255951569
24902;3.76510907374
25202;2.4921217807
25502;2.91662868083
25802;2.82961927498
26102;2.75849473982
26403;2.5483802532
26703;2.24194306852
27003;1.25187503039
27303;1.15237855864
27603;1.20594332406
27903;1.35779372656
28203;2.65789411486
28503;2.26480490726
28803;1.83034996018
29103;1.1088365172
29403;1.47830111357
29703;1.68089989072
30003;2.85830058783
30303;3.03585055614
30603;2.82041799831
30903;3.1145441415
31203;3.06295298325
31503;2.3238050935
31803;1.35953796857
32103;1.14960484045
32403;1.11111950063
32703;1.13354394534
33003;1.07617598557
33303;1.01291920872
33603;1.02076563074
33903;0.925141696298
34203;0.999648034017
34503;1.05559179619
34803;1.00182433598
35103;0.863901199209
35403;0.824711761693
35703;0.84889645064
36003;1.0259930227
36303;0.850731371902
36604;0.803738184953
36905;0.698987650867
37205;0.832222137087
37505;0.683305474972
37805;0.647599187409
38105;0.615530737927
38404;0.483332128767
38704;0.382964602821
39005;0.322330589881
39305;0.31438388728
39605;0.284556282047
39905;0.262458282627
40204;0.238291729529
40504;0.193550588384
40804;0.146632611871
41104;0.121239221884
41404;0.133025390542
41704;0.15370826028
42004;0.161546147784
42304;0.15246542117
42604;0.128551169746
42904;0.0967755608958
43204;0.0537759947267
43504;0.00266703671673
43804;0.0
44104;0.0
44404;0.0
86981;0.0
87281;0.0
87581;0.0
87882;0.0
88182;0.0
88482;0.00981469511755
88782;0.0328934706199
89083;0.0558445484042
89383;0.0891857078073
89683;0.124425263945
89983;0.163614701461
90283;0.221636085233
90583;0.2723641904
90883;0.353681606486
91183;0.363570445224
91483;0.476147665259
91783;0.562472709484
92083;0.499055910434
92383;0.544518218307
92683;0.610538045193
92983;0.752541748139
93283;0.875550815587
93583;1.06431300625
93883;1.24017207328
94183;1.35796441691
94483;1.49778648382
94784;1.6268923972
95084;1.72879453608
95384;1.87988216608
95684;1.97643956337
95984;1.81454510059
96284;1.98257374782
96584;2.28810414001
96884;2.36745915048
97184;2.4742312984
97484;2.56686281765
97784;2.40043972652
98084;2.60030745807
98384;2.6405797125
98684;2.72182298496
98984;2.76239928157
99284;2.80529590012
99584;2.87158243068
99884;2.94863312143
100184;3.00617710563
100484;3.03182333069
100784;3.11365335124
101084;3.15493907961
101384;3.20338313453
101684;3.24115904259
101985;3.29635070041
102285;3.32628552051
102585;3.37276663641
102885;3.40270145652
103185;3.43481791266
103485;3.48129902856
103785;3.51384754465
104085;3.55957122213
104385;3.54693480216
104685;3.59005011773
104985;3.60169440003
105285;3.59810456861
105585;3.61704586337
105885;3.64850622848
106186;3.64628191986
106486;3.61287461795
106786;3.63576846112
107086;3.65754214888
107386;3.66102529883
107686;3.63304808367
107986;3.66962382521
108286;3.65046383343
108586;3.64206266777
108886;3.6680982802
109186;3.66450844878
109486;3.66795426022
109786;3.66328694597
110086;3.64007839246
110386;3.62902085823
110686;3.58805517426
110986;3.55580003221
111286;3.56577474953
111586;3.51994439059
111886;3.44309106056
112186;3.49784532435
112486;3.45440996439
112786;3.47589561218
113086;3.45170025508
113386;3.39116385569
113686;3.35632702209
113986;3.34271980076
114286;3.33223834647
114586;3.292616849
114886;3.25734262139
115186;3.00014426857
115486;3.05794962237
115786;3.02241935923
116086;3.04809225467
116386;2.98910807064
116686;2.99130570889
116986;2.96852388126
117286;2.89161187642
117586;2.8400153841
117886;2.75738525254
118186;2.62425744779
118486;2.56808432046
118786;2.52269135554
119086;2.42896101717
119386;2.31041656919
119686;1.62950609319
119986;1.81091793066
120286;2.0801766235
120586;2.05546919536
120886;1.55466904291
121186;1.08042190802
121486;1.53643184585
121786;1.79486236962
122086;1.6359283176
122386;1.66433759271
122686;1.59521333508
122986;1.51912277755
123286;1.43606058605
123586;1.34201020327
123885;1.26743985667
124185;1.15967023702
124485;0.950227843656
124785;0.797609334578
125085;0.394394988781
125385;0.172290571901
125685;0.154021370391
125985;0.112015542103
126285;0.105721335451
126585;0.0978637118762
126885;0.0851275447392
127185;0.0738059738767
127486;0.0693429546349
127786;0.066295065075
128086;0.0683630853452
128387;0.061235163016
128686;0.0546470489184
128986;0.0413662728838
129286;0.0308069944556
129587;0.00298708112273
129887;0.0
130187;0.0
130487;0.0
130787;0.0
173996;0.0
174297;0.0
174597;0.0
174897;0.0
175197;0.00838212301553
175497;0.0217717141482
175797;0.0244478187898
176097;0.0358145159135
176397;0.0496068829311
176697;0.0778337327263
176997;0.0826781382185
177297;0.0910056936628
177597;0.086433859323
177896;0.144564058193
178196;0.197143086842
178496;0.316234277354
178796;0.38949830937
179096;0.400055507509
179396;0.514139603289
179696;0.50897728702
179996;0.586636062138
180296;0.580859260609
180596;0.61235163016
180896;0.620822138773
181196;0.54254994521
181496;0.864343927304
181797;1.725738112
182097;2.03565844663
182397;2.20408181529
182697;2.29642529457
182997;2.36146898602
183297;2.42497646432
183598;2.46858784871
183898;2.55202342535
184198;2.67258948717
184498;2.71205629651
184798;2.78261008581
185099;2.89473764345
185399;2.97184167493
185699;3.1833323525
185999;2.3960871226
186299;3.15820886663
186599;2.33142748444
186898;2.96356852704
187199;3.27000571172
187499;3.32646154494
187799;3.5088388497
188099;2.33425454336
188399;1.29215261889
188698;3.03531181472
188998;2.7564091171
189298;2.52432358201
189598;4.03081527368
189898;1.65225591638
190198;1.78604514624
190498;1.07620265593
190798;4.40725150402
191098;1.7426844633
191398;0.6922347139
191698;3.25160849245
191998;2.31945248958
192298;1.05792278628
192598;2.85287583515
192898;3.95102286919
193198;3.3662430646
193498;3.06818037522
193798;3.7364650994
194098;1.17240800438
194398;2.12089160602
194698;1.73302979038
194998;0.733269740823
195298;1.56255813752
195598;1.18949837566
195899;1.66803943967
196199;3.82061010781
196499;3.98106970484
196799;4.03789358912
197099;1.75523020401
197399;0.911017069846
197699;1.04939893693
197999;1.70026257728
198299;2.41394026638
198599;4.03234081868
198899;3.3211274715
199199;3.83552417713
199499;3.6923736484
199799;1.82806164267
200099;3.87330008519
200399;3.68323104653
200700;3.85098232194
201000;1.98068548582
201299;1.17305342726
201599;1.81902572228
201899;2.03639454876
202199;1.14715116667
202499;1.15509893609
202799;1.26917876461
203098;2.00806528476
203398;2.4386530286
203698;1.30151391776
203999;2.86864335622
204299;2.49678376088
204598;1.09783765778
204898;1.91373753016
205198;2.53020173094
205498;2.97978944435
205798;2.11873664036
206098;1.1385526403
206398;0.705185844196
206699;0.504233162108
207000;1.08466783047
207300;0.489178806657
207600;0.407893395012
207900;0.387863415862
208200;0.387387083105
208500;0.457750445987
208800;0.410723654376
209100;0.689839714928
209400;1.97578347234
209700;0.82133529321
210000;0.918986175556
210299;0.541029734282
210599;0.290761409672
210899;0.23731186024
211199;0.263982227407
211499;0.314710332574
211799;0.273779320082
212099;0.31993345728
212399;0.290543779476
212699;0.245693823233
212999;0.172540739945
213299;0.109729358229
213599;0.0831678061597
213900;0.0772896572361
214200;0.0816438613798
214500;0.0724996592928
214800;0.0635645528844
215100;0.0544294187223
215400;0.0402278215909
215700;0.0227514767564
216000;0.0
216300;0.0
216600;0.0
216900;0.0
259486;0.0
259786;0.0
260086;0.0
260387;0.0
260687;0.0
260987;0.0151131902812
261287;0.0274482350961
261587;0.0364676198647
261887;0.0433257447596
262187;0.0512293480474
262487;0.0740241374801
262787;0.201948020191
263087;0.501402902745
263387;0.578368248316
263687;0.669260859622
263986;0.761246955982
264287;0.844527844498
264587;0.934876380314
264887;1.02991356668
265187;1.11013803112
265487;1.18851690615
265787;1.2642820852
266087;1.34320503572
266387;1.42049575977
266687;1.50154167152
266987;1.56896435972
267287;1.65323205182
267588;1.71379512158
267888;1.77896683079
268188;1.84493865102
268488;2.05383696889
268788;2.20580472101
269088;2.31968185474
269388;2.38762194806
269688;2.46092811926
269988;2.53771210633
270288;2.61968081278
270588;2.74726651524
270888;2.85383596837
271187;2.9769677195
271487;1.48009869631
271787;1.34262895579
272087;3.08037406709
272387;3.084507974
272687;3.13131980245
272987;3.1348029524
273287;3.20392721002
273587;3.25345408185
273887;3.31441720712
274187;3.34446404278
274487;3.39540977814
274787;3.41576460236
275087;3.4760716366
275387;3.5811208788
275687;3.51426360238
275987;2.90521909775
276288;3.9354793792
276588;4.00788942606
276888;3.42203213864
277188;3.88629922215
277488;3.25171517391
277788;3.78196474579
278088;3.86250925463
278389;3.86142643773
278689;3.88821415451
278989;4.02933773534
279289;4.01209267593
279589;4.00882822299
279889;3.9603361614
280189;3.41696476888
280489;3.71110158022
280789;3.96855063449
281089;3.96466209496
281389;3.94486734845
281689;3.90087191077
281989;3.87395084215
282289;3.80744028051
282590;3.80452787641
282890;3.70859456571
283190;3.80660816505
283490;3.81102477785
283791;3.68628213654
284091;3.60305992283
284391;3.62934623671
284690;3.75885753967
284990;3.47727180312
285291;3.29752419656
285590;3.38768070573
285890;3.43436451642
286190;3.51515439265
286490;3.48391272455
286790;3.49148177475
287090;3.46540348973
287390;3.3108273757
287690;3.33749774287
287990;3.26020701882
288290;3.19903053061
288590;3.12232122057
288890;2.99350334715
289191;3.09615759037
289491;3.12521228837
289791;2.06766288723
290091;3.10584426773
290391;2.6451563475
290691;2.78525578623
290991;2.79352893413
291291;2.50287527274
291591;1.37063817539
291891;1.08597467846
292191;1.59844578358
292491;1.22779702291
292791;1.22770634366
293091;1.33384907092
293391;1.45533259336
293691;1.12580953886
293991;1.11504537868
294291;1.13528818736
294591;1.32677075547
294891;1.56157666801
295191;1.52842540162
295491;1.49431933609
295791;1.23968133852
296092;1.03577037931
296391;1.09707488528
296691;1.06403563443
296991;1.12090219131
297291;1.01636502016
297591;0.817889481772
297891;0.495535421968
298191;0.407893395012
298491;0.33288992165
298791;0.28348359988
299091;0.251898950858
299391;0.215496566712
299691;0.198360855807
299992;0.18735932935
300292;0.168770083434
300592;0.146197351479
300892;0.122574873871
301192;0.109126074524
301492;0.0876313588088
301792;0.0689076942427
302092;0.0427792689363
302392;0.00849099145431
302692;0.0
302992;0.0
303292;0.0
303592;0.0
303892;0.0
345635;0.0
345935;0.0
346235;0.0
346535;0.0174468474083
346835;0.026779235606
347135;0.0483267053071
347434;0.059119136085
347734;0.0791400473101
348034;0.0866253525593
348334;0.104942027322
348634;0.132045521252
348934;0.172183890432
349234;0.21227425295
349534;0.239699924916
349835;0.277051774134
350135;0.300776665951
350434;0.307198890365
350734;0.331038998168
351035;0.351159656567
351335;0.402776951775
351635;0.508337198208
351935;0.667313922819
352235;0.754995421918
352535;0.812848782377
352835;0.889568760571
353135;1.05113784487
353435;1.20592732184
353735;1.38674707716
354035;1.37619094583
354335;1.40558169045
354636;1.33207282446
354935;1.32263151449
355235;1.47818909803
355536;1.53021231622
355835;1.76143906549
356136;1.96837977841
356436;1.88614970236
356736;2.06591864522
357036;2.20743694748
357336;2.44111737053
357636;2.45214823439
357936;2.44181080007
358236;2.5081026647
358536;2.43702080213
358836;2.72353522253
359136;2.63557635162
359436;3.04842296722
359736;3.04716945996
360036;3.10943409915
360336;3.01211926343
360636;3.04804424801
360936;3.06886847069
361236;3.14144387382
361536;3.18160944678
361836;3.00809203799
362136;3.10628166175
362437;3.23311525985
362737;3.30379173285
363037;3.31354775316
363337;3.4677984887
363637;3.53431438442
363937;3.46116290135
364237;3.59026881474
364537;3.19711026418
364837;3.33477736542
365137;3.09702704434
365437;3.03541316211
365737;3.03175398774
366037;3.29112330844
366337;3.16713277148
366637;3.52277678358
366937;3.63032770622
367237;3.33619089488
367537;2.33806840587
367837;3.19913721208
368138;3.38613382444
368438;3.44940126943
368738;3.6794225181
369038;3.66139868397
369338;2.70078539934
369638;3.13477094796
369938;3.32704829302
370238;3.33826051537
370538;3.19888651063
370838;3.33455866841
371138;3.34846459785
371438;3.58852457272
371738;3.46225638641
372038;3.0443103966
372338;2.98751851676
372638;2.75956688858
372938;2.79594526939
373238;2.95910390758
373538;2.68281490594
373838;3.07123146522
374138;3.07427722115
374438;2.80876838193
374738;2.75182714803
375038;2.60302783553
375279;2.65763274526
375579;2.39033165737
375879;2.74971485495
376179;2.39412951765
376479;2.52649988398
376779;2.53324748687
377079;2.96229901756
377379;2.54268879685
377679;1.79017905315
377979;0.869128591174
378279;1.03382877658
378579;1.02337932672
378879;0.900263577805
379180;0.908926113061
379480;0.95686876508
379780;1.0768320766
380080;0.501729348039
380380;0.456879925203
380680;0.492068274236
380980;1.29906024398
381280;1.79105384119
381580;1.42208531365
381880;1.59445056258
382180;1.28455156424
382480;1.51510088619
382780;1.47329241861
383080;1.29137917824
383380;1.194389721
383680;1.08249152851
383980;0.814806387327
384280;0.474950165773
384580;0.2323042321
384880;0.174500478524
385180;0.15316418479
385480;0.161355721362
385780;0.157781892162
386081;0.128017762403
386381;0.115349337998
386681;0.10742823895
386981;0.0972358914331
387281;0.0841476754494
387581;0.0723908441948
387881;0.0599811223518
388181;0.045446305653
388481;0.0297818922232
388781;0.0
389081;0.0
389382;0.0
389682;0.0
432293;0.0
432594;0.0
432894;0.0
433194;0.0
433494;0.0
433794;0.0128017762403
434094;0.0351159656567
434394;0.0426725874676
434694;0.0471176308819
434994;0.060275029798
435294;0.0921237154545
435594;0.143353223524
435894;0.123663558259
436194;0.0858785822786
436494;0.0719555838026
436794;0.0616752240743
437093;0.0610698067396
437393;0.0694496361036
437693;0.0686900640466
437993;0.0719555838026
438294;0.0627025666176
438594;0.0584571775719
438894;0.0496395274605
439194;0.0455529871217
439495;0.0795758411096
439795;0.147067872263
440095;0.192133325073
440395;0.173847054528
440695;0.1922442738
440995;0.204763344149
441295;0.193582592825
441595;0.172397253369
441895;0.230018048227
442195;0.210859123268
442495;0.184188756101
442795;0.111144487911
443095;0.0792333935952
443395;0.0568612228006
443695;0.0399511432019
443995;0.0432168763208
444295;0.0653151957853
444595;0.0808821556935
444895;0.105401291045
445195;0.159478127513
445495;0.277158455602
445796;0.220112140453
446095;0.133462784564
446395;0.0718467687046
446694;0.0693429546349
446994;0.0295507668213
447294;0.0116478561344
447594;0.0409308524694
447894;0.060416382744
448194;0.0763839315671
448494;0.112777781196
448794;0.167689933564
449094;0.152447818728
449394;0.0669479556633
449694;0.0308069944556
449994;0.0559533635022
450295;0.0940930553661
450595;0.117349615536
450895;0.151274322573
451195;0.136617355592
451495;0.0488956909202
451795;0.0788376053464
452095;0.0617226973279
452395;0.0675293696675
452695;0.0652063806873
452996;0.0644441415936
453296;0.0557357333062
453596;0.0452329427157
453896;0.0584571775719
454196;0.0974284514841
454496;0.318155077197
454796;0.449694928288
455096;0.588241618241
455396;0.400055507509
455696;0.364567383549
455996;0.25277000505
456296;0.258756969072
456596;0.138359463976
456896;0.215923292586
457196;0.341380699741
457495;0.179725736859
457795;0.120397505096
458095;0.0917679327565
458395;0.191482568114
458695;0.192986776822
458995;0.146131208968
459295;0.146741426969
459595;0.111268771822
459895;0.115215986163
460195;0.137597224882
460495;0.161546147784
460795;0.309158628944
461096;0.291414833668
461396;0.227950027957
461696;0.283239299316
461996;0.269642746135
462296;0.264356679362
462596;0.231324362811
462896;0.269642746135
463196;0.445667169438
463496;0.848971127668
463796;2.3743827778
464096;1.21554999031
464397;1.51609835792
464697;1.20278021851
464997;0.606057423509
465297;0.566937328948
465597;0.717704914545
465897;0.54963359473
466197;0.379786028462
466497;0.328898967907
466797;0.164133706806
467097;0.11963579941
467397;0.121377374386
467697;0.150769185819
467997;0.136685631732
468297;0.091332138957
468597;0.118873560316
468897;0.242972378967
469197;0.25483802532
469497;0.217608326384
469797;0.21075030817
470097;0.172579678681
470397;0.143040113414
470697;0.138250648878
470997;0.124642894142
471297;0.151531424912
471597;0.1602398332
471897;0.140926220112
472197;0.115015958409
472497;0.0691295916976
472797;0.0579125686744
473098;0.0845829358416
473398;0.0706492692188
473698;0.00608084371414
473998;0.0
474298;0.0
474598;0.0
474898;0.0
475198;0.0
475498;0.0
519882;0.0
520182;0.0
520482;0.0
520782;0.0
521082;0.0211185568563
521382;0.0237899675132
521682;0.0326575978926
521982;0.0395156694468
522282;0.0657504561775
522582;0.0922031931487
522883;0.116282800849
523183;0.148047741553
523484;0.24776237691
523784;0.349653847636
524083;0.365810756066
524383;0.368159882006
524683;0.458063556098
524983;0.519112026544
525284;0.607865674403
525584;0.906045713406
525884;1.25982279981
526184;0.979618588274
526484;0.77213379986
526784;1.14063826301
527084;1.92549382801
527384;1.55559183762
527684;1.2025615215
527984;1.19493913056
528284;1.08025655174
528584;1.08118468052
528884;1.08215014781
529184;1.21529928886
529484;1.54880156214
529784;1.66712197904
530084;1.35093410812
530383;1.10596678569
530683;1.40187984349
530983;1.32949113292
531283;2.18857032975
531583;3.04227278055
531883;3.00241658386
532183;2.59716035475
532483;1.85788978131
532783;2.00953215495
533083;2.99454882554
533383;2.97184167493
533683;3.07220760066
533984;2.13134105588
534284;3.40346422902
534584;3.35715913755
534884;3.37200386391
535184;3.30538128673
535484;3.43753829012
535784;3.46714773174
536084;3.47531419817
536384;3.41957846487
536684;3.69880120689
536984;3.66929844673
537284;3.76233535555
537583;4.18539672178
537884;3.6507305371
538184;2.64964763733
538484;2.10162493278
538784;3.12772463695
539084;3.77870029285
539384;3.64349219945
539684;3.37035563522
539984;2.78939502722
540284;3.03903499798
540584;3.58916466154
540884;3.58711104326
541185;3.91275622638
541485;3.23691312014
541785;2.39099841655
542085;3.11413875192
542385;3.03780816109
542685;2.7417137448
542985;2.65263471846
543285;2.64972764844
543585;1.90458959422
543885;2.81372373615
544185;3.5483536657
544486;2.25772659181
544786;2.61593629323
545086;1.98449934833
545386;2.14407882324
545685;1.7120242092
545985;1.04504099894
546286;1.05941099277
546585;1.30317814867
546885;2.36571490847
547185;1.97230032239
547486;1.3620023105
547786;1.27673181259
548086;1.05667994717
548385;1.00248042701
548685;0.992356355633
548985;0.521294729393
549285;0.577786834312
549585;0.578800308264
549885;0.504015531912
550185;0.432168763208
550485;0.472773330405
550785;0.380460788751
551085;0.459730454046
551385;0.510438289734
551685;0.564649011445
551986;0.396855063449
552286;0.361050095527
552586;0.31090020392
552886;0.393014530577
553186;0.252225396152
553486;0.157844834228
553786;0.149020676547
554086;0.151857870206
554386;0.173085348842
554686;0.371207771566
554986;0.580432534735
555286;0.466838106896
555586;0.291741278962
555886;0.194693680321
556186;0.207266624811
556486;0.281290762291
556786;0.256797763899
557086;0.236255180293
557386;0.238006356601
557686;0.230345026928
557986;0.194160272978
558286;0.167169861404
558586;0.137463339639
558886;0.111689096808
559185;0.0889376733927
559485;0.0699830434469
559785;0.0519255513119
560085;0.0327512108814
560385;0.0227514767564
560685;0.00348347533052
560985;0.0
561285;0.0
561585;0.0
561886;0.0
562185;0.0
605702;0.0
606002;0.0
606303;0.0
606603;0.0
606903;0.0158933518616
607203;0.0333107551846
607503;0.0731210788478
607803;0.140645114442
608103;0.200190976402
608403;0.243298824261
608703;0.260934337847
609003;0.254648665713
609303;0.333869257532
609604;0.338824611752
609904;0.370078014813
610204;0.399499697057
610504;0.372731716346
610804;0.400273137705
611104;0.48906785793
611404;0.39047604503
611704;0.39440138967
612004;0.449395686768
612304;0.556487879092
612604;0.419898260681
612904;0.406389719711
613203;0.435282795278
613503;0.463210936961
613803;0.657285864764
614103;1.29280337585
614403;1.54208062961
614703;1.36963536958
615003;1.10404651926
615303;1.17477633298
615603;1.23990003553
615903;1.14982353746
616203;1.06169931027
616503;1.64667114149
616803;2.57891782361
617103;2.41100119192
617403;2.13662712265
617703;1.56505981796
618003;1.03363674993
618303;1.02458482732
618603;1.23696096107
618903;1.21094135086
619203;1.1406009245
619503;1.43236407316
619803;1.19024514594
620103;0.858673807244
620404;1.00226173
620704;1.11253303009
621004;0.94990779925
621304;1.01532487584
621604;1.32219945454
621904;2.05132995438
622204;1.80131659848
622505;1.72094811406
622805;2.41744475263
623105;3.5049236398
623405;2.3725958632
623705;1.76079897668
624004;2.58969265194
624304;3.37092104701
624605;3.43743160865
624905;2.36477077747
625205;2.51082304215
625505;3.16484978805
625805;3.45756773586
626105;3.40498977402
626405;2.84077282253
626705;2.66845024619
627005;2.44169878453
627305;2.07806433043
627605;3.44069606159
627905;2.32682951314
628205;2.7182011491
628505;1.31827891056
628805;0.915828404083
629105;0.916457824749
629405;0.98865450867
629705;1.08559062518
630005;0.915796399643
630305;0.827106760665
630605;0.8339663791
630905;0.745682129703
631206;0.710210541371
631506;0.709538448118
631806;0.622561046712
632106;0.479288901104
632406;0.461290670525
632706;0.795998444401
633007;1.47679157079
633307;1.04612914992
633607;1.29840415295
633907;1.41254799035
634207;1.17120783786
634507;0.859223216808
634806;0.766442343506
635106;0.871630271614
635406;0.816219916787
635706;0.979618588274
636006;2.02988697917
636306;1.67912364426
636606;0.827634833935
636906;0.753768585028
637206;0.921813234476
637506;0.820359157771
637806;0.94336822522
638106;0.824173020276
638406;0.497701589189
638706;0.449694928288
639006;0.384597362699
639306;0.367180012717
639606;0.487747674755
639906;0.600355299009
640207;0.533189713149
640506;0.322822391451
640806;0.271166690914
641106;0.192897697796
641406;0.15621207435
641706;0.158824703518
642007;0.282705891973
642307;0.252941762214
642607;0.181691876327
642907;0.157844834228
643207;0.0471532091517
643507;0.00677870054144
643807;0.0702140088266
644107;0.184624016493
644407;0.396499280751
644707;0.442728094977
645007;0.542075212675
645307;0.516642883951
645606;0.555069015559
645906;0.349218587244
646206;0.198340586328
646506;0.119308820708
646806;0.0647711202951
647106;0.0165578707299
647407;0.0
647707;0.0
648007;0.0
648306;0.0
648607;0.0
